^C:\USERS\TULLY\DOCUMENTS\SCHOOL\CMPUT_466\PROJECTREVERSEMETRONOME\WDL-OL\VST3_SDK\BASE\SOURCE\BASEIIDS.CPP
C:\USERS\TULLY\DOCUMENTS\SCHOOL\CMPUT_466\PROJECTREVERSEMETRONOME\WDL-OL\VST3_SDK\PLUGINTERFACES\BASE\FUNKNOWN.H
C:\PROGRAM FILES (X86)\MICROSOFT VISUAL STUDIO 10.0\VC\INCLUDE\STRING.H
C:\PROGRAM FILES (X86)\MICROSOFT VISUAL STUDIO 10.0\VC\INCLUDE\CRTDEFS.H
C:\PROGRAM FILES (X86)\MICROSOFT VISUAL STUDIO 10.0\VC\INCLUDE\SAL.H
C:\PROGRAM FILES (X86)\MICROSOFT VISUAL STUDIO 10.0\VC\INCLUDE\CODEANALYSIS\SOURCEANNOTATIONS.H
C:\PROGRAM FILES (X86)\MICROSOFT VISUAL STUDIO 10.0\VC\INCLUDE\VADEFS.H
C:\USERS\TULLY\DOCUMENTS\SCHOOL\CMPUT_466\PROJECTREVERSEMETRONOME\WDL-OL\VST3_SDK\PLUGINTERFACES\BASE\FTYPES.H
C:\USERS\TULLY\DOCUMENTS\SCHOOL\CMPUT_466\PROJECTREVERSEMETRONOME\WDL-OL\VST3_SDK\PLUGINTERFACES\BASE\FPLATFORM.H
C:\USERS\TULLY\DOCUMENTS\SCHOOL\CMPUT_466\PROJECTREVERSEMETRONOME\WDL-OL\VST3_SDK\PLUGINTERFACES\BASE\ISTRINGRESULT.H
C:\USERS\TULLY\DOCUMENTS\SCHOOL\CMPUT_466\PROJECTREVERSEMETRONOME\WDL-OL\VST3_SDK\PLUGINTERFACES\BASE\IUPDATEHANDLER.H
C:\USERS\TULLY\DOCUMENTS\SCHOOL\CMPUT_466\PROJECTREVERSEMETRONOME\WDL-OL\VST3_SDK\PLUGINTERFACES\BASE\IPERSISTENT.H
C:\USERS\TULLY\DOCUMENTS\SCHOOL\CMPUT_466\PROJECTREVERSEMETRONOME\WDL-OL\VST3_SDK\PLUGINTERFACES\BASE\ICLONEABLE.H
C:\USERS\TULLY\DOCUMENTS\SCHOOL\CMPUT_466\PROJECTREVERSEMETRONOME\WDL-OL\VST3_SDK\PLUGINTERFACES\BASE\IBSTREAM.H
^C:\USERS\TULLY\DOCUMENTS\SCHOOL\CMPUT_466\PROJECTREVERSEMETRONOME\WDL-OL\VST3_SDK\BASE\SOURCE\CLASSFACTORY.CPP
C:\USERS\TULLY\DOCUMENTS\SCHOOL\CMPUT_466\PROJECTREVERSEMETRONOME\WDL-OL\VST3_SDK\BASE\SOURCE\CLASSFACTORY.H
C:\USERS\TULLY\DOCUMENTS\SCHOOL\CMPUT_466\PROJECTREVERSEMETRONOME\WDL-OL\VST3_SDK\BASE\SOURCE\FOBJECT.H
C:\USERS\TULLY\DOCUMENTS\SCHOOL\CMPUT_466\PROJECTREVERSEMETRONOME\WDL-OL\VST3_SDK\PLUGINTERFACES\BASE\FUNKNOWN.H
C:\PROGRAM FILES (X86)\MICROSOFT VISUAL STUDIO 10.0\VC\INCLUDE\STRING.H
C:\PROGRAM FILES (X86)\MICROSOFT VISUAL STUDIO 10.0\VC\INCLUDE\CRTDEFS.H
C:\PROGRAM FILES (X86)\MICROSOFT VISUAL STUDIO 10.0\VC\INCLUDE\SAL.H
C:\PROGRAM FILES (X86)\MICROSOFT VISUAL STUDIO 10.0\VC\INCLUDE\CODEANALYSIS\SOURCEANNOTATIONS.H
C:\PROGRAM FILES (X86)\MICROSOFT VISUAL STUDIO 10.0\VC\INCLUDE\VADEFS.H
C:\USERS\TULLY\DOCUMENTS\SCHOOL\CMPUT_466\PROJECTREVERSEMETRONOME\WDL-OL\VST3_SDK\PLUGINTERFACES\BASE\FTYPES.H
C:\USERS\TULLY\DOCUMENTS\SCHOOL\CMPUT_466\PROJECTREVERSEMETRONOME\WDL-OL\VST3_SDK\PLUGINTERFACES\BASE\FPLATFORM.H
C:\USERS\TULLY\DOCUMENTS\SCHOOL\CMPUT_466\PROJECTREVERSEMETRONOME\WDL-OL\VST3_SDK\PLUGINTERFACES\BASE\IUPDATEHANDLER.H
C:\USERS\TULLY\DOCUMENTS\SCHOOL\CMPUT_466\PROJECTREVERSEMETRONOME\WDL-OL\VST3_SDK\BASE\SOURCE\FDEBUG.H
C:\USERS\TULLY\DOCUMENTS\SCHOOL\CMPUT_466\PROJECTREVERSEMETRONOME\WDL-OL\VST3_SDK\BASE\SOURCE\THASHTABLE.H
C:\USERS\TULLY\DOCUMENTS\SCHOOL\CMPUT_466\PROJECTREVERSEMETRONOME\WDL-OL\VST3_SDK\BASE\SOURCE\TCONTAINER.H
C:\USERS\TULLY\DOCUMENTS\SCHOOL\CMPUT_466\PROJECTREVERSEMETRONOME\WDL-OL\VST3_SDK\BASE\SOURCE\FCLEANUP.H
C:\PROGRAM FILES (X86)\MICROSOFT VISUAL STUDIO 10.0\VC\INCLUDE\STDLIB.H
C:\PROGRAM FILES (X86)\MICROSOFT VISUAL STUDIO 10.0\VC\INCLUDE\LIMITS.H
C:\USERS\TULLY\DOCUMENTS\SCHOOL\CMPUT_466\PROJECTREVERSEMETRONOME\WDL-OL\VST3_SDK\BASE\SOURCE\TARRAY.H
C:\USERS\TULLY\DOCUMENTS\SCHOOL\CMPUT_466\PROJECTREVERSEMETRONOME\WDL-OL\VST3_SDK\BASE\SOURCE\FSTRING.H
C:\USERS\TULLY\DOCUMENTS\SCHOOL\CMPUT_466\PROJECTREVERSEMETRONOME\WDL-OL\VST3_SDK\PLUGINTERFACES\BASE\FSTRDEFS.H
C:\USERS\TULLY\DOCUMENTS\SCHOOL\CMPUT_466\PROJECTREVERSEMETRONOME\WDL-OL\VST3_SDK\PLUGINTERFACES\BASE\CONSTSTRINGTABLE.H
C:\USERS\TULLY\DOCUMENTS\SCHOOL\CMPUT_466\PROJECTREVERSEMETRONOME\WDL-OL\VST3_SDK\PLUGINTERFACES\BASE\ISTRINGRESULT.H
C:\USERS\TULLY\DOCUMENTS\SCHOOL\CMPUT_466\PROJECTREVERSEMETRONOME\WDL-OL\VST3_SDK\PLUGINTERFACES\BASE\IPERSISTENT.H
C:\PROGRAM FILES (X86)\MICROSOFT VISUAL STUDIO 10.0\VC\INCLUDE\STDARG.H
^C:\USERS\TULLY\DOCUMENTS\SCHOOL\CMPUT_466\PROJECTREVERSEMETRONOME\WDL-OL\VST3_SDK\BASE\SOURCE\FATOMIC.CPP
C:\USERS\TULLY\DOCUMENTS\SCHOOL\CMPUT_466\PROJECTREVERSEMETRONOME\WDL-OL\VST3_SDK\PLUGINTERFACES\BASE\FTYPES.H
C:\USERS\TULLY\DOCUMENTS\SCHOOL\CMPUT_466\PROJECTREVERSEMETRONOME\WDL-OL\VST3_SDK\PLUGINTERFACES\BASE\FPLATFORM.H
C:\USERS\TULLY\DOCUMENTS\SCHOOL\CMPUT_466\PROJECTREVERSEMETRONOME\WDL-OL\VST3_SDK\BASE\SOURCE\FATOMIC.H
C:\PROGRAM FILES (X86)\MICROSOFT SDKS\WINDOWS\V7.0A\INCLUDE\WINDOWS.H
C:\PROGRAM FILES (X86)\MICROSOFT SDKS\WINDOWS\V7.0A\INCLUDE\SDKDDKVER.H
C:\PROGRAM FILES (X86)\MICROSOFT VISUAL STUDIO 10.0\VC\INCLUDE\EXCPT.H
C:\PROGRAM FILES (X86)\MICROSOFT VISUAL STUDIO 10.0\VC\INCLUDE\CRTDEFS.H
C:\PROGRAM FILES (X86)\MICROSOFT VISUAL STUDIO 10.0\VC\INCLUDE\SAL.H
C:\PROGRAM FILES (X86)\MICROSOFT VISUAL STUDIO 10.0\VC\INCLUDE\CODEANALYSIS\SOURCEANNOTATIONS.H
C:\PROGRAM FILES (X86)\MICROSOFT VISUAL STUDIO 10.0\VC\INCLUDE\VADEFS.H
C:\PROGRAM FILES (X86)\MICROSOFT VISUAL STUDIO 10.0\VC\INCLUDE\STDARG.H
C:\PROGRAM FILES (X86)\MICROSOFT SDKS\WINDOWS\V7.0A\INCLUDE\WINDEF.H
C:\PROGRAM FILES (X86)\MICROSOFT SDKS\WINDOWS\V7.0A\INCLUDE\WINNT.H
C:\PROGRAM FILES (X86)\MICROSOFT VISUAL STUDIO 10.0\VC\INCLUDE\CTYPE.H
C:\PROGRAM FILES (X86)\MICROSOFT SDKS\WINDOWS\V7.0A\INCLUDE\SPECSTRINGS.H
C:\PROGRAM FILES (X86)\MICROSOFT SDKS\WINDOWS\V7.0A\INCLUDE\SAL_SUPP.H
C:\PROGRAM FILES (X86)\MICROSOFT SDKS\WINDOWS\V7.0A\INCLUDE\SPECSTRINGS_SUPP.H
C:\PROGRAM FILES (X86)\MICROSOFT SDKS\WINDOWS\V7.0A\INCLUDE\SPECSTRINGS_STRICT.H
C:\PROGRAM FILES (X86)\MICROSOFT SDKS\WINDOWS\V7.0A\INCLUDE\SPECSTRINGS_UNDEF.H
C:\PROGRAM FILES (X86)\MICROSOFT SDKS\WINDOWS\V7.0A\INCLUDE\DRIVERSPECS.H
C:\PROGRAM FILES (X86)\MICROSOFT SDKS\WINDOWS\V7.0A\INCLUDE\SDV_DRIVERSPECS.H
C:\PROGRAM FILES (X86)\MICROSOFT SDKS\WINDOWS\V7.0A\INCLUDE\KERNELSPECS.H
C:\PROGRAM FILES (X86)\MICROSOFT SDKS\WINDOWS\V7.0A\INCLUDE\BASETSD.H
C:\PROGRAM FILES (X86)\MICROSOFT SDKS\WINDOWS\V7.0A\INCLUDE\GUIDDEF.H
C:\PROGRAM FILES (X86)\MICROSOFT VISUAL STUDIO 10.0\VC\INCLUDE\STRING.H
C:\PROGRAM FILES (X86)\MICROSOFT SDKS\WINDOWS\V7.0A\INCLUDE\PSHPACK4.H
C:\PROGRAM FILES (X86)\MICROSOFT SDKS\WINDOWS\V7.0A\INCLUDE\POPPACK.H
C:\PROGRAM FILES (X86)\MICROSOFT SDKS\WINDOWS\V7.0A\INCLUDE\PSHPACK2.H
C:\PROGRAM FILES (X86)\MICROSOFT SDKS\WINDOWS\V7.0A\INCLUDE\PSHPACK8.H
C:\PROGRAM FILES (X86)\MICROSOFT SDKS\WINDOWS\V7.0A\INCLUDE\KTMTYPES.H
C:\PROGRAM FILES (X86)\MICROSOFT SDKS\WINDOWS\V7.0A\INCLUDE\WINBASE.H
C:\PROGRAM FILES (X86)\MICROSOFT SDKS\WINDOWS\V7.0A\INCLUDE\WINERROR.H
C:\PROGRAM FILES (X86)\MICROSOFT SDKS\WINDOWS\V7.0A\INCLUDE\WINGDI.H
C:\PROGRAM FILES (X86)\MICROSOFT SDKS\WINDOWS\V7.0A\INCLUDE\PSHPACK1.H
C:\PROGRAM FILES (X86)\MICROSOFT SDKS\WINDOWS\V7.0A\INCLUDE\WINUSER.H
C:\PROGRAM FILES (X86)\MICROSOFT SDKS\WINDOWS\V7.0A\INCLUDE\TVOUT.H
C:\PROGRAM FILES (X86)\MICROSOFT SDKS\WINDOWS\V7.0A\INCLUDE\WINNLS.H
C:\PROGRAM FILES (X86)\MICROSOFT SDKS\WINDOWS\V7.0A\INCLUDE\WINCON.H
C:\PROGRAM FILES (X86)\MICROSOFT SDKS\WINDOWS\V7.0A\INCLUDE\WINVER.H
C:\PROGRAM FILES (X86)\MICROSOFT SDKS\WINDOWS\V7.0A\INCLUDE\VERRSRC.H
C:\PROGRAM FILES (X86)\MICROSOFT SDKS\WINDOWS\V7.0A\INCLUDE\WINREG.H
C:\PROGRAM FILES (X86)\MICROSOFT SDKS\WINDOWS\V7.0A\INCLUDE\REASON.H
C:\PROGRAM FILES (X86)\MICROSOFT SDKS\WINDOWS\V7.0A\INCLUDE\WINNETWK.H
C:\PROGRAM FILES (X86)\MICROSOFT SDKS\WINDOWS\V7.0A\INCLUDE\WNNC.H
C:\PROGRAM FILES (X86)\MICROSOFT SDKS\WINDOWS\V7.0A\INCLUDE\CDERR.H
C:\PROGRAM FILES (X86)\MICROSOFT SDKS\WINDOWS\V7.0A\INCLUDE\DDE.H
C:\PROGRAM FILES (X86)\MICROSOFT SDKS\WINDOWS\V7.0A\INCLUDE\DDEML.H
C:\PROGRAM FILES (X86)\MICROSOFT SDKS\WINDOWS\V7.0A\INCLUDE\DLGS.H
C:\PROGRAM FILES (X86)\MICROSOFT SDKS\WINDOWS\V7.0A\INCLUDE\LZEXPAND.H
C:\PROGRAM FILES (X86)\MICROSOFT SDKS\WINDOWS\V7.0A\INCLUDE\MMSYSTEM.H
C:\PROGRAM FILES (X86)\MICROSOFT SDKS\WINDOWS\V7.0A\INCLUDE\NB30.H
C:\PROGRAM FILES (X86)\MICROSOFT SDKS\WINDOWS\V7.0A\INCLUDE\RPC.H
C:\PROGRAM FILES (X86)\MICROSOFT SDKS\WINDOWS\V7.0A\INCLUDE\RPCDCE.H
C:\PROGRAM FILES (X86)\MICROSOFT SDKS\WINDOWS\V7.0A\INCLUDE\RPCDCEP.H
C:\PROGRAM FILES (X86)\MICROSOFT SDKS\WINDOWS\V7.0A\INCLUDE\RPCNSI.H
C:\PROGRAM FILES (X86)\MICROSOFT SDKS\WINDOWS\V7.0A\INCLUDE\RPCNTERR.H
C:\PROGRAM FILES (X86)\MICROSOFT SDKS\WINDOWS\V7.0A\INCLUDE\RPCASYNC.H
C:\PROGRAM FILES (X86)\MICROSOFT SDKS\WINDOWS\V7.0A\INCLUDE\SHELLAPI.H
C:\PROGRAM FILES (X86)\MICROSOFT SDKS\WINDOWS\V7.0A\INCLUDE\WINPERF.H
C:\PROGRAM FILES (X86)\MICROSOFT SDKS\WINDOWS\V7.0A\INCLUDE\WINSOCK.H
C:\PROGRAM FILES (X86)\MICROSOFT SDKS\WINDOWS\V7.0A\INCLUDE\INADDR.H
C:\PROGRAM FILES (X86)\MICROSOFT SDKS\WINDOWS\V7.0A\INCLUDE\WINCRYPT.H
C:\PROGRAM FILES (X86)\MICROSOFT SDKS\WINDOWS\V7.0A\INCLUDE\BCRYPT.H
C:\PROGRAM FILES (X86)\MICROSOFT SDKS\WINDOWS\V7.0A\INCLUDE\NCRYPT.H
C:\PROGRAM FILES (X86)\MICROSOFT SDKS\WINDOWS\V7.0A\INCLUDE\WINEFS.H
C:\PROGRAM FILES (X86)\MICROSOFT SDKS\WINDOWS\V7.0A\INCLUDE\WINSCARD.H
C:\PROGRAM FILES (X86)\MICROSOFT SDKS\WINDOWS\V7.0A\INCLUDE\WTYPES.H
C:\PROGRAM FILES (X86)\MICROSOFT SDKS\WINDOWS\V7.0A\INCLUDE\RPCNDR.H
C:\PROGRAM FILES (X86)\MICROSOFT SDKS\WINDOWS\V7.0A\INCLUDE\RPCNSIP.H
C:\PROGRAM FILES (X86)\MICROSOFT SDKS\WINDOWS\V7.0A\INCLUDE\RPCSAL.H
C:\PROGRAM FILES (X86)\MICROSOFT SDKS\WINDOWS\V7.0A\INCLUDE\WINIOCTL.H
C:\PROGRAM FILES (X86)\MICROSOFT SDKS\WINDOWS\V7.0A\INCLUDE\WINSMCRD.H
C:\PROGRAM FILES (X86)\MICROSOFT SDKS\WINDOWS\V7.0A\INCLUDE\WINSPOOL.H
C:\PROGRAM FILES (X86)\MICROSOFT SDKS\WINDOWS\V7.0A\INCLUDE\PRSHT.H
C:\PROGRAM FILES (X86)\MICROSOFT SDKS\WINDOWS\V7.0A\INCLUDE\OLE2.H
C:\PROGRAM FILES (X86)\MICROSOFT SDKS\WINDOWS\V7.0A\INCLUDE\OBJBASE.H
C:\PROGRAM FILES (X86)\MICROSOFT VISUAL STUDIO 10.0\VC\INCLUDE\STDLIB.H
C:\PROGRAM FILES (X86)\MICROSOFT VISUAL STUDIO 10.0\VC\INCLUDE\LIMITS.H
C:\PROGRAM FILES (X86)\MICROSOFT SDKS\WINDOWS\V7.0A\INCLUDE\UNKNWN.H
C:\PROGRAM FILES (X86)\MICROSOFT SDKS\WINDOWS\V7.0A\INCLUDE\OBJIDL.H
C:\PROGRAM FILES (X86)\MICROSOFT SDKS\WINDOWS\V7.0A\INCLUDE\CGUID.H
C:\PROGRAM FILES (X86)\MICROSOFT SDKS\WINDOWS\V7.0A\INCLUDE\URLMON.H
C:\PROGRAM FILES (X86)\MICROSOFT SDKS\WINDOWS\V7.0A\INCLUDE\OLEIDL.H
C:\PROGRAM FILES (X86)\MICROSOFT SDKS\WINDOWS\V7.0A\INCLUDE\SERVPROV.H
C:\PROGRAM FILES (X86)\MICROSOFT SDKS\WINDOWS\V7.0A\INCLUDE\MSXML.H
C:\PROGRAM FILES (X86)\MICROSOFT SDKS\WINDOWS\V7.0A\INCLUDE\OAIDL.H
C:\PROGRAM FILES (X86)\MICROSOFT SDKS\WINDOWS\V7.0A\INCLUDE\PROPIDL.H
C:\PROGRAM FILES (X86)\MICROSOFT SDKS\WINDOWS\V7.0A\INCLUDE\OLEAUTO.H
C:\PROGRAM FILES (X86)\MICROSOFT SDKS\WINDOWS\V7.0A\INCLUDE\COMMDLG.H
C:\PROGRAM FILES (X86)\MICROSOFT SDKS\WINDOWS\V7.0A\INCLUDE\STRALIGN.H
C:\PROGRAM FILES (X86)\MICROSOFT SDKS\WINDOWS\V7.0A\INCLUDE\WINSVC.H
C:\PROGRAM FILES (X86)\MICROSOFT SDKS\WINDOWS\V7.0A\INCLUDE\MCX.H
C:\PROGRAM FILES (X86)\MICROSOFT SDKS\WINDOWS\V7.0A\INCLUDE\IMM.H
C:\PROGRAM FILES (X86)\MICROSOFT SDKS\WINDOWS\V7.0A\INCLUDE\IME_CMODES.H
^C:\USERS\TULLY\DOCUMENTS\SCHOOL\CMPUT_466\PROJECTREVERSEMETRONOME\WDL-OL\VST3_SDK\BASE\SOURCE\FBITSET.CPP
C:\USERS\TULLY\DOCUMENTS\SCHOOL\CMPUT_466\PROJECTREVERSEMETRONOME\WDL-OL\VST3_SDK\BASE\SOURCE\FBITSET.H
C:\USERS\TULLY\DOCUMENTS\SCHOOL\CMPUT_466\PROJECTREVERSEMETRONOME\WDL-OL\VST3_SDK\PLUGINTERFACES\BASE\FTYPES.H
C:\USERS\TULLY\DOCUMENTS\SCHOOL\CMPUT_466\PROJECTREVERSEMETRONOME\WDL-OL\VST3_SDK\PLUGINTERFACES\BASE\FPLATFORM.H
C:\USERS\TULLY\DOCUMENTS\SCHOOL\CMPUT_466\PROJECTREVERSEMETRONOME\WDL-OL\VST3_SDK\BASE\SOURCE\FDEBUG.H
C:\PROGRAM FILES (X86)\MICROSOFT VISUAL STUDIO 10.0\VC\INCLUDE\STRING.H
C:\PROGRAM FILES (X86)\MICROSOFT VISUAL STUDIO 10.0\VC\INCLUDE\CRTDEFS.H
C:\PROGRAM FILES (X86)\MICROSOFT VISUAL STUDIO 10.0\VC\INCLUDE\SAL.H
C:\PROGRAM FILES (X86)\MICROSOFT VISUAL STUDIO 10.0\VC\INCLUDE\CODEANALYSIS\SOURCEANNOTATIONS.H
C:\PROGRAM FILES (X86)\MICROSOFT VISUAL STUDIO 10.0\VC\INCLUDE\VADEFS.H
C:\USERS\TULLY\DOCUMENTS\SCHOOL\CMPUT_466\PROJECTREVERSEMETRONOME\WDL-OL\VST3_SDK\PLUGINTERFACES\BASE\FUTILS.H
^C:\USERS\TULLY\DOCUMENTS\SCHOOL\CMPUT_466\PROJECTREVERSEMETRONOME\WDL-OL\VST3_SDK\BASE\SOURCE\FBUFFER.CPP
C:\USERS\TULLY\DOCUMENTS\SCHOOL\CMPUT_466\PROJECTREVERSEMETRONOME\WDL-OL\VST3_SDK\BASE\SOURCE\FBUFFER.H
C:\USERS\TULLY\DOCUMENTS\SCHOOL\CMPUT_466\PROJECTREVERSEMETRONOME\WDL-OL\VST3_SDK\PLUGINTERFACES\BASE\FTYPES.H
C:\USERS\TULLY\DOCUMENTS\SCHOOL\CMPUT_466\PROJECTREVERSEMETRONOME\WDL-OL\VST3_SDK\PLUGINTERFACES\BASE\FPLATFORM.H
C:\PROGRAM FILES (X86)\MICROSOFT VISUAL STUDIO 10.0\VC\INCLUDE\CSTRING
C:\PROGRAM FILES (X86)\MICROSOFT VISUAL STUDIO 10.0\VC\INCLUDE\YVALS.H
C:\PROGRAM FILES (X86)\MICROSOFT VISUAL STUDIO 10.0\VC\INCLUDE\CRTDEFS.H
C:\PROGRAM FILES (X86)\MICROSOFT VISUAL STUDIO 10.0\VC\INCLUDE\SAL.H
C:\PROGRAM FILES (X86)\MICROSOFT VISUAL STUDIO 10.0\VC\INCLUDE\CODEANALYSIS\SOURCEANNOTATIONS.H
C:\PROGRAM FILES (X86)\MICROSOFT VISUAL STUDIO 10.0\VC\INCLUDE\VADEFS.H
C:\PROGRAM FILES (X86)\MICROSOFT VISUAL STUDIO 10.0\VC\INCLUDE\USE_ANSI.H
C:\PROGRAM FILES (X86)\MICROSOFT VISUAL STUDIO 10.0\VC\INCLUDE\STRING.H
C:\USERS\TULLY\DOCUMENTS\SCHOOL\CMPUT_466\PROJECTREVERSEMETRONOME\WDL-OL\VST3_SDK\BASE\SOURCE\FSTRING.H
C:\USERS\TULLY\DOCUMENTS\SCHOOL\CMPUT_466\PROJECTREVERSEMETRONOME\WDL-OL\VST3_SDK\PLUGINTERFACES\BASE\FSTRDEFS.H
C:\USERS\TULLY\DOCUMENTS\SCHOOL\CMPUT_466\PROJECTREVERSEMETRONOME\WDL-OL\VST3_SDK\PLUGINTERFACES\BASE\CONSTSTRINGTABLE.H
C:\USERS\TULLY\DOCUMENTS\SCHOOL\CMPUT_466\PROJECTREVERSEMETRONOME\WDL-OL\VST3_SDK\PLUGINTERFACES\BASE\ISTRINGRESULT.H
C:\USERS\TULLY\DOCUMENTS\SCHOOL\CMPUT_466\PROJECTREVERSEMETRONOME\WDL-OL\VST3_SDK\PLUGINTERFACES\BASE\FUNKNOWN.H
C:\USERS\TULLY\DOCUMENTS\SCHOOL\CMPUT_466\PROJECTREVERSEMETRONOME\WDL-OL\VST3_SDK\PLUGINTERFACES\BASE\IPERSISTENT.H
C:\USERS\TULLY\DOCUMENTS\SCHOOL\CMPUT_466\PROJECTREVERSEMETRONOME\WDL-OL\VST3_SDK\BASE\SOURCE\FOBJECT.H
C:\USERS\TULLY\DOCUMENTS\SCHOOL\CMPUT_466\PROJECTREVERSEMETRONOME\WDL-OL\VST3_SDK\PLUGINTERFACES\BASE\IUPDATEHANDLER.H
C:\USERS\TULLY\DOCUMENTS\SCHOOL\CMPUT_466\PROJECTREVERSEMETRONOME\WDL-OL\VST3_SDK\BASE\SOURCE\FDEBUG.H
C:\PROGRAM FILES (X86)\MICROSOFT VISUAL STUDIO 10.0\VC\INCLUDE\STDARG.H
C:\PROGRAM FILES (X86)\MICROSOFT VISUAL STUDIO 10.0\VC\INCLUDE\STDLIB.H
C:\PROGRAM FILES (X86)\MICROSOFT VISUAL STUDIO 10.0\VC\INCLUDE\LIMITS.H
^C:\USERS\TULLY\DOCUMENTS\SCHOOL\CMPUT_466\PROJECTREVERSEMETRONOME\WDL-OL\VST3_SDK\BASE\SOURCE\FCPU.CPP
C:\USERS\TULLY\DOCUMENTS\SCHOOL\CMPUT_466\PROJECTREVERSEMETRONOME\WDL-OL\VST3_SDK\BASE\SOURCE\FCPU.H
C:\USERS\TULLY\DOCUMENTS\SCHOOL\CMPUT_466\PROJECTREVERSEMETRONOME\WDL-OL\VST3_SDK\PLUGINTERFACES\BASE\FTYPES.H
C:\USERS\TULLY\DOCUMENTS\SCHOOL\CMPUT_466\PROJECTREVERSEMETRONOME\WDL-OL\VST3_SDK\PLUGINTERFACES\BASE\FPLATFORM.H
C:\PROGRAM FILES (X86)\MICROSOFT SDKS\WINDOWS\V7.0A\INCLUDE\WINDOWS.H
C:\PROGRAM FILES (X86)\MICROSOFT SDKS\WINDOWS\V7.0A\INCLUDE\SDKDDKVER.H
C:\PROGRAM FILES (X86)\MICROSOFT VISUAL STUDIO 10.0\VC\INCLUDE\EXCPT.H
C:\PROGRAM FILES (X86)\MICROSOFT VISUAL STUDIO 10.0\VC\INCLUDE\CRTDEFS.H
C:\PROGRAM FILES (X86)\MICROSOFT VISUAL STUDIO 10.0\VC\INCLUDE\SAL.H
C:\PROGRAM FILES (X86)\MICROSOFT VISUAL STUDIO 10.0\VC\INCLUDE\CODEANALYSIS\SOURCEANNOTATIONS.H
C:\PROGRAM FILES (X86)\MICROSOFT VISUAL STUDIO 10.0\VC\INCLUDE\VADEFS.H
C:\PROGRAM FILES (X86)\MICROSOFT VISUAL STUDIO 10.0\VC\INCLUDE\STDARG.H
C:\PROGRAM FILES (X86)\MICROSOFT SDKS\WINDOWS\V7.0A\INCLUDE\WINDEF.H
C:\PROGRAM FILES (X86)\MICROSOFT SDKS\WINDOWS\V7.0A\INCLUDE\WINNT.H
C:\PROGRAM FILES (X86)\MICROSOFT VISUAL STUDIO 10.0\VC\INCLUDE\CTYPE.H
C:\PROGRAM FILES (X86)\MICROSOFT SDKS\WINDOWS\V7.0A\INCLUDE\SPECSTRINGS.H
C:\PROGRAM FILES (X86)\MICROSOFT SDKS\WINDOWS\V7.0A\INCLUDE\SAL_SUPP.H
C:\PROGRAM FILES (X86)\MICROSOFT SDKS\WINDOWS\V7.0A\INCLUDE\SPECSTRINGS_SUPP.H
C:\PROGRAM FILES (X86)\MICROSOFT SDKS\WINDOWS\V7.0A\INCLUDE\SPECSTRINGS_STRICT.H
C:\PROGRAM FILES (X86)\MICROSOFT SDKS\WINDOWS\V7.0A\INCLUDE\SPECSTRINGS_UNDEF.H
C:\PROGRAM FILES (X86)\MICROSOFT SDKS\WINDOWS\V7.0A\INCLUDE\DRIVERSPECS.H
C:\PROGRAM FILES (X86)\MICROSOFT SDKS\WINDOWS\V7.0A\INCLUDE\SDV_DRIVERSPECS.H
C:\PROGRAM FILES (X86)\MICROSOFT SDKS\WINDOWS\V7.0A\INCLUDE\KERNELSPECS.H
C:\PROGRAM FILES (X86)\MICROSOFT SDKS\WINDOWS\V7.0A\INCLUDE\BASETSD.H
C:\PROGRAM FILES (X86)\MICROSOFT SDKS\WINDOWS\V7.0A\INCLUDE\GUIDDEF.H
C:\PROGRAM FILES (X86)\MICROSOFT VISUAL STUDIO 10.0\VC\INCLUDE\STRING.H
C:\PROGRAM FILES (X86)\MICROSOFT SDKS\WINDOWS\V7.0A\INCLUDE\PSHPACK4.H
C:\PROGRAM FILES (X86)\MICROSOFT SDKS\WINDOWS\V7.0A\INCLUDE\POPPACK.H
C:\PROGRAM FILES (X86)\MICROSOFT SDKS\WINDOWS\V7.0A\INCLUDE\PSHPACK2.H
C:\PROGRAM FILES (X86)\MICROSOFT SDKS\WINDOWS\V7.0A\INCLUDE\PSHPACK8.H
C:\PROGRAM FILES (X86)\MICROSOFT SDKS\WINDOWS\V7.0A\INCLUDE\KTMTYPES.H
C:\PROGRAM FILES (X86)\MICROSOFT SDKS\WINDOWS\V7.0A\INCLUDE\WINBASE.H
C:\PROGRAM FILES (X86)\MICROSOFT SDKS\WINDOWS\V7.0A\INCLUDE\WINERROR.H
C:\PROGRAM FILES (X86)\MICROSOFT SDKS\WINDOWS\V7.0A\INCLUDE\WINGDI.H
C:\PROGRAM FILES (X86)\MICROSOFT SDKS\WINDOWS\V7.0A\INCLUDE\PSHPACK1.H
C:\PROGRAM FILES (X86)\MICROSOFT SDKS\WINDOWS\V7.0A\INCLUDE\WINUSER.H
C:\PROGRAM FILES (X86)\MICROSOFT SDKS\WINDOWS\V7.0A\INCLUDE\TVOUT.H
C:\PROGRAM FILES (X86)\MICROSOFT SDKS\WINDOWS\V7.0A\INCLUDE\WINNLS.H
C:\PROGRAM FILES (X86)\MICROSOFT SDKS\WINDOWS\V7.0A\INCLUDE\WINCON.H
C:\PROGRAM FILES (X86)\MICROSOFT SDKS\WINDOWS\V7.0A\INCLUDE\WINVER.H
C:\PROGRAM FILES (X86)\MICROSOFT SDKS\WINDOWS\V7.0A\INCLUDE\VERRSRC.H
C:\PROGRAM FILES (X86)\MICROSOFT SDKS\WINDOWS\V7.0A\INCLUDE\WINREG.H
C:\PROGRAM FILES (X86)\MICROSOFT SDKS\WINDOWS\V7.0A\INCLUDE\REASON.H
C:\PROGRAM FILES (X86)\MICROSOFT SDKS\WINDOWS\V7.0A\INCLUDE\WINNETWK.H
C:\PROGRAM FILES (X86)\MICROSOFT SDKS\WINDOWS\V7.0A\INCLUDE\WNNC.H
C:\PROGRAM FILES (X86)\MICROSOFT SDKS\WINDOWS\V7.0A\INCLUDE\CDERR.H
C:\PROGRAM FILES (X86)\MICROSOFT SDKS\WINDOWS\V7.0A\INCLUDE\DDE.H
C:\PROGRAM FILES (X86)\MICROSOFT SDKS\WINDOWS\V7.0A\INCLUDE\DDEML.H
C:\PROGRAM FILES (X86)\MICROSOFT SDKS\WINDOWS\V7.0A\INCLUDE\DLGS.H
C:\PROGRAM FILES (X86)\MICROSOFT SDKS\WINDOWS\V7.0A\INCLUDE\LZEXPAND.H
C:\PROGRAM FILES (X86)\MICROSOFT SDKS\WINDOWS\V7.0A\INCLUDE\MMSYSTEM.H
C:\PROGRAM FILES (X86)\MICROSOFT SDKS\WINDOWS\V7.0A\INCLUDE\NB30.H
C:\PROGRAM FILES (X86)\MICROSOFT SDKS\WINDOWS\V7.0A\INCLUDE\RPC.H
C:\PROGRAM FILES (X86)\MICROSOFT SDKS\WINDOWS\V7.0A\INCLUDE\RPCDCE.H
C:\PROGRAM FILES (X86)\MICROSOFT SDKS\WINDOWS\V7.0A\INCLUDE\RPCDCEP.H
C:\PROGRAM FILES (X86)\MICROSOFT SDKS\WINDOWS\V7.0A\INCLUDE\RPCNSI.H
C:\PROGRAM FILES (X86)\MICROSOFT SDKS\WINDOWS\V7.0A\INCLUDE\RPCNTERR.H
C:\PROGRAM FILES (X86)\MICROSOFT SDKS\WINDOWS\V7.0A\INCLUDE\RPCASYNC.H
C:\PROGRAM FILES (X86)\MICROSOFT SDKS\WINDOWS\V7.0A\INCLUDE\SHELLAPI.H
C:\PROGRAM FILES (X86)\MICROSOFT SDKS\WINDOWS\V7.0A\INCLUDE\WINPERF.H
C:\PROGRAM FILES (X86)\MICROSOFT SDKS\WINDOWS\V7.0A\INCLUDE\WINSOCK.H
C:\PROGRAM FILES (X86)\MICROSOFT SDKS\WINDOWS\V7.0A\INCLUDE\INADDR.H
C:\PROGRAM FILES (X86)\MICROSOFT SDKS\WINDOWS\V7.0A\INCLUDE\WINCRYPT.H
C:\PROGRAM FILES (X86)\MICROSOFT SDKS\WINDOWS\V7.0A\INCLUDE\BCRYPT.H
C:\PROGRAM FILES (X86)\MICROSOFT SDKS\WINDOWS\V7.0A\INCLUDE\NCRYPT.H
C:\PROGRAM FILES (X86)\MICROSOFT SDKS\WINDOWS\V7.0A\INCLUDE\WINEFS.H
C:\PROGRAM FILES (X86)\MICROSOFT SDKS\WINDOWS\V7.0A\INCLUDE\WINSCARD.H
C:\PROGRAM FILES (X86)\MICROSOFT SDKS\WINDOWS\V7.0A\INCLUDE\WTYPES.H
C:\PROGRAM FILES (X86)\MICROSOFT SDKS\WINDOWS\V7.0A\INCLUDE\RPCNDR.H
C:\PROGRAM FILES (X86)\MICROSOFT SDKS\WINDOWS\V7.0A\INCLUDE\RPCNSIP.H
C:\PROGRAM FILES (X86)\MICROSOFT SDKS\WINDOWS\V7.0A\INCLUDE\RPCSAL.H
C:\PROGRAM FILES (X86)\MICROSOFT SDKS\WINDOWS\V7.0A\INCLUDE\WINIOCTL.H
C:\PROGRAM FILES (X86)\MICROSOFT SDKS\WINDOWS\V7.0A\INCLUDE\WINSMCRD.H
C:\PROGRAM FILES (X86)\MICROSOFT SDKS\WINDOWS\V7.0A\INCLUDE\WINSPOOL.H
C:\PROGRAM FILES (X86)\MICROSOFT SDKS\WINDOWS\V7.0A\INCLUDE\PRSHT.H
C:\PROGRAM FILES (X86)\MICROSOFT SDKS\WINDOWS\V7.0A\INCLUDE\OLE2.H
C:\PROGRAM FILES (X86)\MICROSOFT SDKS\WINDOWS\V7.0A\INCLUDE\OBJBASE.H
C:\PROGRAM FILES (X86)\MICROSOFT VISUAL STUDIO 10.0\VC\INCLUDE\STDLIB.H
C:\PROGRAM FILES (X86)\MICROSOFT VISUAL STUDIO 10.0\VC\INCLUDE\LIMITS.H
C:\PROGRAM FILES (X86)\MICROSOFT SDKS\WINDOWS\V7.0A\INCLUDE\UNKNWN.H
C:\PROGRAM FILES (X86)\MICROSOFT SDKS\WINDOWS\V7.0A\INCLUDE\OBJIDL.H
C:\PROGRAM FILES (X86)\MICROSOFT SDKS\WINDOWS\V7.0A\INCLUDE\CGUID.H
C:\PROGRAM FILES (X86)\MICROSOFT SDKS\WINDOWS\V7.0A\INCLUDE\URLMON.H
C:\PROGRAM FILES (X86)\MICROSOFT SDKS\WINDOWS\V7.0A\INCLUDE\OLEIDL.H
C:\PROGRAM FILES (X86)\MICROSOFT SDKS\WINDOWS\V7.0A\INCLUDE\SERVPROV.H
C:\PROGRAM FILES (X86)\MICROSOFT SDKS\WINDOWS\V7.0A\INCLUDE\MSXML.H
C:\PROGRAM FILES (X86)\MICROSOFT SDKS\WINDOWS\V7.0A\INCLUDE\OAIDL.H
C:\PROGRAM FILES (X86)\MICROSOFT SDKS\WINDOWS\V7.0A\INCLUDE\PROPIDL.H
C:\PROGRAM FILES (X86)\MICROSOFT SDKS\WINDOWS\V7.0A\INCLUDE\OLEAUTO.H
C:\PROGRAM FILES (X86)\MICROSOFT SDKS\WINDOWS\V7.0A\INCLUDE\COMMDLG.H
C:\PROGRAM FILES (X86)\MICROSOFT SDKS\WINDOWS\V7.0A\INCLUDE\STRALIGN.H
C:\PROGRAM FILES (X86)\MICROSOFT SDKS\WINDOWS\V7.0A\INCLUDE\WINSVC.H
C:\PROGRAM FILES (X86)\MICROSOFT SDKS\WINDOWS\V7.0A\INCLUDE\MCX.H
C:\PROGRAM FILES (X86)\MICROSOFT SDKS\WINDOWS\V7.0A\INCLUDE\IMM.H
C:\PROGRAM FILES (X86)\MICROSOFT SDKS\WINDOWS\V7.0A\INCLUDE\IME_CMODES.H
^C:\USERS\TULLY\DOCUMENTS\SCHOOL\CMPUT_466\PROJECTREVERSEMETRONOME\WDL-OL\VST3_SDK\BASE\SOURCE\FDYNLIB.CPP
C:\USERS\TULLY\DOCUMENTS\SCHOOL\CMPUT_466\PROJECTREVERSEMETRONOME\WDL-OL\VST3_SDK\BASE\SOURCE\FDYNLIB.H
C:\USERS\TULLY\DOCUMENTS\SCHOOL\CMPUT_466\PROJECTREVERSEMETRONOME\WDL-OL\VST3_SDK\PLUGINTERFACES\BASE\FTYPES.H
C:\USERS\TULLY\DOCUMENTS\SCHOOL\CMPUT_466\PROJECTREVERSEMETRONOME\WDL-OL\VST3_SDK\PLUGINTERFACES\BASE\FPLATFORM.H
C:\USERS\TULLY\DOCUMENTS\SCHOOL\CMPUT_466\PROJECTREVERSEMETRONOME\WDL-OL\VST3_SDK\BASE\SOURCE\FOBJECT.H
C:\USERS\TULLY\DOCUMENTS\SCHOOL\CMPUT_466\PROJECTREVERSEMETRONOME\WDL-OL\VST3_SDK\PLUGINTERFACES\BASE\FUNKNOWN.H
C:\PROGRAM FILES (X86)\MICROSOFT VISUAL STUDIO 10.0\VC\INCLUDE\STRING.H
C:\PROGRAM FILES (X86)\MICROSOFT VISUAL STUDIO 10.0\VC\INCLUDE\CRTDEFS.H
C:\PROGRAM FILES (X86)\MICROSOFT VISUAL STUDIO 10.0\VC\INCLUDE\SAL.H
C:\PROGRAM FILES (X86)\MICROSOFT VISUAL STUDIO 10.0\VC\INCLUDE\CODEANALYSIS\SOURCEANNOTATIONS.H
C:\PROGRAM FILES (X86)\MICROSOFT VISUAL STUDIO 10.0\VC\INCLUDE\VADEFS.H
C:\USERS\TULLY\DOCUMENTS\SCHOOL\CMPUT_466\PROJECTREVERSEMETRONOME\WDL-OL\VST3_SDK\PLUGINTERFACES\BASE\IUPDATEHANDLER.H
C:\USERS\TULLY\DOCUMENTS\SCHOOL\CMPUT_466\PROJECTREVERSEMETRONOME\WDL-OL\VST3_SDK\BASE\SOURCE\FDEBUG.H
C:\USERS\TULLY\DOCUMENTS\SCHOOL\CMPUT_466\PROJECTREVERSEMETRONOME\WDL-OL\VST3_SDK\PLUGINTERFACES\BASE\FSTRDEFS.H
C:\USERS\TULLY\DOCUMENTS\SCHOOL\CMPUT_466\PROJECTREVERSEMETRONOME\WDL-OL\VST3_SDK\PLUGINTERFACES\BASE\CONSTSTRINGTABLE.H
C:\USERS\TULLY\DOCUMENTS\SCHOOL\CMPUT_466\PROJECTREVERSEMETRONOME\WDL-OL\VST3_SDK\BASE\SOURCE\FSTRING.H
C:\USERS\TULLY\DOCUMENTS\SCHOOL\CMPUT_466\PROJECTREVERSEMETRONOME\WDL-OL\VST3_SDK\PLUGINTERFACES\BASE\ISTRINGRESULT.H
C:\USERS\TULLY\DOCUMENTS\SCHOOL\CMPUT_466\PROJECTREVERSEMETRONOME\WDL-OL\VST3_SDK\PLUGINTERFACES\BASE\IPERSISTENT.H
C:\PROGRAM FILES (X86)\MICROSOFT VISUAL STUDIO 10.0\VC\INCLUDE\STDARG.H
C:\PROGRAM FILES (X86)\MICROSOFT SDKS\WINDOWS\V7.0A\INCLUDE\WINDOWS.H
C:\PROGRAM FILES (X86)\MICROSOFT SDKS\WINDOWS\V7.0A\INCLUDE\SDKDDKVER.H
C:\PROGRAM FILES (X86)\MICROSOFT VISUAL STUDIO 10.0\VC\INCLUDE\EXCPT.H
C:\PROGRAM FILES (X86)\MICROSOFT SDKS\WINDOWS\V7.0A\INCLUDE\WINDEF.H
C:\PROGRAM FILES (X86)\MICROSOFT SDKS\WINDOWS\V7.0A\INCLUDE\WINNT.H
C:\PROGRAM FILES (X86)\MICROSOFT VISUAL STUDIO 10.0\VC\INCLUDE\CTYPE.H
C:\PROGRAM FILES (X86)\MICROSOFT SDKS\WINDOWS\V7.0A\INCLUDE\SPECSTRINGS.H
C:\PROGRAM FILES (X86)\MICROSOFT SDKS\WINDOWS\V7.0A\INCLUDE\SAL_SUPP.H
C:\PROGRAM FILES (X86)\MICROSOFT SDKS\WINDOWS\V7.0A\INCLUDE\SPECSTRINGS_SUPP.H
C:\PROGRAM FILES (X86)\MICROSOFT SDKS\WINDOWS\V7.0A\INCLUDE\SPECSTRINGS_STRICT.H
C:\PROGRAM FILES (X86)\MICROSOFT SDKS\WINDOWS\V7.0A\INCLUDE\SPECSTRINGS_UNDEF.H
C:\PROGRAM FILES (X86)\MICROSOFT SDKS\WINDOWS\V7.0A\INCLUDE\DRIVERSPECS.H
C:\PROGRAM FILES (X86)\MICROSOFT SDKS\WINDOWS\V7.0A\INCLUDE\SDV_DRIVERSPECS.H
C:\PROGRAM FILES (X86)\MICROSOFT SDKS\WINDOWS\V7.0A\INCLUDE\KERNELSPECS.H
C:\PROGRAM FILES (X86)\MICROSOFT SDKS\WINDOWS\V7.0A\INCLUDE\BASETSD.H
C:\PROGRAM FILES (X86)\MICROSOFT SDKS\WINDOWS\V7.0A\INCLUDE\GUIDDEF.H
C:\PROGRAM FILES (X86)\MICROSOFT SDKS\WINDOWS\V7.0A\INCLUDE\PSHPACK4.H
C:\PROGRAM FILES (X86)\MICROSOFT SDKS\WINDOWS\V7.0A\INCLUDE\POPPACK.H
C:\PROGRAM FILES (X86)\MICROSOFT SDKS\WINDOWS\V7.0A\INCLUDE\PSHPACK2.H
C:\PROGRAM FILES (X86)\MICROSOFT SDKS\WINDOWS\V7.0A\INCLUDE\PSHPACK8.H
C:\PROGRAM FILES (X86)\MICROSOFT SDKS\WINDOWS\V7.0A\INCLUDE\KTMTYPES.H
C:\PROGRAM FILES (X86)\MICROSOFT SDKS\WINDOWS\V7.0A\INCLUDE\WINBASE.H
C:\PROGRAM FILES (X86)\MICROSOFT SDKS\WINDOWS\V7.0A\INCLUDE\WINERROR.H
C:\PROGRAM FILES (X86)\MICROSOFT SDKS\WINDOWS\V7.0A\INCLUDE\WINGDI.H
C:\PROGRAM FILES (X86)\MICROSOFT SDKS\WINDOWS\V7.0A\INCLUDE\PSHPACK1.H
C:\PROGRAM FILES (X86)\MICROSOFT SDKS\WINDOWS\V7.0A\INCLUDE\WINUSER.H
C:\PROGRAM FILES (X86)\MICROSOFT SDKS\WINDOWS\V7.0A\INCLUDE\TVOUT.H
C:\PROGRAM FILES (X86)\MICROSOFT SDKS\WINDOWS\V7.0A\INCLUDE\WINNLS.H
C:\PROGRAM FILES (X86)\MICROSOFT SDKS\WINDOWS\V7.0A\INCLUDE\WINCON.H
C:\PROGRAM FILES (X86)\MICROSOFT SDKS\WINDOWS\V7.0A\INCLUDE\WINVER.H
C:\PROGRAM FILES (X86)\MICROSOFT SDKS\WINDOWS\V7.0A\INCLUDE\VERRSRC.H
C:\PROGRAM FILES (X86)\MICROSOFT SDKS\WINDOWS\V7.0A\INCLUDE\WINREG.H
C:\PROGRAM FILES (X86)\MICROSOFT SDKS\WINDOWS\V7.0A\INCLUDE\REASON.H
C:\PROGRAM FILES (X86)\MICROSOFT SDKS\WINDOWS\V7.0A\INCLUDE\WINNETWK.H
C:\PROGRAM FILES (X86)\MICROSOFT SDKS\WINDOWS\V7.0A\INCLUDE\WNNC.H
C:\PROGRAM FILES (X86)\MICROSOFT SDKS\WINDOWS\V7.0A\INCLUDE\CDERR.H
C:\PROGRAM FILES (X86)\MICROSOFT SDKS\WINDOWS\V7.0A\INCLUDE\DDE.H
C:\PROGRAM FILES (X86)\MICROSOFT SDKS\WINDOWS\V7.0A\INCLUDE\DDEML.H
C:\PROGRAM FILES (X86)\MICROSOFT SDKS\WINDOWS\V7.0A\INCLUDE\DLGS.H
C:\PROGRAM FILES (X86)\MICROSOFT SDKS\WINDOWS\V7.0A\INCLUDE\LZEXPAND.H
C:\PROGRAM FILES (X86)\MICROSOFT SDKS\WINDOWS\V7.0A\INCLUDE\MMSYSTEM.H
C:\PROGRAM FILES (X86)\MICROSOFT SDKS\WINDOWS\V7.0A\INCLUDE\NB30.H
C:\PROGRAM FILES (X86)\MICROSOFT SDKS\WINDOWS\V7.0A\INCLUDE\RPC.H
C:\PROGRAM FILES (X86)\MICROSOFT SDKS\WINDOWS\V7.0A\INCLUDE\RPCDCE.H
C:\PROGRAM FILES (X86)\MICROSOFT SDKS\WINDOWS\V7.0A\INCLUDE\RPCDCEP.H
C:\PROGRAM FILES (X86)\MICROSOFT SDKS\WINDOWS\V7.0A\INCLUDE\RPCNSI.H
C:\PROGRAM FILES (X86)\MICROSOFT SDKS\WINDOWS\V7.0A\INCLUDE\RPCNTERR.H
C:\PROGRAM FILES (X86)\MICROSOFT SDKS\WINDOWS\V7.0A\INCLUDE\RPCASYNC.H
C:\PROGRAM FILES (X86)\MICROSOFT SDKS\WINDOWS\V7.0A\INCLUDE\SHELLAPI.H
C:\PROGRAM FILES (X86)\MICROSOFT SDKS\WINDOWS\V7.0A\INCLUDE\WINPERF.H
C:\PROGRAM FILES (X86)\MICROSOFT SDKS\WINDOWS\V7.0A\INCLUDE\WINSOCK.H
C:\PROGRAM FILES (X86)\MICROSOFT SDKS\WINDOWS\V7.0A\INCLUDE\INADDR.H
C:\PROGRAM FILES (X86)\MICROSOFT SDKS\WINDOWS\V7.0A\INCLUDE\WINCRYPT.H
C:\PROGRAM FILES (X86)\MICROSOFT SDKS\WINDOWS\V7.0A\INCLUDE\BCRYPT.H
C:\PROGRAM FILES (X86)\MICROSOFT SDKS\WINDOWS\V7.0A\INCLUDE\NCRYPT.H
C:\PROGRAM FILES (X86)\MICROSOFT SDKS\WINDOWS\V7.0A\INCLUDE\WINEFS.H
C:\PROGRAM FILES (X86)\MICROSOFT SDKS\WINDOWS\V7.0A\INCLUDE\WINSCARD.H
C:\PROGRAM FILES (X86)\MICROSOFT SDKS\WINDOWS\V7.0A\INCLUDE\WTYPES.H
C:\PROGRAM FILES (X86)\MICROSOFT SDKS\WINDOWS\V7.0A\INCLUDE\RPCNDR.H
C:\PROGRAM FILES (X86)\MICROSOFT SDKS\WINDOWS\V7.0A\INCLUDE\RPCNSIP.H
C:\PROGRAM FILES (X86)\MICROSOFT SDKS\WINDOWS\V7.0A\INCLUDE\RPCSAL.H
C:\PROGRAM FILES (X86)\MICROSOFT SDKS\WINDOWS\V7.0A\INCLUDE\WINIOCTL.H
C:\PROGRAM FILES (X86)\MICROSOFT SDKS\WINDOWS\V7.0A\INCLUDE\WINSMCRD.H
C:\PROGRAM FILES (X86)\MICROSOFT SDKS\WINDOWS\V7.0A\INCLUDE\WINSPOOL.H
C:\PROGRAM FILES (X86)\MICROSOFT SDKS\WINDOWS\V7.0A\INCLUDE\PRSHT.H
C:\PROGRAM FILES (X86)\MICROSOFT SDKS\WINDOWS\V7.0A\INCLUDE\OLE2.H
C:\PROGRAM FILES (X86)\MICROSOFT SDKS\WINDOWS\V7.0A\INCLUDE\OBJBASE.H
C:\PROGRAM FILES (X86)\MICROSOFT VISUAL STUDIO 10.0\VC\INCLUDE\STDLIB.H
C:\PROGRAM FILES (X86)\MICROSOFT VISUAL STUDIO 10.0\VC\INCLUDE\LIMITS.H
C:\PROGRAM FILES (X86)\MICROSOFT SDKS\WINDOWS\V7.0A\INCLUDE\UNKNWN.H
C:\PROGRAM FILES (X86)\MICROSOFT SDKS\WINDOWS\V7.0A\INCLUDE\OBJIDL.H
C:\PROGRAM FILES (X86)\MICROSOFT SDKS\WINDOWS\V7.0A\INCLUDE\CGUID.H
C:\PROGRAM FILES (X86)\MICROSOFT SDKS\WINDOWS\V7.0A\INCLUDE\URLMON.H
C:\PROGRAM FILES (X86)\MICROSOFT SDKS\WINDOWS\V7.0A\INCLUDE\OLEIDL.H
C:\PROGRAM FILES (X86)\MICROSOFT SDKS\WINDOWS\V7.0A\INCLUDE\SERVPROV.H
C:\PROGRAM FILES (X86)\MICROSOFT SDKS\WINDOWS\V7.0A\INCLUDE\MSXML.H
C:\PROGRAM FILES (X86)\MICROSOFT SDKS\WINDOWS\V7.0A\INCLUDE\OAIDL.H
C:\PROGRAM FILES (X86)\MICROSOFT SDKS\WINDOWS\V7.0A\INCLUDE\PROPIDL.H
C:\PROGRAM FILES (X86)\MICROSOFT SDKS\WINDOWS\V7.0A\INCLUDE\OLEAUTO.H
C:\PROGRAM FILES (X86)\MICROSOFT SDKS\WINDOWS\V7.0A\INCLUDE\COMMDLG.H
C:\PROGRAM FILES (X86)\MICROSOFT SDKS\WINDOWS\V7.0A\INCLUDE\STRALIGN.H
C:\PROGRAM FILES (X86)\MICROSOFT SDKS\WINDOWS\V7.0A\INCLUDE\WINSVC.H
C:\PROGRAM FILES (X86)\MICROSOFT SDKS\WINDOWS\V7.0A\INCLUDE\MCX.H
C:\PROGRAM FILES (X86)\MICROSOFT SDKS\WINDOWS\V7.0A\INCLUDE\IMM.H
C:\PROGRAM FILES (X86)\MICROSOFT SDKS\WINDOWS\V7.0A\INCLUDE\IME_CMODES.H
^C:\USERS\TULLY\DOCUMENTS\SCHOOL\CMPUT_466\PROJECTREVERSEMETRONOME\WDL-OL\VST3_SDK\BASE\SOURCE\FINITIALIZER.CPP
C:\USERS\TULLY\DOCUMENTS\SCHOOL\CMPUT_466\PROJECTREVERSEMETRONOME\WDL-OL\VST3_SDK\BASE\SOURCE\FINITIALIZER.H
C:\USERS\TULLY\DOCUMENTS\SCHOOL\CMPUT_466\PROJECTREVERSEMETRONOME\WDL-OL\VST3_SDK\PLUGINTERFACES\BASE\FTYPES.H
C:\USERS\TULLY\DOCUMENTS\SCHOOL\CMPUT_466\PROJECTREVERSEMETRONOME\WDL-OL\VST3_SDK\PLUGINTERFACES\BASE\FPLATFORM.H
C:\USERS\TULLY\DOCUMENTS\SCHOOL\CMPUT_466\PROJECTREVERSEMETRONOME\WDL-OL\VST3_SDK\BASE\SOURCE\TARRAY.H
C:\USERS\TULLY\DOCUMENTS\SCHOOL\CMPUT_466\PROJECTREVERSEMETRONOME\WDL-OL\VST3_SDK\BASE\SOURCE\TCONTAINER.H
C:\USERS\TULLY\DOCUMENTS\SCHOOL\CMPUT_466\PROJECTREVERSEMETRONOME\WDL-OL\VST3_SDK\BASE\SOURCE\FDEBUG.H
C:\PROGRAM FILES (X86)\MICROSOFT VISUAL STUDIO 10.0\VC\INCLUDE\STRING.H
C:\PROGRAM FILES (X86)\MICROSOFT VISUAL STUDIO 10.0\VC\INCLUDE\CRTDEFS.H
C:\PROGRAM FILES (X86)\MICROSOFT VISUAL STUDIO 10.0\VC\INCLUDE\SAL.H
C:\PROGRAM FILES (X86)\MICROSOFT VISUAL STUDIO 10.0\VC\INCLUDE\CODEANALYSIS\SOURCEANNOTATIONS.H
C:\PROGRAM FILES (X86)\MICROSOFT VISUAL STUDIO 10.0\VC\INCLUDE\VADEFS.H
C:\USERS\TULLY\DOCUMENTS\SCHOOL\CMPUT_466\PROJECTREVERSEMETRONOME\WDL-OL\VST3_SDK\BASE\SOURCE\FCLEANUP.H
C:\PROGRAM FILES (X86)\MICROSOFT VISUAL STUDIO 10.0\VC\INCLUDE\STDLIB.H
C:\PROGRAM FILES (X86)\MICROSOFT VISUAL STUDIO 10.0\VC\INCLUDE\LIMITS.H
^C:\USERS\TULLY\DOCUMENTS\SCHOOL\CMPUT_466\PROJECTREVERSEMETRONOME\WDL-OL\VST3_SDK\BASE\SOURCE\FMEMORY.CPP
C:\USERS\TULLY\DOCUMENTS\SCHOOL\CMPUT_466\PROJECTREVERSEMETRONOME\WDL-OL\VST3_SDK\BASE\SOURCE\FMEMORY.H
C:\USERS\TULLY\DOCUMENTS\SCHOOL\CMPUT_466\PROJECTREVERSEMETRONOME\WDL-OL\VST3_SDK\BASE\SOURCE\FTHREAD.H
C:\USERS\TULLY\DOCUMENTS\SCHOOL\CMPUT_466\PROJECTREVERSEMETRONOME\WDL-OL\VST3_SDK\BASE\SOURCE\FSTRING.H
C:\USERS\TULLY\DOCUMENTS\SCHOOL\CMPUT_466\PROJECTREVERSEMETRONOME\WDL-OL\VST3_SDK\PLUGINTERFACES\BASE\FTYPES.H
C:\USERS\TULLY\DOCUMENTS\SCHOOL\CMPUT_466\PROJECTREVERSEMETRONOME\WDL-OL\VST3_SDK\PLUGINTERFACES\BASE\FPLATFORM.H
C:\USERS\TULLY\DOCUMENTS\SCHOOL\CMPUT_466\PROJECTREVERSEMETRONOME\WDL-OL\VST3_SDK\PLUGINTERFACES\BASE\FSTRDEFS.H
C:\USERS\TULLY\DOCUMENTS\SCHOOL\CMPUT_466\PROJECTREVERSEMETRONOME\WDL-OL\VST3_SDK\PLUGINTERFACES\BASE\CONSTSTRINGTABLE.H
C:\USERS\TULLY\DOCUMENTS\SCHOOL\CMPUT_466\PROJECTREVERSEMETRONOME\WDL-OL\VST3_SDK\PLUGINTERFACES\BASE\ISTRINGRESULT.H
C:\USERS\TULLY\DOCUMENTS\SCHOOL\CMPUT_466\PROJECTREVERSEMETRONOME\WDL-OL\VST3_SDK\PLUGINTERFACES\BASE\FUNKNOWN.H
C:\PROGRAM FILES (X86)\MICROSOFT VISUAL STUDIO 10.0\VC\INCLUDE\STRING.H
C:\PROGRAM FILES (X86)\MICROSOFT VISUAL STUDIO 10.0\VC\INCLUDE\CRTDEFS.H
C:\PROGRAM FILES (X86)\MICROSOFT VISUAL STUDIO 10.0\VC\INCLUDE\SAL.H
C:\PROGRAM FILES (X86)\MICROSOFT VISUAL STUDIO 10.0\VC\INCLUDE\CODEANALYSIS\SOURCEANNOTATIONS.H
C:\PROGRAM FILES (X86)\MICROSOFT VISUAL STUDIO 10.0\VC\INCLUDE\VADEFS.H
C:\USERS\TULLY\DOCUMENTS\SCHOOL\CMPUT_466\PROJECTREVERSEMETRONOME\WDL-OL\VST3_SDK\PLUGINTERFACES\BASE\IPERSISTENT.H
C:\USERS\TULLY\DOCUMENTS\SCHOOL\CMPUT_466\PROJECTREVERSEMETRONOME\WDL-OL\VST3_SDK\BASE\SOURCE\FOBJECT.H
C:\USERS\TULLY\DOCUMENTS\SCHOOL\CMPUT_466\PROJECTREVERSEMETRONOME\WDL-OL\VST3_SDK\PLUGINTERFACES\BASE\IUPDATEHANDLER.H
C:\USERS\TULLY\DOCUMENTS\SCHOOL\CMPUT_466\PROJECTREVERSEMETRONOME\WDL-OL\VST3_SDK\BASE\SOURCE\FDEBUG.H
C:\PROGRAM FILES (X86)\MICROSOFT VISUAL STUDIO 10.0\VC\INCLUDE\STDARG.H
C:\USERS\TULLY\DOCUMENTS\SCHOOL\CMPUT_466\PROJECTREVERSEMETRONOME\WDL-OL\VST3_SDK\BASE\SOURCE\FATOMIC.H
C:\USERS\TULLY\DOCUMENTS\SCHOOL\CMPUT_466\PROJECTREVERSEMETRONOME\WDL-OL\VST3_SDK\BASE\SOURCE\TARRAY.H
C:\USERS\TULLY\DOCUMENTS\SCHOOL\CMPUT_466\PROJECTREVERSEMETRONOME\WDL-OL\VST3_SDK\BASE\SOURCE\TCONTAINER.H
C:\USERS\TULLY\DOCUMENTS\SCHOOL\CMPUT_466\PROJECTREVERSEMETRONOME\WDL-OL\VST3_SDK\BASE\SOURCE\FCLEANUP.H
C:\PROGRAM FILES (X86)\MICROSOFT VISUAL STUDIO 10.0\VC\INCLUDE\STDLIB.H
C:\PROGRAM FILES (X86)\MICROSOFT VISUAL STUDIO 10.0\VC\INCLUDE\LIMITS.H
^C:\USERS\TULLY\DOCUMENTS\SCHOOL\CMPUT_466\PROJECTREVERSEMETRONOME\WDL-OL\VST3_SDK\BASE\SOURCE\FOBJECT.CPP
C:\USERS\TULLY\DOCUMENTS\SCHOOL\CMPUT_466\PROJECTREVERSEMETRONOME\WDL-OL\VST3_SDK\BASE\SOURCE\FOBJECT.H
C:\USERS\TULLY\DOCUMENTS\SCHOOL\CMPUT_466\PROJECTREVERSEMETRONOME\WDL-OL\VST3_SDK\PLUGINTERFACES\BASE\FUNKNOWN.H
C:\PROGRAM FILES (X86)\MICROSOFT VISUAL STUDIO 10.0\VC\INCLUDE\STRING.H
C:\PROGRAM FILES (X86)\MICROSOFT VISUAL STUDIO 10.0\VC\INCLUDE\CRTDEFS.H
C:\PROGRAM FILES (X86)\MICROSOFT VISUAL STUDIO 10.0\VC\INCLUDE\SAL.H
C:\PROGRAM FILES (X86)\MICROSOFT VISUAL STUDIO 10.0\VC\INCLUDE\CODEANALYSIS\SOURCEANNOTATIONS.H
C:\PROGRAM FILES (X86)\MICROSOFT VISUAL STUDIO 10.0\VC\INCLUDE\VADEFS.H
C:\USERS\TULLY\DOCUMENTS\SCHOOL\CMPUT_466\PROJECTREVERSEMETRONOME\WDL-OL\VST3_SDK\PLUGINTERFACES\BASE\FTYPES.H
C:\USERS\TULLY\DOCUMENTS\SCHOOL\CMPUT_466\PROJECTREVERSEMETRONOME\WDL-OL\VST3_SDK\PLUGINTERFACES\BASE\FPLATFORM.H
C:\USERS\TULLY\DOCUMENTS\SCHOOL\CMPUT_466\PROJECTREVERSEMETRONOME\WDL-OL\VST3_SDK\PLUGINTERFACES\BASE\IUPDATEHANDLER.H
C:\USERS\TULLY\DOCUMENTS\SCHOOL\CMPUT_466\PROJECTREVERSEMETRONOME\WDL-OL\VST3_SDK\BASE\SOURCE\FDEBUG.H
C:\USERS\TULLY\DOCUMENTS\SCHOOL\CMPUT_466\PROJECTREVERSEMETRONOME\WDL-OL\VST3_SDK\BASE\SOURCE\FATOMIC.H
C:\USERS\TULLY\DOCUMENTS\SCHOOL\CMPUT_466\PROJECTREVERSEMETRONOME\WDL-OL\VST3_SDK\BASE\SOURCE\TARRAY.H
C:\USERS\TULLY\DOCUMENTS\SCHOOL\CMPUT_466\PROJECTREVERSEMETRONOME\WDL-OL\VST3_SDK\BASE\SOURCE\TCONTAINER.H
C:\USERS\TULLY\DOCUMENTS\SCHOOL\CMPUT_466\PROJECTREVERSEMETRONOME\WDL-OL\VST3_SDK\BASE\SOURCE\FCLEANUP.H
C:\PROGRAM FILES (X86)\MICROSOFT VISUAL STUDIO 10.0\VC\INCLUDE\STDLIB.H
C:\PROGRAM FILES (X86)\MICROSOFT VISUAL STUDIO 10.0\VC\INCLUDE\LIMITS.H
^C:\USERS\TULLY\DOCUMENTS\SCHOOL\CMPUT_466\PROJECTREVERSEMETRONOME\WDL-OL\VST3_SDK\BASE\SOURCE\FPOINT.CPP
C:\USERS\TULLY\DOCUMENTS\SCHOOL\CMPUT_466\PROJECTREVERSEMETRONOME\WDL-OL\VST3_SDK\BASE\SOURCE\FPOINT.H
C:\USERS\TULLY\DOCUMENTS\SCHOOL\CMPUT_466\PROJECTREVERSEMETRONOME\WDL-OL\VST3_SDK\PLUGINTERFACES\BASE\FTYPES.H
C:\USERS\TULLY\DOCUMENTS\SCHOOL\CMPUT_466\PROJECTREVERSEMETRONOME\WDL-OL\VST3_SDK\PLUGINTERFACES\BASE\FPLATFORM.H
C:\USERS\TULLY\DOCUMENTS\SCHOOL\CMPUT_466\PROJECTREVERSEMETRONOME\WDL-OL\VST3_SDK\BASE\SOURCE\FRECT.H
C:\PROGRAM FILES (X86)\MICROSOFT VISUAL STUDIO 10.0\VC\INCLUDE\MATH.H
C:\PROGRAM FILES (X86)\MICROSOFT VISUAL STUDIO 10.0\VC\INCLUDE\CRTDEFS.H
C:\PROGRAM FILES (X86)\MICROSOFT VISUAL STUDIO 10.0\VC\INCLUDE\SAL.H
C:\PROGRAM FILES (X86)\MICROSOFT VISUAL STUDIO 10.0\VC\INCLUDE\CODEANALYSIS\SOURCEANNOTATIONS.H
C:\PROGRAM FILES (X86)\MICROSOFT VISUAL STUDIO 10.0\VC\INCLUDE\VADEFS.H
^C:\USERS\TULLY\DOCUMENTS\SCHOOL\CMPUT_466\PROJECTREVERSEMETRONOME\WDL-OL\VST3_SDK\BASE\SOURCE\FRECT.CPP
C:\USERS\TULLY\DOCUMENTS\SCHOOL\CMPUT_466\PROJECTREVERSEMETRONOME\WDL-OL\VST3_SDK\BASE\SOURCE\FRECT.H
C:\USERS\TULLY\DOCUMENTS\SCHOOL\CMPUT_466\PROJECTREVERSEMETRONOME\WDL-OL\VST3_SDK\BASE\SOURCE\FPOINT.H
C:\USERS\TULLY\DOCUMENTS\SCHOOL\CMPUT_466\PROJECTREVERSEMETRONOME\WDL-OL\VST3_SDK\PLUGINTERFACES\BASE\FTYPES.H
C:\USERS\TULLY\DOCUMENTS\SCHOOL\CMPUT_466\PROJECTREVERSEMETRONOME\WDL-OL\VST3_SDK\PLUGINTERFACES\BASE\FPLATFORM.H
C:\USERS\TULLY\DOCUMENTS\SCHOOL\CMPUT_466\PROJECTREVERSEMETRONOME\WDL-OL\VST3_SDK\PLUGINTERFACES\GUI\IPLUGVIEW.H
C:\USERS\TULLY\DOCUMENTS\SCHOOL\CMPUT_466\PROJECTREVERSEMETRONOME\WDL-OL\VST3_SDK\PLUGINTERFACES\BASE\FUNKNOWN.H
C:\PROGRAM FILES (X86)\MICROSOFT VISUAL STUDIO 10.0\VC\INCLUDE\STRING.H
C:\PROGRAM FILES (X86)\MICROSOFT VISUAL STUDIO 10.0\VC\INCLUDE\CRTDEFS.H
C:\PROGRAM FILES (X86)\MICROSOFT VISUAL STUDIO 10.0\VC\INCLUDE\SAL.H
C:\PROGRAM FILES (X86)\MICROSOFT VISUAL STUDIO 10.0\VC\INCLUDE\CODEANALYSIS\SOURCEANNOTATIONS.H
C:\PROGRAM FILES (X86)\MICROSOFT VISUAL STUDIO 10.0\VC\INCLUDE\VADEFS.H
C:\USERS\TULLY\DOCUMENTS\SCHOOL\CMPUT_466\PROJECTREVERSEMETRONOME\WDL-OL\VST3_SDK\PLUGINTERFACES\BASE\FUTILS.H
^C:\USERS\TULLY\DOCUMENTS\SCHOOL\CMPUT_466\PROJECTREVERSEMETRONOME\WDL-OL\VST3_SDK\BASE\SOURCE\FSTREAMER.CPP
C:\USERS\TULLY\DOCUMENTS\SCHOOL\CMPUT_466\PROJECTREVERSEMETRONOME\WDL-OL\VST3_SDK\BASE\SOURCE\FSTREAMER.H
C:\USERS\TULLY\DOCUMENTS\SCHOOL\CMPUT_466\PROJECTREVERSEMETRONOME\WDL-OL\VST3_SDK\PLUGINTERFACES\BASE\FUNKNOWN.H
C:\PROGRAM FILES (X86)\MICROSOFT VISUAL STUDIO 10.0\VC\INCLUDE\STRING.H
C:\PROGRAM FILES (X86)\MICROSOFT VISUAL STUDIO 10.0\VC\INCLUDE\CRTDEFS.H
C:\PROGRAM FILES (X86)\MICROSOFT VISUAL STUDIO 10.0\VC\INCLUDE\SAL.H
C:\PROGRAM FILES (X86)\MICROSOFT VISUAL STUDIO 10.0\VC\INCLUDE\CODEANALYSIS\SOURCEANNOTATIONS.H
C:\PROGRAM FILES (X86)\MICROSOFT VISUAL STUDIO 10.0\VC\INCLUDE\VADEFS.H
C:\USERS\TULLY\DOCUMENTS\SCHOOL\CMPUT_466\PROJECTREVERSEMETRONOME\WDL-OL\VST3_SDK\PLUGINTERFACES\BASE\FTYPES.H
C:\USERS\TULLY\DOCUMENTS\SCHOOL\CMPUT_466\PROJECTREVERSEMETRONOME\WDL-OL\VST3_SDK\PLUGINTERFACES\BASE\FPLATFORM.H
C:\USERS\TULLY\DOCUMENTS\SCHOOL\CMPUT_466\PROJECTREVERSEMETRONOME\WDL-OL\VST3_SDK\BASE\SOURCE\FSTRING.H
C:\USERS\TULLY\DOCUMENTS\SCHOOL\CMPUT_466\PROJECTREVERSEMETRONOME\WDL-OL\VST3_SDK\PLUGINTERFACES\BASE\FSTRDEFS.H
C:\USERS\TULLY\DOCUMENTS\SCHOOL\CMPUT_466\PROJECTREVERSEMETRONOME\WDL-OL\VST3_SDK\PLUGINTERFACES\BASE\CONSTSTRINGTABLE.H
C:\USERS\TULLY\DOCUMENTS\SCHOOL\CMPUT_466\PROJECTREVERSEMETRONOME\WDL-OL\VST3_SDK\PLUGINTERFACES\BASE\ISTRINGRESULT.H
C:\USERS\TULLY\DOCUMENTS\SCHOOL\CMPUT_466\PROJECTREVERSEMETRONOME\WDL-OL\VST3_SDK\PLUGINTERFACES\BASE\IPERSISTENT.H
C:\USERS\TULLY\DOCUMENTS\SCHOOL\CMPUT_466\PROJECTREVERSEMETRONOME\WDL-OL\VST3_SDK\BASE\SOURCE\FOBJECT.H
C:\USERS\TULLY\DOCUMENTS\SCHOOL\CMPUT_466\PROJECTREVERSEMETRONOME\WDL-OL\VST3_SDK\PLUGINTERFACES\BASE\IUPDATEHANDLER.H
C:\USERS\TULLY\DOCUMENTS\SCHOOL\CMPUT_466\PROJECTREVERSEMETRONOME\WDL-OL\VST3_SDK\BASE\SOURCE\FDEBUG.H
C:\PROGRAM FILES (X86)\MICROSOFT VISUAL STUDIO 10.0\VC\INCLUDE\STDARG.H
C:\USERS\TULLY\DOCUMENTS\SCHOOL\CMPUT_466\PROJECTREVERSEMETRONOME\WDL-OL\VST3_SDK\BASE\SOURCE\FBUFFER.H
C:\PROGRAM FILES (X86)\MICROSOFT VISUAL STUDIO 10.0\VC\INCLUDE\CSTRING
C:\PROGRAM FILES (X86)\MICROSOFT VISUAL STUDIO 10.0\VC\INCLUDE\YVALS.H
C:\PROGRAM FILES (X86)\MICROSOFT VISUAL STUDIO 10.0\VC\INCLUDE\USE_ANSI.H
C:\USERS\TULLY\DOCUMENTS\SCHOOL\CMPUT_466\PROJECTREVERSEMETRONOME\WDL-OL\VST3_SDK\PLUGINTERFACES\BASE\IBSTREAM.H
^C:\USERS\TULLY\DOCUMENTS\SCHOOL\CMPUT_466\PROJECTREVERSEMETRONOME\WDL-OL\VST3_SDK\BASE\SOURCE\FSTRING.CPP
C:\USERS\TULLY\DOCUMENTS\SCHOOL\CMPUT_466\PROJECTREVERSEMETRONOME\WDL-OL\VST3_SDK\BASE\SOURCE\FSTRING.H
C:\USERS\TULLY\DOCUMENTS\SCHOOL\CMPUT_466\PROJECTREVERSEMETRONOME\WDL-OL\VST3_SDK\PLUGINTERFACES\BASE\FTYPES.H
C:\USERS\TULLY\DOCUMENTS\SCHOOL\CMPUT_466\PROJECTREVERSEMETRONOME\WDL-OL\VST3_SDK\PLUGINTERFACES\BASE\FPLATFORM.H
C:\USERS\TULLY\DOCUMENTS\SCHOOL\CMPUT_466\PROJECTREVERSEMETRONOME\WDL-OL\VST3_SDK\PLUGINTERFACES\BASE\FSTRDEFS.H
C:\USERS\TULLY\DOCUMENTS\SCHOOL\CMPUT_466\PROJECTREVERSEMETRONOME\WDL-OL\VST3_SDK\PLUGINTERFACES\BASE\CONSTSTRINGTABLE.H
C:\USERS\TULLY\DOCUMENTS\SCHOOL\CMPUT_466\PROJECTREVERSEMETRONOME\WDL-OL\VST3_SDK\PLUGINTERFACES\BASE\ISTRINGRESULT.H
C:\USERS\TULLY\DOCUMENTS\SCHOOL\CMPUT_466\PROJECTREVERSEMETRONOME\WDL-OL\VST3_SDK\PLUGINTERFACES\BASE\FUNKNOWN.H
C:\PROGRAM FILES (X86)\MICROSOFT VISUAL STUDIO 10.0\VC\INCLUDE\STRING.H
C:\PROGRAM FILES (X86)\MICROSOFT VISUAL STUDIO 10.0\VC\INCLUDE\CRTDEFS.H
C:\PROGRAM FILES (X86)\MICROSOFT VISUAL STUDIO 10.0\VC\INCLUDE\SAL.H
C:\PROGRAM FILES (X86)\MICROSOFT VISUAL STUDIO 10.0\VC\INCLUDE\CODEANALYSIS\SOURCEANNOTATIONS.H
C:\PROGRAM FILES (X86)\MICROSOFT VISUAL STUDIO 10.0\VC\INCLUDE\VADEFS.H
C:\USERS\TULLY\DOCUMENTS\SCHOOL\CMPUT_466\PROJECTREVERSEMETRONOME\WDL-OL\VST3_SDK\PLUGINTERFACES\BASE\IPERSISTENT.H
C:\USERS\TULLY\DOCUMENTS\SCHOOL\CMPUT_466\PROJECTREVERSEMETRONOME\WDL-OL\VST3_SDK\BASE\SOURCE\FOBJECT.H
C:\USERS\TULLY\DOCUMENTS\SCHOOL\CMPUT_466\PROJECTREVERSEMETRONOME\WDL-OL\VST3_SDK\PLUGINTERFACES\BASE\IUPDATEHANDLER.H
C:\USERS\TULLY\DOCUMENTS\SCHOOL\CMPUT_466\PROJECTREVERSEMETRONOME\WDL-OL\VST3_SDK\BASE\SOURCE\FDEBUG.H
C:\PROGRAM FILES (X86)\MICROSOFT VISUAL STUDIO 10.0\VC\INCLUDE\STDARG.H
C:\USERS\TULLY\DOCUMENTS\SCHOOL\CMPUT_466\PROJECTREVERSEMETRONOME\WDL-OL\VST3_SDK\PLUGINTERFACES\BASE\FUTILS.H
C:\PROGRAM FILES (X86)\MICROSOFT VISUAL STUDIO 10.0\VC\INCLUDE\CSTDLIB
C:\PROGRAM FILES (X86)\MICROSOFT VISUAL STUDIO 10.0\VC\INCLUDE\YVALS.H
C:\PROGRAM FILES (X86)\MICROSOFT VISUAL STUDIO 10.0\VC\INCLUDE\USE_ANSI.H
C:\PROGRAM FILES (X86)\MICROSOFT VISUAL STUDIO 10.0\VC\INCLUDE\STDLIB.H
C:\PROGRAM FILES (X86)\MICROSOFT VISUAL STUDIO 10.0\VC\INCLUDE\LIMITS.H
C:\PROGRAM FILES (X86)\MICROSOFT VISUAL STUDIO 10.0\VC\INCLUDE\CTYPE.H
C:\PROGRAM FILES (X86)\MICROSOFT VISUAL STUDIO 10.0\VC\INCLUDE\CSTDIO
C:\PROGRAM FILES (X86)\MICROSOFT VISUAL STUDIO 10.0\VC\INCLUDE\STDIO.H
C:\PROGRAM FILES (X86)\MICROSOFT VISUAL STUDIO 10.0\VC\INCLUDE\SWPRINTF.INL
C:\PROGRAM FILES (X86)\MICROSOFT SDKS\WINDOWS\V7.0A\INCLUDE\WINDOWS.H
C:\PROGRAM FILES (X86)\MICROSOFT SDKS\WINDOWS\V7.0A\INCLUDE\SDKDDKVER.H
C:\PROGRAM FILES (X86)\MICROSOFT VISUAL STUDIO 10.0\VC\INCLUDE\EXCPT.H
C:\PROGRAM FILES (X86)\MICROSOFT SDKS\WINDOWS\V7.0A\INCLUDE\WINDEF.H
C:\PROGRAM FILES (X86)\MICROSOFT SDKS\WINDOWS\V7.0A\INCLUDE\WINNT.H
C:\PROGRAM FILES (X86)\MICROSOFT SDKS\WINDOWS\V7.0A\INCLUDE\SPECSTRINGS.H
C:\PROGRAM FILES (X86)\MICROSOFT SDKS\WINDOWS\V7.0A\INCLUDE\SAL_SUPP.H
C:\PROGRAM FILES (X86)\MICROSOFT SDKS\WINDOWS\V7.0A\INCLUDE\SPECSTRINGS_SUPP.H
C:\PROGRAM FILES (X86)\MICROSOFT SDKS\WINDOWS\V7.0A\INCLUDE\SPECSTRINGS_STRICT.H
C:\PROGRAM FILES (X86)\MICROSOFT SDKS\WINDOWS\V7.0A\INCLUDE\SPECSTRINGS_UNDEF.H
C:\PROGRAM FILES (X86)\MICROSOFT SDKS\WINDOWS\V7.0A\INCLUDE\DRIVERSPECS.H
C:\PROGRAM FILES (X86)\MICROSOFT SDKS\WINDOWS\V7.0A\INCLUDE\SDV_DRIVERSPECS.H
C:\PROGRAM FILES (X86)\MICROSOFT SDKS\WINDOWS\V7.0A\INCLUDE\KERNELSPECS.H
C:\PROGRAM FILES (X86)\MICROSOFT SDKS\WINDOWS\V7.0A\INCLUDE\BASETSD.H
C:\PROGRAM FILES (X86)\MICROSOFT SDKS\WINDOWS\V7.0A\INCLUDE\GUIDDEF.H
C:\PROGRAM FILES (X86)\MICROSOFT SDKS\WINDOWS\V7.0A\INCLUDE\PSHPACK4.H
C:\PROGRAM FILES (X86)\MICROSOFT SDKS\WINDOWS\V7.0A\INCLUDE\POPPACK.H
C:\PROGRAM FILES (X86)\MICROSOFT SDKS\WINDOWS\V7.0A\INCLUDE\PSHPACK2.H
C:\PROGRAM FILES (X86)\MICROSOFT SDKS\WINDOWS\V7.0A\INCLUDE\PSHPACK8.H
C:\PROGRAM FILES (X86)\MICROSOFT SDKS\WINDOWS\V7.0A\INCLUDE\KTMTYPES.H
C:\PROGRAM FILES (X86)\MICROSOFT SDKS\WINDOWS\V7.0A\INCLUDE\WINBASE.H
C:\PROGRAM FILES (X86)\MICROSOFT SDKS\WINDOWS\V7.0A\INCLUDE\WINERROR.H
C:\PROGRAM FILES (X86)\MICROSOFT SDKS\WINDOWS\V7.0A\INCLUDE\WINGDI.H
C:\PROGRAM FILES (X86)\MICROSOFT SDKS\WINDOWS\V7.0A\INCLUDE\PSHPACK1.H
C:\PROGRAM FILES (X86)\MICROSOFT SDKS\WINDOWS\V7.0A\INCLUDE\WINUSER.H
C:\PROGRAM FILES (X86)\MICROSOFT SDKS\WINDOWS\V7.0A\INCLUDE\TVOUT.H
C:\PROGRAM FILES (X86)\MICROSOFT SDKS\WINDOWS\V7.0A\INCLUDE\WINNLS.H
C:\PROGRAM FILES (X86)\MICROSOFT SDKS\WINDOWS\V7.0A\INCLUDE\WINCON.H
C:\PROGRAM FILES (X86)\MICROSOFT SDKS\WINDOWS\V7.0A\INCLUDE\WINVER.H
C:\PROGRAM FILES (X86)\MICROSOFT SDKS\WINDOWS\V7.0A\INCLUDE\VERRSRC.H
C:\PROGRAM FILES (X86)\MICROSOFT SDKS\WINDOWS\V7.0A\INCLUDE\WINREG.H
C:\PROGRAM FILES (X86)\MICROSOFT SDKS\WINDOWS\V7.0A\INCLUDE\REASON.H
C:\PROGRAM FILES (X86)\MICROSOFT SDKS\WINDOWS\V7.0A\INCLUDE\WINNETWK.H
C:\PROGRAM FILES (X86)\MICROSOFT SDKS\WINDOWS\V7.0A\INCLUDE\WNNC.H
C:\PROGRAM FILES (X86)\MICROSOFT SDKS\WINDOWS\V7.0A\INCLUDE\CDERR.H
C:\PROGRAM FILES (X86)\MICROSOFT SDKS\WINDOWS\V7.0A\INCLUDE\DDE.H
C:\PROGRAM FILES (X86)\MICROSOFT SDKS\WINDOWS\V7.0A\INCLUDE\DDEML.H
C:\PROGRAM FILES (X86)\MICROSOFT SDKS\WINDOWS\V7.0A\INCLUDE\DLGS.H
C:\PROGRAM FILES (X86)\MICROSOFT SDKS\WINDOWS\V7.0A\INCLUDE\LZEXPAND.H
C:\PROGRAM FILES (X86)\MICROSOFT SDKS\WINDOWS\V7.0A\INCLUDE\MMSYSTEM.H
C:\PROGRAM FILES (X86)\MICROSOFT SDKS\WINDOWS\V7.0A\INCLUDE\NB30.H
C:\PROGRAM FILES (X86)\MICROSOFT SDKS\WINDOWS\V7.0A\INCLUDE\RPC.H
C:\PROGRAM FILES (X86)\MICROSOFT SDKS\WINDOWS\V7.0A\INCLUDE\RPCDCE.H
C:\PROGRAM FILES (X86)\MICROSOFT SDKS\WINDOWS\V7.0A\INCLUDE\RPCDCEP.H
C:\PROGRAM FILES (X86)\MICROSOFT SDKS\WINDOWS\V7.0A\INCLUDE\RPCNSI.H
C:\PROGRAM FILES (X86)\MICROSOFT SDKS\WINDOWS\V7.0A\INCLUDE\RPCNTERR.H
C:\PROGRAM FILES (X86)\MICROSOFT SDKS\WINDOWS\V7.0A\INCLUDE\RPCASYNC.H
C:\PROGRAM FILES (X86)\MICROSOFT SDKS\WINDOWS\V7.0A\INCLUDE\SHELLAPI.H
C:\PROGRAM FILES (X86)\MICROSOFT SDKS\WINDOWS\V7.0A\INCLUDE\WINPERF.H
C:\PROGRAM FILES (X86)\MICROSOFT SDKS\WINDOWS\V7.0A\INCLUDE\WINSOCK.H
C:\PROGRAM FILES (X86)\MICROSOFT SDKS\WINDOWS\V7.0A\INCLUDE\INADDR.H
C:\PROGRAM FILES (X86)\MICROSOFT SDKS\WINDOWS\V7.0A\INCLUDE\WINCRYPT.H
C:\PROGRAM FILES (X86)\MICROSOFT SDKS\WINDOWS\V7.0A\INCLUDE\BCRYPT.H
C:\PROGRAM FILES (X86)\MICROSOFT SDKS\WINDOWS\V7.0A\INCLUDE\NCRYPT.H
C:\PROGRAM FILES (X86)\MICROSOFT SDKS\WINDOWS\V7.0A\INCLUDE\WINEFS.H
C:\PROGRAM FILES (X86)\MICROSOFT SDKS\WINDOWS\V7.0A\INCLUDE\WINSCARD.H
C:\PROGRAM FILES (X86)\MICROSOFT SDKS\WINDOWS\V7.0A\INCLUDE\WTYPES.H
C:\PROGRAM FILES (X86)\MICROSOFT SDKS\WINDOWS\V7.0A\INCLUDE\RPCNDR.H
C:\PROGRAM FILES (X86)\MICROSOFT SDKS\WINDOWS\V7.0A\INCLUDE\RPCNSIP.H
C:\PROGRAM FILES (X86)\MICROSOFT SDKS\WINDOWS\V7.0A\INCLUDE\RPCSAL.H
C:\PROGRAM FILES (X86)\MICROSOFT SDKS\WINDOWS\V7.0A\INCLUDE\WINIOCTL.H
C:\PROGRAM FILES (X86)\MICROSOFT SDKS\WINDOWS\V7.0A\INCLUDE\WINSMCRD.H
C:\PROGRAM FILES (X86)\MICROSOFT SDKS\WINDOWS\V7.0A\INCLUDE\WINSPOOL.H
C:\PROGRAM FILES (X86)\MICROSOFT SDKS\WINDOWS\V7.0A\INCLUDE\PRSHT.H
C:\PROGRAM FILES (X86)\MICROSOFT SDKS\WINDOWS\V7.0A\INCLUDE\OLE2.H
C:\PROGRAM FILES (X86)\MICROSOFT SDKS\WINDOWS\V7.0A\INCLUDE\OBJBASE.H
C:\PROGRAM FILES (X86)\MICROSOFT SDKS\WINDOWS\V7.0A\INCLUDE\UNKNWN.H
C:\PROGRAM FILES (X86)\MICROSOFT SDKS\WINDOWS\V7.0A\INCLUDE\OBJIDL.H
C:\PROGRAM FILES (X86)\MICROSOFT SDKS\WINDOWS\V7.0A\INCLUDE\CGUID.H
C:\PROGRAM FILES (X86)\MICROSOFT SDKS\WINDOWS\V7.0A\INCLUDE\URLMON.H
C:\PROGRAM FILES (X86)\MICROSOFT SDKS\WINDOWS\V7.0A\INCLUDE\OLEIDL.H
C:\PROGRAM FILES (X86)\MICROSOFT SDKS\WINDOWS\V7.0A\INCLUDE\SERVPROV.H
C:\PROGRAM FILES (X86)\MICROSOFT SDKS\WINDOWS\V7.0A\INCLUDE\MSXML.H
C:\PROGRAM FILES (X86)\MICROSOFT SDKS\WINDOWS\V7.0A\INCLUDE\OAIDL.H
C:\PROGRAM FILES (X86)\MICROSOFT SDKS\WINDOWS\V7.0A\INCLUDE\PROPIDL.H
C:\PROGRAM FILES (X86)\MICROSOFT SDKS\WINDOWS\V7.0A\INCLUDE\OLEAUTO.H
C:\PROGRAM FILES (X86)\MICROSOFT SDKS\WINDOWS\V7.0A\INCLUDE\COMMDLG.H
C:\PROGRAM FILES (X86)\MICROSOFT SDKS\WINDOWS\V7.0A\INCLUDE\STRALIGN.H
C:\PROGRAM FILES (X86)\MICROSOFT SDKS\WINDOWS\V7.0A\INCLUDE\WINSVC.H
C:\PROGRAM FILES (X86)\MICROSOFT SDKS\WINDOWS\V7.0A\INCLUDE\MCX.H
C:\PROGRAM FILES (X86)\MICROSOFT SDKS\WINDOWS\V7.0A\INCLUDE\IMM.H
C:\PROGRAM FILES (X86)\MICROSOFT SDKS\WINDOWS\V7.0A\INCLUDE\IME_CMODES.H
^C:\USERS\TULLY\DOCUMENTS\SCHOOL\CMPUT_466\PROJECTREVERSEMETRONOME\WDL-OL\VST3_SDK\BASE\SOURCE\FTHREAD.CPP
C:\USERS\TULLY\DOCUMENTS\SCHOOL\CMPUT_466\PROJECTREVERSEMETRONOME\WDL-OL\VST3_SDK\BASE\SOURCE\FTHREAD.H
C:\USERS\TULLY\DOCUMENTS\SCHOOL\CMPUT_466\PROJECTREVERSEMETRONOME\WDL-OL\VST3_SDK\BASE\SOURCE\FSTRING.H
C:\USERS\TULLY\DOCUMENTS\SCHOOL\CMPUT_466\PROJECTREVERSEMETRONOME\WDL-OL\VST3_SDK\PLUGINTERFACES\BASE\FTYPES.H
C:\USERS\TULLY\DOCUMENTS\SCHOOL\CMPUT_466\PROJECTREVERSEMETRONOME\WDL-OL\VST3_SDK\PLUGINTERFACES\BASE\FPLATFORM.H
C:\USERS\TULLY\DOCUMENTS\SCHOOL\CMPUT_466\PROJECTREVERSEMETRONOME\WDL-OL\VST3_SDK\PLUGINTERFACES\BASE\FSTRDEFS.H
C:\USERS\TULLY\DOCUMENTS\SCHOOL\CMPUT_466\PROJECTREVERSEMETRONOME\WDL-OL\VST3_SDK\PLUGINTERFACES\BASE\CONSTSTRINGTABLE.H
C:\USERS\TULLY\DOCUMENTS\SCHOOL\CMPUT_466\PROJECTREVERSEMETRONOME\WDL-OL\VST3_SDK\PLUGINTERFACES\BASE\ISTRINGRESULT.H
C:\USERS\TULLY\DOCUMENTS\SCHOOL\CMPUT_466\PROJECTREVERSEMETRONOME\WDL-OL\VST3_SDK\PLUGINTERFACES\BASE\FUNKNOWN.H
C:\PROGRAM FILES (X86)\MICROSOFT VISUAL STUDIO 10.0\VC\INCLUDE\STRING.H
C:\PROGRAM FILES (X86)\MICROSOFT VISUAL STUDIO 10.0\VC\INCLUDE\CRTDEFS.H
C:\PROGRAM FILES (X86)\MICROSOFT VISUAL STUDIO 10.0\VC\INCLUDE\SAL.H
C:\PROGRAM FILES (X86)\MICROSOFT VISUAL STUDIO 10.0\VC\INCLUDE\CODEANALYSIS\SOURCEANNOTATIONS.H
C:\PROGRAM FILES (X86)\MICROSOFT VISUAL STUDIO 10.0\VC\INCLUDE\VADEFS.H
C:\USERS\TULLY\DOCUMENTS\SCHOOL\CMPUT_466\PROJECTREVERSEMETRONOME\WDL-OL\VST3_SDK\PLUGINTERFACES\BASE\IPERSISTENT.H
C:\USERS\TULLY\DOCUMENTS\SCHOOL\CMPUT_466\PROJECTREVERSEMETRONOME\WDL-OL\VST3_SDK\BASE\SOURCE\FOBJECT.H
C:\USERS\TULLY\DOCUMENTS\SCHOOL\CMPUT_466\PROJECTREVERSEMETRONOME\WDL-OL\VST3_SDK\PLUGINTERFACES\BASE\IUPDATEHANDLER.H
C:\USERS\TULLY\DOCUMENTS\SCHOOL\CMPUT_466\PROJECTREVERSEMETRONOME\WDL-OL\VST3_SDK\BASE\SOURCE\FDEBUG.H
C:\PROGRAM FILES (X86)\MICROSOFT VISUAL STUDIO 10.0\VC\INCLUDE\STDARG.H
C:\USERS\TULLY\DOCUMENTS\SCHOOL\CMPUT_466\PROJECTREVERSEMETRONOME\WDL-OL\VST3_SDK\BASE\SOURCE\FATOMIC.H
C:\PROGRAM FILES (X86)\MICROSOFT VISUAL STUDIO 10.0\VC\INCLUDE\LIMITS.H
C:\PROGRAM FILES (X86)\MICROSOFT SDKS\WINDOWS\V7.0A\INCLUDE\WINDOWS.H
C:\PROGRAM FILES (X86)\MICROSOFT SDKS\WINDOWS\V7.0A\INCLUDE\SDKDDKVER.H
C:\PROGRAM FILES (X86)\MICROSOFT VISUAL STUDIO 10.0\VC\INCLUDE\EXCPT.H
C:\PROGRAM FILES (X86)\MICROSOFT SDKS\WINDOWS\V7.0A\INCLUDE\WINDEF.H
C:\PROGRAM FILES (X86)\MICROSOFT SDKS\WINDOWS\V7.0A\INCLUDE\WINNT.H
C:\PROGRAM FILES (X86)\MICROSOFT VISUAL STUDIO 10.0\VC\INCLUDE\CTYPE.H
C:\PROGRAM FILES (X86)\MICROSOFT SDKS\WINDOWS\V7.0A\INCLUDE\SPECSTRINGS.H
C:\PROGRAM FILES (X86)\MICROSOFT SDKS\WINDOWS\V7.0A\INCLUDE\SAL_SUPP.H
C:\PROGRAM FILES (X86)\MICROSOFT SDKS\WINDOWS\V7.0A\INCLUDE\SPECSTRINGS_SUPP.H
C:\PROGRAM FILES (X86)\MICROSOFT SDKS\WINDOWS\V7.0A\INCLUDE\SPECSTRINGS_STRICT.H
C:\PROGRAM FILES (X86)\MICROSOFT SDKS\WINDOWS\V7.0A\INCLUDE\SPECSTRINGS_UNDEF.H
C:\PROGRAM FILES (X86)\MICROSOFT SDKS\WINDOWS\V7.0A\INCLUDE\DRIVERSPECS.H
C:\PROGRAM FILES (X86)\MICROSOFT SDKS\WINDOWS\V7.0A\INCLUDE\SDV_DRIVERSPECS.H
C:\PROGRAM FILES (X86)\MICROSOFT SDKS\WINDOWS\V7.0A\INCLUDE\KERNELSPECS.H
C:\PROGRAM FILES (X86)\MICROSOFT SDKS\WINDOWS\V7.0A\INCLUDE\BASETSD.H
C:\PROGRAM FILES (X86)\MICROSOFT SDKS\WINDOWS\V7.0A\INCLUDE\GUIDDEF.H
C:\PROGRAM FILES (X86)\MICROSOFT SDKS\WINDOWS\V7.0A\INCLUDE\PSHPACK4.H
C:\PROGRAM FILES (X86)\MICROSOFT SDKS\WINDOWS\V7.0A\INCLUDE\POPPACK.H
C:\PROGRAM FILES (X86)\MICROSOFT SDKS\WINDOWS\V7.0A\INCLUDE\PSHPACK2.H
C:\PROGRAM FILES (X86)\MICROSOFT SDKS\WINDOWS\V7.0A\INCLUDE\PSHPACK8.H
C:\PROGRAM FILES (X86)\MICROSOFT SDKS\WINDOWS\V7.0A\INCLUDE\KTMTYPES.H
C:\PROGRAM FILES (X86)\MICROSOFT SDKS\WINDOWS\V7.0A\INCLUDE\WINBASE.H
C:\PROGRAM FILES (X86)\MICROSOFT SDKS\WINDOWS\V7.0A\INCLUDE\WINERROR.H
C:\PROGRAM FILES (X86)\MICROSOFT SDKS\WINDOWS\V7.0A\INCLUDE\WINGDI.H
C:\PROGRAM FILES (X86)\MICROSOFT SDKS\WINDOWS\V7.0A\INCLUDE\PSHPACK1.H
C:\PROGRAM FILES (X86)\MICROSOFT SDKS\WINDOWS\V7.0A\INCLUDE\WINUSER.H
C:\PROGRAM FILES (X86)\MICROSOFT SDKS\WINDOWS\V7.0A\INCLUDE\TVOUT.H
C:\PROGRAM FILES (X86)\MICROSOFT SDKS\WINDOWS\V7.0A\INCLUDE\WINNLS.H
C:\PROGRAM FILES (X86)\MICROSOFT SDKS\WINDOWS\V7.0A\INCLUDE\WINCON.H
C:\PROGRAM FILES (X86)\MICROSOFT SDKS\WINDOWS\V7.0A\INCLUDE\WINVER.H
C:\PROGRAM FILES (X86)\MICROSOFT SDKS\WINDOWS\V7.0A\INCLUDE\VERRSRC.H
C:\PROGRAM FILES (X86)\MICROSOFT SDKS\WINDOWS\V7.0A\INCLUDE\WINREG.H
C:\PROGRAM FILES (X86)\MICROSOFT SDKS\WINDOWS\V7.0A\INCLUDE\REASON.H
C:\PROGRAM FILES (X86)\MICROSOFT SDKS\WINDOWS\V7.0A\INCLUDE\WINNETWK.H
C:\PROGRAM FILES (X86)\MICROSOFT SDKS\WINDOWS\V7.0A\INCLUDE\WNNC.H
C:\PROGRAM FILES (X86)\MICROSOFT SDKS\WINDOWS\V7.0A\INCLUDE\CDERR.H
C:\PROGRAM FILES (X86)\MICROSOFT SDKS\WINDOWS\V7.0A\INCLUDE\DDE.H
C:\PROGRAM FILES (X86)\MICROSOFT SDKS\WINDOWS\V7.0A\INCLUDE\DDEML.H
C:\PROGRAM FILES (X86)\MICROSOFT SDKS\WINDOWS\V7.0A\INCLUDE\DLGS.H
C:\PROGRAM FILES (X86)\MICROSOFT SDKS\WINDOWS\V7.0A\INCLUDE\LZEXPAND.H
C:\PROGRAM FILES (X86)\MICROSOFT SDKS\WINDOWS\V7.0A\INCLUDE\MMSYSTEM.H
C:\PROGRAM FILES (X86)\MICROSOFT SDKS\WINDOWS\V7.0A\INCLUDE\NB30.H
C:\PROGRAM FILES (X86)\MICROSOFT SDKS\WINDOWS\V7.0A\INCLUDE\RPC.H
C:\PROGRAM FILES (X86)\MICROSOFT SDKS\WINDOWS\V7.0A\INCLUDE\RPCDCE.H
C:\PROGRAM FILES (X86)\MICROSOFT SDKS\WINDOWS\V7.0A\INCLUDE\RPCDCEP.H
C:\PROGRAM FILES (X86)\MICROSOFT SDKS\WINDOWS\V7.0A\INCLUDE\RPCNSI.H
C:\PROGRAM FILES (X86)\MICROSOFT SDKS\WINDOWS\V7.0A\INCLUDE\RPCNTERR.H
C:\PROGRAM FILES (X86)\MICROSOFT SDKS\WINDOWS\V7.0A\INCLUDE\RPCASYNC.H
C:\PROGRAM FILES (X86)\MICROSOFT SDKS\WINDOWS\V7.0A\INCLUDE\SHELLAPI.H
C:\PROGRAM FILES (X86)\MICROSOFT SDKS\WINDOWS\V7.0A\INCLUDE\WINPERF.H
C:\PROGRAM FILES (X86)\MICROSOFT SDKS\WINDOWS\V7.0A\INCLUDE\WINSOCK.H
C:\PROGRAM FILES (X86)\MICROSOFT SDKS\WINDOWS\V7.0A\INCLUDE\INADDR.H
C:\PROGRAM FILES (X86)\MICROSOFT SDKS\WINDOWS\V7.0A\INCLUDE\WINCRYPT.H
C:\PROGRAM FILES (X86)\MICROSOFT SDKS\WINDOWS\V7.0A\INCLUDE\BCRYPT.H
C:\PROGRAM FILES (X86)\MICROSOFT SDKS\WINDOWS\V7.0A\INCLUDE\NCRYPT.H
C:\PROGRAM FILES (X86)\MICROSOFT SDKS\WINDOWS\V7.0A\INCLUDE\WINEFS.H
C:\PROGRAM FILES (X86)\MICROSOFT SDKS\WINDOWS\V7.0A\INCLUDE\WINSCARD.H
C:\PROGRAM FILES (X86)\MICROSOFT SDKS\WINDOWS\V7.0A\INCLUDE\WTYPES.H
C:\PROGRAM FILES (X86)\MICROSOFT SDKS\WINDOWS\V7.0A\INCLUDE\RPCNDR.H
C:\PROGRAM FILES (X86)\MICROSOFT SDKS\WINDOWS\V7.0A\INCLUDE\RPCNSIP.H
C:\PROGRAM FILES (X86)\MICROSOFT SDKS\WINDOWS\V7.0A\INCLUDE\RPCSAL.H
C:\PROGRAM FILES (X86)\MICROSOFT SDKS\WINDOWS\V7.0A\INCLUDE\WINIOCTL.H
C:\PROGRAM FILES (X86)\MICROSOFT SDKS\WINDOWS\V7.0A\INCLUDE\WINSMCRD.H
C:\PROGRAM FILES (X86)\MICROSOFT SDKS\WINDOWS\V7.0A\INCLUDE\WINSPOOL.H
C:\PROGRAM FILES (X86)\MICROSOFT SDKS\WINDOWS\V7.0A\INCLUDE\PRSHT.H
C:\PROGRAM FILES (X86)\MICROSOFT SDKS\WINDOWS\V7.0A\INCLUDE\OLE2.H
C:\PROGRAM FILES (X86)\MICROSOFT SDKS\WINDOWS\V7.0A\INCLUDE\OBJBASE.H
C:\PROGRAM FILES (X86)\MICROSOFT VISUAL STUDIO 10.0\VC\INCLUDE\STDLIB.H
C:\PROGRAM FILES (X86)\MICROSOFT SDKS\WINDOWS\V7.0A\INCLUDE\UNKNWN.H
C:\PROGRAM FILES (X86)\MICROSOFT SDKS\WINDOWS\V7.0A\INCLUDE\OBJIDL.H
C:\PROGRAM FILES (X86)\MICROSOFT SDKS\WINDOWS\V7.0A\INCLUDE\CGUID.H
C:\PROGRAM FILES (X86)\MICROSOFT SDKS\WINDOWS\V7.0A\INCLUDE\URLMON.H
C:\PROGRAM FILES (X86)\MICROSOFT SDKS\WINDOWS\V7.0A\INCLUDE\OLEIDL.H
C:\PROGRAM FILES (X86)\MICROSOFT SDKS\WINDOWS\V7.0A\INCLUDE\SERVPROV.H
C:\PROGRAM FILES (X86)\MICROSOFT SDKS\WINDOWS\V7.0A\INCLUDE\MSXML.H
C:\PROGRAM FILES (X86)\MICROSOFT SDKS\WINDOWS\V7.0A\INCLUDE\OAIDL.H
C:\PROGRAM FILES (X86)\MICROSOFT SDKS\WINDOWS\V7.0A\INCLUDE\PROPIDL.H
C:\PROGRAM FILES (X86)\MICROSOFT SDKS\WINDOWS\V7.0A\INCLUDE\OLEAUTO.H
C:\PROGRAM FILES (X86)\MICROSOFT SDKS\WINDOWS\V7.0A\INCLUDE\COMMDLG.H
C:\PROGRAM FILES (X86)\MICROSOFT SDKS\WINDOWS\V7.0A\INCLUDE\STRALIGN.H
C:\PROGRAM FILES (X86)\MICROSOFT SDKS\WINDOWS\V7.0A\INCLUDE\WINSVC.H
C:\PROGRAM FILES (X86)\MICROSOFT SDKS\WINDOWS\V7.0A\INCLUDE\MCX.H
C:\PROGRAM FILES (X86)\MICROSOFT SDKS\WINDOWS\V7.0A\INCLUDE\IMM.H
C:\PROGRAM FILES (X86)\MICROSOFT SDKS\WINDOWS\V7.0A\INCLUDE\IME_CMODES.H
C:\PROGRAM FILES (X86)\MICROSOFT SDKS\WINDOWS\V7.0A\INCLUDE\TLHELP32.H
C:\PROGRAM FILES (X86)\MICROSOFT VISUAL STUDIO 10.0\VC\INCLUDE\CSTDIO
C:\PROGRAM FILES (X86)\MICROSOFT VISUAL STUDIO 10.0\VC\INCLUDE\YVALS.H
C:\PROGRAM FILES (X86)\MICROSOFT VISUAL STUDIO 10.0\VC\INCLUDE\USE_ANSI.H
C:\PROGRAM FILES (X86)\MICROSOFT VISUAL STUDIO 10.0\VC\INCLUDE\STDIO.H
C:\PROGRAM FILES (X86)\MICROSOFT VISUAL STUDIO 10.0\VC\INCLUDE\SWPRINTF.INL
C:\USERS\TULLY\DOCUMENTS\SCHOOL\CMPUT_466\PROJECTREVERSEMETRONOME\WDL-OL\VST3_SDK\BASE\SOURCE\TARRAY.H
C:\USERS\TULLY\DOCUMENTS\SCHOOL\CMPUT_466\PROJECTREVERSEMETRONOME\WDL-OL\VST3_SDK\BASE\SOURCE\TCONTAINER.H
C:\USERS\TULLY\DOCUMENTS\SCHOOL\CMPUT_466\PROJECTREVERSEMETRONOME\WDL-OL\VST3_SDK\BASE\SOURCE\FCLEANUP.H
^C:\USERS\TULLY\DOCUMENTS\SCHOOL\CMPUT_466\PROJECTREVERSEMETRONOME\WDL-OL\VST3_SDK\BASE\SOURCE\TIMER.CPP
C:\USERS\TULLY\DOCUMENTS\SCHOOL\CMPUT_466\PROJECTREVERSEMETRONOME\WDL-OL\VST3_SDK\BASE\SOURCE\TIMER.H
C:\USERS\TULLY\DOCUMENTS\SCHOOL\CMPUT_466\PROJECTREVERSEMETRONOME\WDL-OL\VST3_SDK\BASE\SOURCE\FOBJECT.H
C:\USERS\TULLY\DOCUMENTS\SCHOOL\CMPUT_466\PROJECTREVERSEMETRONOME\WDL-OL\VST3_SDK\PLUGINTERFACES\BASE\FUNKNOWN.H
C:\PROGRAM FILES (X86)\MICROSOFT VISUAL STUDIO 10.0\VC\INCLUDE\STRING.H
C:\PROGRAM FILES (X86)\MICROSOFT VISUAL STUDIO 10.0\VC\INCLUDE\CRTDEFS.H
C:\PROGRAM FILES (X86)\MICROSOFT VISUAL STUDIO 10.0\VC\INCLUDE\SAL.H
C:\PROGRAM FILES (X86)\MICROSOFT VISUAL STUDIO 10.0\VC\INCLUDE\CODEANALYSIS\SOURCEANNOTATIONS.H
C:\PROGRAM FILES (X86)\MICROSOFT VISUAL STUDIO 10.0\VC\INCLUDE\VADEFS.H
C:\USERS\TULLY\DOCUMENTS\SCHOOL\CMPUT_466\PROJECTREVERSEMETRONOME\WDL-OL\VST3_SDK\PLUGINTERFACES\BASE\FTYPES.H
C:\USERS\TULLY\DOCUMENTS\SCHOOL\CMPUT_466\PROJECTREVERSEMETRONOME\WDL-OL\VST3_SDK\PLUGINTERFACES\BASE\FPLATFORM.H
C:\USERS\TULLY\DOCUMENTS\SCHOOL\CMPUT_466\PROJECTREVERSEMETRONOME\WDL-OL\VST3_SDK\PLUGINTERFACES\BASE\IUPDATEHANDLER.H
C:\USERS\TULLY\DOCUMENTS\SCHOOL\CMPUT_466\PROJECTREVERSEMETRONOME\WDL-OL\VST3_SDK\BASE\SOURCE\FDEBUG.H
C:\USERS\TULLY\DOCUMENTS\SCHOOL\CMPUT_466\PROJECTREVERSEMETRONOME\WDL-OL\VST3_SDK\BASE\SOURCE\TARRAY.H
C:\USERS\TULLY\DOCUMENTS\SCHOOL\CMPUT_466\PROJECTREVERSEMETRONOME\WDL-OL\VST3_SDK\BASE\SOURCE\TCONTAINER.H
C:\USERS\TULLY\DOCUMENTS\SCHOOL\CMPUT_466\PROJECTREVERSEMETRONOME\WDL-OL\VST3_SDK\BASE\SOURCE\FCLEANUP.H
C:\PROGRAM FILES (X86)\MICROSOFT VISUAL STUDIO 10.0\VC\INCLUDE\STDLIB.H
C:\PROGRAM FILES (X86)\MICROSOFT VISUAL STUDIO 10.0\VC\INCLUDE\LIMITS.H
C:\PROGRAM FILES (X86)\MICROSOFT SDKS\WINDOWS\V7.0A\INCLUDE\WINDOWS.H
C:\PROGRAM FILES (X86)\MICROSOFT SDKS\WINDOWS\V7.0A\INCLUDE\SDKDDKVER.H
C:\PROGRAM FILES (X86)\MICROSOFT VISUAL STUDIO 10.0\VC\INCLUDE\EXCPT.H
C:\PROGRAM FILES (X86)\MICROSOFT VISUAL STUDIO 10.0\VC\INCLUDE\STDARG.H
C:\PROGRAM FILES (X86)\MICROSOFT SDKS\WINDOWS\V7.0A\INCLUDE\WINDEF.H
C:\PROGRAM FILES (X86)\MICROSOFT SDKS\WINDOWS\V7.0A\INCLUDE\WINNT.H
C:\PROGRAM FILES (X86)\MICROSOFT VISUAL STUDIO 10.0\VC\INCLUDE\CTYPE.H
C:\PROGRAM FILES (X86)\MICROSOFT SDKS\WINDOWS\V7.0A\INCLUDE\SPECSTRINGS.H
C:\PROGRAM FILES (X86)\MICROSOFT SDKS\WINDOWS\V7.0A\INCLUDE\SAL_SUPP.H
C:\PROGRAM FILES (X86)\MICROSOFT SDKS\WINDOWS\V7.0A\INCLUDE\SPECSTRINGS_SUPP.H
C:\PROGRAM FILES (X86)\MICROSOFT SDKS\WINDOWS\V7.0A\INCLUDE\SPECSTRINGS_STRICT.H
C:\PROGRAM FILES (X86)\MICROSOFT SDKS\WINDOWS\V7.0A\INCLUDE\SPECSTRINGS_UNDEF.H
C:\PROGRAM FILES (X86)\MICROSOFT SDKS\WINDOWS\V7.0A\INCLUDE\DRIVERSPECS.H
C:\PROGRAM FILES (X86)\MICROSOFT SDKS\WINDOWS\V7.0A\INCLUDE\SDV_DRIVERSPECS.H
C:\PROGRAM FILES (X86)\MICROSOFT SDKS\WINDOWS\V7.0A\INCLUDE\KERNELSPECS.H
C:\PROGRAM FILES (X86)\MICROSOFT SDKS\WINDOWS\V7.0A\INCLUDE\BASETSD.H
C:\PROGRAM FILES (X86)\MICROSOFT SDKS\WINDOWS\V7.0A\INCLUDE\GUIDDEF.H
C:\PROGRAM FILES (X86)\MICROSOFT SDKS\WINDOWS\V7.0A\INCLUDE\PSHPACK4.H
C:\PROGRAM FILES (X86)\MICROSOFT SDKS\WINDOWS\V7.0A\INCLUDE\POPPACK.H
C:\PROGRAM FILES (X86)\MICROSOFT SDKS\WINDOWS\V7.0A\INCLUDE\PSHPACK2.H
C:\PROGRAM FILES (X86)\MICROSOFT SDKS\WINDOWS\V7.0A\INCLUDE\PSHPACK8.H
C:\PROGRAM FILES (X86)\MICROSOFT SDKS\WINDOWS\V7.0A\INCLUDE\KTMTYPES.H
C:\PROGRAM FILES (X86)\MICROSOFT SDKS\WINDOWS\V7.0A\INCLUDE\WINBASE.H
C:\PROGRAM FILES (X86)\MICROSOFT SDKS\WINDOWS\V7.0A\INCLUDE\WINERROR.H
C:\PROGRAM FILES (X86)\MICROSOFT SDKS\WINDOWS\V7.0A\INCLUDE\WINGDI.H
C:\PROGRAM FILES (X86)\MICROSOFT SDKS\WINDOWS\V7.0A\INCLUDE\PSHPACK1.H
C:\PROGRAM FILES (X86)\MICROSOFT SDKS\WINDOWS\V7.0A\INCLUDE\WINUSER.H
C:\PROGRAM FILES (X86)\MICROSOFT SDKS\WINDOWS\V7.0A\INCLUDE\TVOUT.H
C:\PROGRAM FILES (X86)\MICROSOFT SDKS\WINDOWS\V7.0A\INCLUDE\WINNLS.H
C:\PROGRAM FILES (X86)\MICROSOFT SDKS\WINDOWS\V7.0A\INCLUDE\WINCON.H
C:\PROGRAM FILES (X86)\MICROSOFT SDKS\WINDOWS\V7.0A\INCLUDE\WINVER.H
C:\PROGRAM FILES (X86)\MICROSOFT SDKS\WINDOWS\V7.0A\INCLUDE\VERRSRC.H
C:\PROGRAM FILES (X86)\MICROSOFT SDKS\WINDOWS\V7.0A\INCLUDE\WINREG.H
C:\PROGRAM FILES (X86)\MICROSOFT SDKS\WINDOWS\V7.0A\INCLUDE\REASON.H
C:\PROGRAM FILES (X86)\MICROSOFT SDKS\WINDOWS\V7.0A\INCLUDE\WINNETWK.H
C:\PROGRAM FILES (X86)\MICROSOFT SDKS\WINDOWS\V7.0A\INCLUDE\WNNC.H
C:\PROGRAM FILES (X86)\MICROSOFT SDKS\WINDOWS\V7.0A\INCLUDE\CDERR.H
C:\PROGRAM FILES (X86)\MICROSOFT SDKS\WINDOWS\V7.0A\INCLUDE\DDE.H
C:\PROGRAM FILES (X86)\MICROSOFT SDKS\WINDOWS\V7.0A\INCLUDE\DDEML.H
C:\PROGRAM FILES (X86)\MICROSOFT SDKS\WINDOWS\V7.0A\INCLUDE\DLGS.H
C:\PROGRAM FILES (X86)\MICROSOFT SDKS\WINDOWS\V7.0A\INCLUDE\LZEXPAND.H
C:\PROGRAM FILES (X86)\MICROSOFT SDKS\WINDOWS\V7.0A\INCLUDE\MMSYSTEM.H
C:\PROGRAM FILES (X86)\MICROSOFT SDKS\WINDOWS\V7.0A\INCLUDE\NB30.H
C:\PROGRAM FILES (X86)\MICROSOFT SDKS\WINDOWS\V7.0A\INCLUDE\RPC.H
C:\PROGRAM FILES (X86)\MICROSOFT SDKS\WINDOWS\V7.0A\INCLUDE\RPCDCE.H
C:\PROGRAM FILES (X86)\MICROSOFT SDKS\WINDOWS\V7.0A\INCLUDE\RPCDCEP.H
C:\PROGRAM FILES (X86)\MICROSOFT SDKS\WINDOWS\V7.0A\INCLUDE\RPCNSI.H
C:\PROGRAM FILES (X86)\MICROSOFT SDKS\WINDOWS\V7.0A\INCLUDE\RPCNTERR.H
C:\PROGRAM FILES (X86)\MICROSOFT SDKS\WINDOWS\V7.0A\INCLUDE\RPCASYNC.H
C:\PROGRAM FILES (X86)\MICROSOFT SDKS\WINDOWS\V7.0A\INCLUDE\SHELLAPI.H
C:\PROGRAM FILES (X86)\MICROSOFT SDKS\WINDOWS\V7.0A\INCLUDE\WINPERF.H
C:\PROGRAM FILES (X86)\MICROSOFT SDKS\WINDOWS\V7.0A\INCLUDE\WINSOCK.H
C:\PROGRAM FILES (X86)\MICROSOFT SDKS\WINDOWS\V7.0A\INCLUDE\INADDR.H
C:\PROGRAM FILES (X86)\MICROSOFT SDKS\WINDOWS\V7.0A\INCLUDE\WINCRYPT.H
C:\PROGRAM FILES (X86)\MICROSOFT SDKS\WINDOWS\V7.0A\INCLUDE\BCRYPT.H
C:\PROGRAM FILES (X86)\MICROSOFT SDKS\WINDOWS\V7.0A\INCLUDE\NCRYPT.H
C:\PROGRAM FILES (X86)\MICROSOFT SDKS\WINDOWS\V7.0A\INCLUDE\WINEFS.H
C:\PROGRAM FILES (X86)\MICROSOFT SDKS\WINDOWS\V7.0A\INCLUDE\WINSCARD.H
C:\PROGRAM FILES (X86)\MICROSOFT SDKS\WINDOWS\V7.0A\INCLUDE\WTYPES.H
C:\PROGRAM FILES (X86)\MICROSOFT SDKS\WINDOWS\V7.0A\INCLUDE\RPCNDR.H
C:\PROGRAM FILES (X86)\MICROSOFT SDKS\WINDOWS\V7.0A\INCLUDE\RPCNSIP.H
C:\PROGRAM FILES (X86)\MICROSOFT SDKS\WINDOWS\V7.0A\INCLUDE\RPCSAL.H
C:\PROGRAM FILES (X86)\MICROSOFT SDKS\WINDOWS\V7.0A\INCLUDE\WINIOCTL.H
C:\PROGRAM FILES (X86)\MICROSOFT SDKS\WINDOWS\V7.0A\INCLUDE\WINSMCRD.H
C:\PROGRAM FILES (X86)\MICROSOFT SDKS\WINDOWS\V7.0A\INCLUDE\WINSPOOL.H
C:\PROGRAM FILES (X86)\MICROSOFT SDKS\WINDOWS\V7.0A\INCLUDE\PRSHT.H
C:\PROGRAM FILES (X86)\MICROSOFT SDKS\WINDOWS\V7.0A\INCLUDE\OLE2.H
C:\PROGRAM FILES (X86)\MICROSOFT SDKS\WINDOWS\V7.0A\INCLUDE\OBJBASE.H
C:\PROGRAM FILES (X86)\MICROSOFT SDKS\WINDOWS\V7.0A\INCLUDE\UNKNWN.H
C:\PROGRAM FILES (X86)\MICROSOFT SDKS\WINDOWS\V7.0A\INCLUDE\OBJIDL.H
C:\PROGRAM FILES (X86)\MICROSOFT SDKS\WINDOWS\V7.0A\INCLUDE\CGUID.H
C:\PROGRAM FILES (X86)\MICROSOFT SDKS\WINDOWS\V7.0A\INCLUDE\URLMON.H
C:\PROGRAM FILES (X86)\MICROSOFT SDKS\WINDOWS\V7.0A\INCLUDE\OLEIDL.H
C:\PROGRAM FILES (X86)\MICROSOFT SDKS\WINDOWS\V7.0A\INCLUDE\SERVPROV.H
C:\PROGRAM FILES (X86)\MICROSOFT SDKS\WINDOWS\V7.0A\INCLUDE\MSXML.H
C:\PROGRAM FILES (X86)\MICROSOFT SDKS\WINDOWS\V7.0A\INCLUDE\OAIDL.H
C:\PROGRAM FILES (X86)\MICROSOFT SDKS\WINDOWS\V7.0A\INCLUDE\PROPIDL.H
C:\PROGRAM FILES (X86)\MICROSOFT SDKS\WINDOWS\V7.0A\INCLUDE\OLEAUTO.H
C:\PROGRAM FILES (X86)\MICROSOFT SDKS\WINDOWS\V7.0A\INCLUDE\COMMDLG.H
C:\PROGRAM FILES (X86)\MICROSOFT SDKS\WINDOWS\V7.0A\INCLUDE\STRALIGN.H
C:\PROGRAM FILES (X86)\MICROSOFT SDKS\WINDOWS\V7.0A\INCLUDE\WINSVC.H
C:\PROGRAM FILES (X86)\MICROSOFT SDKS\WINDOWS\V7.0A\INCLUDE\MCX.H
C:\PROGRAM FILES (X86)\MICROSOFT SDKS\WINDOWS\V7.0A\INCLUDE\IMM.H
C:\PROGRAM FILES (X86)\MICROSOFT SDKS\WINDOWS\V7.0A\INCLUDE\IME_CMODES.H
^C:\USERS\TULLY\DOCUMENTS\SCHOOL\CMPUT_466\PROJECTREVERSEMETRONOME\WDL-OL\VST3_SDK\BASE\SOURCE\UPDATEHANDLER.CPP
C:\USERS\TULLY\DOCUMENTS\SCHOOL\CMPUT_466\PROJECTREVERSEMETRONOME\WDL-OL\VST3_SDK\BASE\SOURCE\UPDATEHANDLER.H
C:\USERS\TULLY\DOCUMENTS\SCHOOL\CMPUT_466\PROJECTREVERSEMETRONOME\WDL-OL\VST3_SDK\BASE\SOURCE\FOBJECT.H
C:\USERS\TULLY\DOCUMENTS\SCHOOL\CMPUT_466\PROJECTREVERSEMETRONOME\WDL-OL\VST3_SDK\PLUGINTERFACES\BASE\FUNKNOWN.H
C:\PROGRAM FILES (X86)\MICROSOFT VISUAL STUDIO 10.0\VC\INCLUDE\STRING.H
C:\PROGRAM FILES (X86)\MICROSOFT VISUAL STUDIO 10.0\VC\INCLUDE\CRTDEFS.H
C:\PROGRAM FILES (X86)\MICROSOFT VISUAL STUDIO 10.0\VC\INCLUDE\SAL.H
C:\PROGRAM FILES (X86)\MICROSOFT VISUAL STUDIO 10.0\VC\INCLUDE\CODEANALYSIS\SOURCEANNOTATIONS.H
C:\PROGRAM FILES (X86)\MICROSOFT VISUAL STUDIO 10.0\VC\INCLUDE\VADEFS.H
C:\USERS\TULLY\DOCUMENTS\SCHOOL\CMPUT_466\PROJECTREVERSEMETRONOME\WDL-OL\VST3_SDK\PLUGINTERFACES\BASE\FTYPES.H
C:\USERS\TULLY\DOCUMENTS\SCHOOL\CMPUT_466\PROJECTREVERSEMETRONOME\WDL-OL\VST3_SDK\PLUGINTERFACES\BASE\FPLATFORM.H
C:\USERS\TULLY\DOCUMENTS\SCHOOL\CMPUT_466\PROJECTREVERSEMETRONOME\WDL-OL\VST3_SDK\PLUGINTERFACES\BASE\IUPDATEHANDLER.H
C:\USERS\TULLY\DOCUMENTS\SCHOOL\CMPUT_466\PROJECTREVERSEMETRONOME\WDL-OL\VST3_SDK\BASE\SOURCE\FDEBUG.H
C:\USERS\TULLY\DOCUMENTS\SCHOOL\CMPUT_466\PROJECTREVERSEMETRONOME\WDL-OL\VST3_SDK\BASE\SOURCE\FTHREAD.H
C:\USERS\TULLY\DOCUMENTS\SCHOOL\CMPUT_466\PROJECTREVERSEMETRONOME\WDL-OL\VST3_SDK\BASE\SOURCE\FSTRING.H
C:\USERS\TULLY\DOCUMENTS\SCHOOL\CMPUT_466\PROJECTREVERSEMETRONOME\WDL-OL\VST3_SDK\PLUGINTERFACES\BASE\FSTRDEFS.H
C:\USERS\TULLY\DOCUMENTS\SCHOOL\CMPUT_466\PROJECTREVERSEMETRONOME\WDL-OL\VST3_SDK\PLUGINTERFACES\BASE\CONSTSTRINGTABLE.H
C:\USERS\TULLY\DOCUMENTS\SCHOOL\CMPUT_466\PROJECTREVERSEMETRONOME\WDL-OL\VST3_SDK\PLUGINTERFACES\BASE\ISTRINGRESULT.H
C:\USERS\TULLY\DOCUMENTS\SCHOOL\CMPUT_466\PROJECTREVERSEMETRONOME\WDL-OL\VST3_SDK\PLUGINTERFACES\BASE\IPERSISTENT.H
C:\PROGRAM FILES (X86)\MICROSOFT VISUAL STUDIO 10.0\VC\INCLUDE\STDARG.H
C:\USERS\TULLY\DOCUMENTS\SCHOOL\CMPUT_466\PROJECTREVERSEMETRONOME\WDL-OL\VST3_SDK\BASE\SOURCE\FATOMIC.H
C:\USERS\TULLY\DOCUMENTS\SCHOOL\CMPUT_466\PROJECTREVERSEMETRONOME\WDL-OL\VST3_SDK\BASE\SOURCE\CLASSFACTORY.H
C:\USERS\TULLY\DOCUMENTS\SCHOOL\CMPUT_466\PROJECTREVERSEMETRONOME\WDL-OL\VST3_SDK\BASE\SOURCE\TARRAY.H
C:\USERS\TULLY\DOCUMENTS\SCHOOL\CMPUT_466\PROJECTREVERSEMETRONOME\WDL-OL\VST3_SDK\BASE\SOURCE\TCONTAINER.H
C:\USERS\TULLY\DOCUMENTS\SCHOOL\CMPUT_466\PROJECTREVERSEMETRONOME\WDL-OL\VST3_SDK\BASE\SOURCE\FCLEANUP.H
C:\PROGRAM FILES (X86)\MICROSOFT VISUAL STUDIO 10.0\VC\INCLUDE\STDLIB.H
C:\PROGRAM FILES (X86)\MICROSOFT VISUAL STUDIO 10.0\VC\INCLUDE\LIMITS.H
C:\USERS\TULLY\DOCUMENTS\SCHOOL\CMPUT_466\PROJECTREVERSEMETRONOME\WDL-OL\VST3_SDK\BASE\SOURCE\TLIST.H
^C:\USERS\TULLY\DOCUMENTS\SCHOOL\CMPUT_466\PROJECTREVERSEMETRONOME\WDL-OL\VST3_SDK\PLUGINTERFACES\BASE\CONSTSTRINGTABLE.CPP
C:\USERS\TULLY\DOCUMENTS\SCHOOL\CMPUT_466\PROJECTREVERSEMETRONOME\WDL-OL\VST3_SDK\PLUGINTERFACES\BASE\CONSTSTRINGTABLE.H
C:\USERS\TULLY\DOCUMENTS\SCHOOL\CMPUT_466\PROJECTREVERSEMETRONOME\WDL-OL\VST3_SDK\PLUGINTERFACES\BASE\FTYPES.H
C:\USERS\TULLY\DOCUMENTS\SCHOOL\CMPUT_466\PROJECTREVERSEMETRONOME\WDL-OL\VST3_SDK\PLUGINTERFACES\BASE\FPLATFORM.H
C:\PROGRAM FILES (X86)\MICROSOFT VISUAL STUDIO 10.0\VC\INCLUDE\MAP
C:\PROGRAM FILES (X86)\MICROSOFT VISUAL STUDIO 10.0\VC\INCLUDE\XTREE
C:\PROGRAM FILES (X86)\MICROSOFT VISUAL STUDIO 10.0\VC\INCLUDE\XFUNCTIONAL
C:\PROGRAM FILES (X86)\MICROSOFT VISUAL STUDIO 10.0\VC\INCLUDE\CSTDLIB
C:\PROGRAM FILES (X86)\MICROSOFT VISUAL STUDIO 10.0\VC\INCLUDE\YVALS.H
C:\PROGRAM FILES (X86)\MICROSOFT VISUAL STUDIO 10.0\VC\INCLUDE\CRTDEFS.H
C:\PROGRAM FILES (X86)\MICROSOFT VISUAL STUDIO 10.0\VC\INCLUDE\SAL.H
C:\PROGRAM FILES (X86)\MICROSOFT VISUAL STUDIO 10.0\VC\INCLUDE\CODEANALYSIS\SOURCEANNOTATIONS.H
C:\PROGRAM FILES (X86)\MICROSOFT VISUAL STUDIO 10.0\VC\INCLUDE\VADEFS.H
C:\PROGRAM FILES (X86)\MICROSOFT VISUAL STUDIO 10.0\VC\INCLUDE\USE_ANSI.H
C:\PROGRAM FILES (X86)\MICROSOFT VISUAL STUDIO 10.0\VC\INCLUDE\STDLIB.H
C:\PROGRAM FILES (X86)\MICROSOFT VISUAL STUDIO 10.0\VC\INCLUDE\LIMITS.H
C:\PROGRAM FILES (X86)\MICROSOFT VISUAL STUDIO 10.0\VC\INCLUDE\XSTRING
C:\PROGRAM FILES (X86)\MICROSOFT VISUAL STUDIO 10.0\VC\INCLUDE\XMEMORY
C:\PROGRAM FILES (X86)\MICROSOFT VISUAL STUDIO 10.0\VC\INCLUDE\NEW
C:\PROGRAM FILES (X86)\MICROSOFT VISUAL STUDIO 10.0\VC\INCLUDE\EXCEPTION
C:\PROGRAM FILES (X86)\MICROSOFT VISUAL STUDIO 10.0\VC\INCLUDE\XSTDDEF
C:\PROGRAM FILES (X86)\MICROSOFT VISUAL STUDIO 10.0\VC\INCLUDE\CSTDDEF
C:\PROGRAM FILES (X86)\MICROSOFT VISUAL STUDIO 10.0\VC\INCLUDE\STDDEF.H
C:\PROGRAM FILES (X86)\MICROSOFT VISUAL STUDIO 10.0\VC\INCLUDE\EH.H
C:\PROGRAM FILES (X86)\MICROSOFT VISUAL STUDIO 10.0\VC\INCLUDE\MALLOC.H
C:\PROGRAM FILES (X86)\MICROSOFT VISUAL STUDIO 10.0\VC\INCLUDE\STRING.H
C:\PROGRAM FILES (X86)\MICROSOFT VISUAL STUDIO 10.0\VC\INCLUDE\XUTILITY
C:\PROGRAM FILES (X86)\MICROSOFT VISUAL STUDIO 10.0\VC\INCLUDE\CLIMITS
C:\PROGRAM FILES (X86)\MICROSOFT VISUAL STUDIO 10.0\VC\INCLUDE\UTILITY
C:\PROGRAM FILES (X86)\MICROSOFT VISUAL STUDIO 10.0\VC\INCLUDE\IOSFWD
C:\PROGRAM FILES (X86)\MICROSOFT VISUAL STUDIO 10.0\VC\INCLUDE\CSTDIO
C:\PROGRAM FILES (X86)\MICROSOFT VISUAL STUDIO 10.0\VC\INCLUDE\STDIO.H
C:\PROGRAM FILES (X86)\MICROSOFT VISUAL STUDIO 10.0\VC\INCLUDE\SWPRINTF.INL
C:\PROGRAM FILES (X86)\MICROSOFT VISUAL STUDIO 10.0\VC\INCLUDE\CSTRING
C:\PROGRAM FILES (X86)\MICROSOFT VISUAL STUDIO 10.0\VC\INCLUDE\CWCHAR
C:\PROGRAM FILES (X86)\MICROSOFT VISUAL STUDIO 10.0\VC\INCLUDE\WCHAR.H
C:\PROGRAM FILES (X86)\MICROSOFT VISUAL STUDIO 10.0\VC\INCLUDE\WTIME.INL
C:\PROGRAM FILES (X86)\MICROSOFT VISUAL STUDIO 10.0\VC\INCLUDE\CRTDBG.H
C:\PROGRAM FILES (X86)\MICROSOFT VISUAL STUDIO 10.0\VC\INCLUDE\TYPE_TRAITS
C:\PROGRAM FILES (X86)\MICROSOFT VISUAL STUDIO 10.0\VC\INCLUDE\LIMITS
C:\PROGRAM FILES (X86)\MICROSOFT VISUAL STUDIO 10.0\VC\INCLUDE\YMATH.H
C:\PROGRAM FILES (X86)\MICROSOFT VISUAL STUDIO 10.0\VC\INCLUDE\CFLOAT
C:\PROGRAM FILES (X86)\MICROSOFT VISUAL STUDIO 10.0\VC\INCLUDE\FLOAT.H
C:\PROGRAM FILES (X86)\MICROSOFT VISUAL STUDIO 10.0\VC\INCLUDE\CRTWRN.H
C:\PROGRAM FILES (X86)\MICROSOFT VISUAL STUDIO 10.0\VC\INCLUDE\CMATH
C:\PROGRAM FILES (X86)\MICROSOFT VISUAL STUDIO 10.0\VC\INCLUDE\MATH.H
C:\PROGRAM FILES (X86)\MICROSOFT VISUAL STUDIO 10.0\VC\INCLUDE\XTR1COMMON
C:\PROGRAM FILES (X86)\MICROSOFT VISUAL STUDIO 10.0\VC\INCLUDE\XFWRAP
C:\PROGRAM FILES (X86)\MICROSOFT VISUAL STUDIO 10.0\VC\INCLUDE\XFWRAP1
C:\PROGRAM FILES (X86)\MICROSOFT VISUAL STUDIO 10.0\VC\INCLUDE\XXTYPE_TRAITS
C:\PROGRAM FILES (X86)\MICROSOFT VISUAL STUDIO 10.0\VC\INCLUDE\MEMORY
C:\PROGRAM FILES (X86)\MICROSOFT VISUAL STUDIO 10.0\VC\INCLUDE\TYPEINFO
C:\PROGRAM FILES (X86)\MICROSOFT VISUAL STUDIO 10.0\VC\INCLUDE\INTRIN.H
C:\PROGRAM FILES (X86)\MICROSOFT VISUAL STUDIO 10.0\VC\INCLUDE\SETJMP.H
C:\PROGRAM FILES (X86)\MICROSOFT VISUAL STUDIO 10.0\VC\INCLUDE\IMMINTRIN.H
C:\PROGRAM FILES (X86)\MICROSOFT VISUAL STUDIO 10.0\VC\INCLUDE\WMMINTRIN.H
C:\PROGRAM FILES (X86)\MICROSOFT VISUAL STUDIO 10.0\VC\INCLUDE\NMMINTRIN.H
C:\PROGRAM FILES (X86)\MICROSOFT VISUAL STUDIO 10.0\VC\INCLUDE\SMMINTRIN.H
C:\PROGRAM FILES (X86)\MICROSOFT VISUAL STUDIO 10.0\VC\INCLUDE\TMMINTRIN.H
C:\PROGRAM FILES (X86)\MICROSOFT VISUAL STUDIO 10.0\VC\INCLUDE\PMMINTRIN.H
C:\PROGRAM FILES (X86)\MICROSOFT VISUAL STUDIO 10.0\VC\INCLUDE\EMMINTRIN.H
C:\PROGRAM FILES (X86)\MICROSOFT VISUAL STUDIO 10.0\VC\INCLUDE\XMMINTRIN.H
C:\PROGRAM FILES (X86)\MICROSOFT VISUAL STUDIO 10.0\VC\INCLUDE\MMINTRIN.H
C:\PROGRAM FILES (X86)\MICROSOFT VISUAL STUDIO 10.0\VC\INCLUDE\MM3DNOW.H
C:\PROGRAM FILES (X86)\MICROSOFT VISUAL STUDIO 10.0\VC\INCLUDE\XXSHARED
C:\PROGRAM FILES (X86)\MICROSOFT VISUAL STUDIO 10.0\VC\INCLUDE\STDEXCEPT
^C:\USERS\TULLY\DOCUMENTS\SCHOOL\CMPUT_466\PROJECTREVERSEMETRONOME\WDL-OL\VST3_SDK\PLUGINTERFACES\BASE\FUNKNOWN.CPP
C:\USERS\TULLY\DOCUMENTS\SCHOOL\CMPUT_466\PROJECTREVERSEMETRONOME\WDL-OL\VST3_SDK\PLUGINTERFACES\BASE\FUNKNOWN.H
C:\PROGRAM FILES (X86)\MICROSOFT VISUAL STUDIO 10.0\VC\INCLUDE\STRING.H
C:\PROGRAM FILES (X86)\MICROSOFT VISUAL STUDIO 10.0\VC\INCLUDE\CRTDEFS.H
C:\PROGRAM FILES (X86)\MICROSOFT VISUAL STUDIO 10.0\VC\INCLUDE\SAL.H
C:\PROGRAM FILES (X86)\MICROSOFT VISUAL STUDIO 10.0\VC\INCLUDE\CODEANALYSIS\SOURCEANNOTATIONS.H
C:\PROGRAM FILES (X86)\MICROSOFT VISUAL STUDIO 10.0\VC\INCLUDE\VADEFS.H
C:\USERS\TULLY\DOCUMENTS\SCHOOL\CMPUT_466\PROJECTREVERSEMETRONOME\WDL-OL\VST3_SDK\PLUGINTERFACES\BASE\FTYPES.H
C:\USERS\TULLY\DOCUMENTS\SCHOOL\CMPUT_466\PROJECTREVERSEMETRONOME\WDL-OL\VST3_SDK\PLUGINTERFACES\BASE\FPLATFORM.H
C:\USERS\TULLY\DOCUMENTS\SCHOOL\CMPUT_466\PROJECTREVERSEMETRONOME\WDL-OL\VST3_SDK\PLUGINTERFACES\BASE\FSTRDEFS.H
C:\USERS\TULLY\DOCUMENTS\SCHOOL\CMPUT_466\PROJECTREVERSEMETRONOME\WDL-OL\VST3_SDK\PLUGINTERFACES\BASE\CONSTSTRINGTABLE.H
C:\PROGRAM FILES (X86)\MICROSOFT VISUAL STUDIO 10.0\VC\INCLUDE\STDIO.H
C:\PROGRAM FILES (X86)\MICROSOFT VISUAL STUDIO 10.0\VC\INCLUDE\SWPRINTF.INL
C:\PROGRAM FILES (X86)\MICROSOFT SDKS\WINDOWS\V7.0A\INCLUDE\OBJBASE.H
C:\PROGRAM FILES (X86)\MICROSOFT SDKS\WINDOWS\V7.0A\INCLUDE\RPC.H
C:\PROGRAM FILES (X86)\MICROSOFT SDKS\WINDOWS\V7.0A\INCLUDE\WINDOWS.H
C:\PROGRAM FILES (X86)\MICROSOFT SDKS\WINDOWS\V7.0A\INCLUDE\SDKDDKVER.H
C:\PROGRAM FILES (X86)\MICROSOFT VISUAL STUDIO 10.0\VC\INCLUDE\EXCPT.H
C:\PROGRAM FILES (X86)\MICROSOFT VISUAL STUDIO 10.0\VC\INCLUDE\STDARG.H
C:\PROGRAM FILES (X86)\MICROSOFT SDKS\WINDOWS\V7.0A\INCLUDE\WINDEF.H
C:\PROGRAM FILES (X86)\MICROSOFT SDKS\WINDOWS\V7.0A\INCLUDE\WINNT.H
C:\PROGRAM FILES (X86)\MICROSOFT VISUAL STUDIO 10.0\VC\INCLUDE\CTYPE.H
C:\PROGRAM FILES (X86)\MICROSOFT SDKS\WINDOWS\V7.0A\INCLUDE\SPECSTRINGS.H
C:\PROGRAM FILES (X86)\MICROSOFT SDKS\WINDOWS\V7.0A\INCLUDE\SAL_SUPP.H
C:\PROGRAM FILES (X86)\MICROSOFT SDKS\WINDOWS\V7.0A\INCLUDE\SPECSTRINGS_SUPP.H
C:\PROGRAM FILES (X86)\MICROSOFT SDKS\WINDOWS\V7.0A\INCLUDE\SPECSTRINGS_STRICT.H
C:\PROGRAM FILES (X86)\MICROSOFT SDKS\WINDOWS\V7.0A\INCLUDE\SPECSTRINGS_UNDEF.H
C:\PROGRAM FILES (X86)\MICROSOFT SDKS\WINDOWS\V7.0A\INCLUDE\DRIVERSPECS.H
C:\PROGRAM FILES (X86)\MICROSOFT SDKS\WINDOWS\V7.0A\INCLUDE\SDV_DRIVERSPECS.H
C:\PROGRAM FILES (X86)\MICROSOFT SDKS\WINDOWS\V7.0A\INCLUDE\KERNELSPECS.H
C:\PROGRAM FILES (X86)\MICROSOFT SDKS\WINDOWS\V7.0A\INCLUDE\BASETSD.H
C:\PROGRAM FILES (X86)\MICROSOFT SDKS\WINDOWS\V7.0A\INCLUDE\GUIDDEF.H
C:\PROGRAM FILES (X86)\MICROSOFT SDKS\WINDOWS\V7.0A\INCLUDE\PSHPACK4.H
C:\PROGRAM FILES (X86)\MICROSOFT SDKS\WINDOWS\V7.0A\INCLUDE\POPPACK.H
C:\PROGRAM FILES (X86)\MICROSOFT SDKS\WINDOWS\V7.0A\INCLUDE\PSHPACK2.H
C:\PROGRAM FILES (X86)\MICROSOFT SDKS\WINDOWS\V7.0A\INCLUDE\PSHPACK8.H
C:\PROGRAM FILES (X86)\MICROSOFT SDKS\WINDOWS\V7.0A\INCLUDE\KTMTYPES.H
C:\PROGRAM FILES (X86)\MICROSOFT SDKS\WINDOWS\V7.0A\INCLUDE\WINBASE.H
C:\PROGRAM FILES (X86)\MICROSOFT SDKS\WINDOWS\V7.0A\INCLUDE\WINERROR.H
C:\PROGRAM FILES (X86)\MICROSOFT SDKS\WINDOWS\V7.0A\INCLUDE\WINGDI.H
C:\PROGRAM FILES (X86)\MICROSOFT SDKS\WINDOWS\V7.0A\INCLUDE\PSHPACK1.H
C:\PROGRAM FILES (X86)\MICROSOFT SDKS\WINDOWS\V7.0A\INCLUDE\WINUSER.H
C:\PROGRAM FILES (X86)\MICROSOFT SDKS\WINDOWS\V7.0A\INCLUDE\TVOUT.H
C:\PROGRAM FILES (X86)\MICROSOFT SDKS\WINDOWS\V7.0A\INCLUDE\WINNLS.H
C:\PROGRAM FILES (X86)\MICROSOFT SDKS\WINDOWS\V7.0A\INCLUDE\WINCON.H
C:\PROGRAM FILES (X86)\MICROSOFT SDKS\WINDOWS\V7.0A\INCLUDE\WINVER.H
C:\PROGRAM FILES (X86)\MICROSOFT SDKS\WINDOWS\V7.0A\INCLUDE\VERRSRC.H
C:\PROGRAM FILES (X86)\MICROSOFT SDKS\WINDOWS\V7.0A\INCLUDE\WINREG.H
C:\PROGRAM FILES (X86)\MICROSOFT SDKS\WINDOWS\V7.0A\INCLUDE\REASON.H
C:\PROGRAM FILES (X86)\MICROSOFT SDKS\WINDOWS\V7.0A\INCLUDE\WINNETWK.H
C:\PROGRAM FILES (X86)\MICROSOFT SDKS\WINDOWS\V7.0A\INCLUDE\WNNC.H
C:\PROGRAM FILES (X86)\MICROSOFT SDKS\WINDOWS\V7.0A\INCLUDE\CDERR.H
C:\PROGRAM FILES (X86)\MICROSOFT SDKS\WINDOWS\V7.0A\INCLUDE\DDE.H
C:\PROGRAM FILES (X86)\MICROSOFT SDKS\WINDOWS\V7.0A\INCLUDE\DDEML.H
C:\PROGRAM FILES (X86)\MICROSOFT SDKS\WINDOWS\V7.0A\INCLUDE\DLGS.H
C:\PROGRAM FILES (X86)\MICROSOFT SDKS\WINDOWS\V7.0A\INCLUDE\LZEXPAND.H
C:\PROGRAM FILES (X86)\MICROSOFT SDKS\WINDOWS\V7.0A\INCLUDE\MMSYSTEM.H
C:\PROGRAM FILES (X86)\MICROSOFT SDKS\WINDOWS\V7.0A\INCLUDE\NB30.H
C:\PROGRAM FILES (X86)\MICROSOFT SDKS\WINDOWS\V7.0A\INCLUDE\RPCDCE.H
C:\PROGRAM FILES (X86)\MICROSOFT SDKS\WINDOWS\V7.0A\INCLUDE\RPCDCEP.H
C:\PROGRAM FILES (X86)\MICROSOFT SDKS\WINDOWS\V7.0A\INCLUDE\RPCNSI.H
C:\PROGRAM FILES (X86)\MICROSOFT SDKS\WINDOWS\V7.0A\INCLUDE\RPCNTERR.H
C:\PROGRAM FILES (X86)\MICROSOFT SDKS\WINDOWS\V7.0A\INCLUDE\RPCASYNC.H
C:\PROGRAM FILES (X86)\MICROSOFT SDKS\WINDOWS\V7.0A\INCLUDE\SHELLAPI.H
C:\PROGRAM FILES (X86)\MICROSOFT SDKS\WINDOWS\V7.0A\INCLUDE\WINPERF.H
C:\PROGRAM FILES (X86)\MICROSOFT SDKS\WINDOWS\V7.0A\INCLUDE\WINSOCK.H
C:\PROGRAM FILES (X86)\MICROSOFT SDKS\WINDOWS\V7.0A\INCLUDE\INADDR.H
C:\PROGRAM FILES (X86)\MICROSOFT SDKS\WINDOWS\V7.0A\INCLUDE\WINCRYPT.H
C:\PROGRAM FILES (X86)\MICROSOFT SDKS\WINDOWS\V7.0A\INCLUDE\BCRYPT.H
C:\PROGRAM FILES (X86)\MICROSOFT SDKS\WINDOWS\V7.0A\INCLUDE\NCRYPT.H
C:\PROGRAM FILES (X86)\MICROSOFT SDKS\WINDOWS\V7.0A\INCLUDE\WINEFS.H
C:\PROGRAM FILES (X86)\MICROSOFT SDKS\WINDOWS\V7.0A\INCLUDE\WINSCARD.H
C:\PROGRAM FILES (X86)\MICROSOFT SDKS\WINDOWS\V7.0A\INCLUDE\WTYPES.H
C:\PROGRAM FILES (X86)\MICROSOFT SDKS\WINDOWS\V7.0A\INCLUDE\RPCNDR.H
C:\PROGRAM FILES (X86)\MICROSOFT SDKS\WINDOWS\V7.0A\INCLUDE\RPCNSIP.H
C:\PROGRAM FILES (X86)\MICROSOFT SDKS\WINDOWS\V7.0A\INCLUDE\RPCSAL.H
C:\PROGRAM FILES (X86)\MICROSOFT SDKS\WINDOWS\V7.0A\INCLUDE\WINIOCTL.H
C:\PROGRAM FILES (X86)\MICROSOFT SDKS\WINDOWS\V7.0A\INCLUDE\WINSMCRD.H
C:\PROGRAM FILES (X86)\MICROSOFT SDKS\WINDOWS\V7.0A\INCLUDE\WINSPOOL.H
C:\PROGRAM FILES (X86)\MICROSOFT SDKS\WINDOWS\V7.0A\INCLUDE\PRSHT.H
C:\PROGRAM FILES (X86)\MICROSOFT SDKS\WINDOWS\V7.0A\INCLUDE\OLE2.H
C:\PROGRAM FILES (X86)\MICROSOFT VISUAL STUDIO 10.0\VC\INCLUDE\STDLIB.H
C:\PROGRAM FILES (X86)\MICROSOFT VISUAL STUDIO 10.0\VC\INCLUDE\LIMITS.H
C:\PROGRAM FILES (X86)\MICROSOFT SDKS\WINDOWS\V7.0A\INCLUDE\UNKNWN.H
C:\PROGRAM FILES (X86)\MICROSOFT SDKS\WINDOWS\V7.0A\INCLUDE\OBJIDL.H
C:\PROGRAM FILES (X86)\MICROSOFT SDKS\WINDOWS\V7.0A\INCLUDE\CGUID.H
C:\PROGRAM FILES (X86)\MICROSOFT SDKS\WINDOWS\V7.0A\INCLUDE\URLMON.H
C:\PROGRAM FILES (X86)\MICROSOFT SDKS\WINDOWS\V7.0A\INCLUDE\OLEIDL.H
C:\PROGRAM FILES (X86)\MICROSOFT SDKS\WINDOWS\V7.0A\INCLUDE\SERVPROV.H
C:\PROGRAM FILES (X86)\MICROSOFT SDKS\WINDOWS\V7.0A\INCLUDE\MSXML.H
C:\PROGRAM FILES (X86)\MICROSOFT SDKS\WINDOWS\V7.0A\INCLUDE\OAIDL.H
C:\PROGRAM FILES (X86)\MICROSOFT SDKS\WINDOWS\V7.0A\INCLUDE\PROPIDL.H
C:\PROGRAM FILES (X86)\MICROSOFT SDKS\WINDOWS\V7.0A\INCLUDE\OLEAUTO.H
C:\PROGRAM FILES (X86)\MICROSOFT SDKS\WINDOWS\V7.0A\INCLUDE\COMMDLG.H
C:\PROGRAM FILES (X86)\MICROSOFT SDKS\WINDOWS\V7.0A\INCLUDE\STRALIGN.H
C:\PROGRAM FILES (X86)\MICROSOFT SDKS\WINDOWS\V7.0A\INCLUDE\WINSVC.H
C:\PROGRAM FILES (X86)\MICROSOFT SDKS\WINDOWS\V7.0A\INCLUDE\MCX.H
C:\PROGRAM FILES (X86)\MICROSOFT SDKS\WINDOWS\V7.0A\INCLUDE\IMM.H
C:\PROGRAM FILES (X86)\MICROSOFT SDKS\WINDOWS\V7.0A\INCLUDE\IME_CMODES.H
