90
90
90
90
90
85
85
85
85
180
180
180
180
155
145
145
90
90
90
90
195
195
78
78
78
78
80
80
82
82
100
100
120
120
120
120
120
120
120
120
128
128
128
130
130
136
136
150
150
180
180
80
80
120
120
160
160
60
60
60
100
120
120
120
130
150
160
180
110
120
130
130
130
94
94
80
80
80
80
80
130
130
145
155
155
110
110
110
108
108
75
84
84
89
89
89
89
89
90
90
90
90
90
95
95
97
97
107
107
116
116
120
120
120
108
108
130
130
130
130
130
72
72
72
72
70
70
80
80
80
140
140
140
138
138
65
69
80
80
109
130
130
135
135
135
135
135
136
140
140
140
140
140
140
140
140
150
150
154
160
160
160
160
160
170
107
107
77
77
93
93
102
102
94
94
96
96
105
105
88
88
93
93
96
96
89
97
97
112
112
116
116
104
104
104
104
104
104
122
122
130
130
140
140
122
122
122
122
122
122
65
65
65
65
73
73
89
89
89
89
89
89
100
100
100
80
80
80
94
128
128
80
110
120
160
100
180
100
100
100
116
116
116
116
120
120
120
160
160
160
100
135
150
