^C:\USERS\TULLY\DOCUMENTS\SCHOOL\CMPUT_466\PROJECTREVERSEMETRONOME\WDL-OL\WDL\IPLUG\BUILD-WIN\WIN32\RELEASE\HOSTS.OBJ|C:\USERS\TULLY\DOCUMENTS\SCHOOL\CMPUT_466\PROJECTREVERSEMETRONOME\WDL-OL\WDL\IPLUG\BUILD-WIN\WIN32\RELEASE\IBITMAPMONOTEXT.OBJ|C:\USERS\TULLY\DOCUMENTS\SCHOOL\CMPUT_466\PROJECTREVERSEMETRONOME\WDL-OL\WDL\IPLUG\BUILD-WIN\WIN32\RELEASE\ICONTROL.OBJ|C:\USERS\TULLY\DOCUMENTS\SCHOOL\CMPUT_466\PROJECTREVERSEMETRONOME\WDL-OL\WDL\IPLUG\BUILD-WIN\WIN32\RELEASE\IGRAPHICS.OBJ|C:\USERS\TULLY\DOCUMENTS\SCHOOL\CMPUT_466\PROJECTREVERSEMETRONOME\WDL-OL\WDL\IPLUG\BUILD-WIN\WIN32\RELEASE\IGRAPHICSWIN.OBJ|C:\USERS\TULLY\DOCUMENTS\SCHOOL\CMPUT_466\PROJECTREVERSEMETRONOME\WDL-OL\WDL\IPLUG\BUILD-WIN\WIN32\RELEASE\IPARAM.OBJ|C:\USERS\TULLY\DOCUMENTS\SCHOOL\CMPUT_466\PROJECTREVERSEMETRONOME\WDL-OL\WDL\IPLUG\BUILD-WIN\WIN32\RELEASE\IPLUGBASE.OBJ|C:\USERS\TULLY\DOCUMENTS\SCHOOL\CMPUT_466\PROJECTREVERSEMETRONOME\WDL-OL\WDL\IPLUG\BUILD-WIN\WIN32\RELEASE\IPLUGSTRUCTS.OBJ|C:\USERS\TULLY\DOCUMENTS\SCHOOL\CMPUT_466\PROJECTREVERSEMETRONOME\WDL-OL\WDL\IPLUG\BUILD-WIN\WIN32\RELEASE\IPOPUPMENU.OBJ|C:\USERS\TULLY\DOCUMENTS\SCHOOL\CMPUT_466\PROJECTREVERSEMETRONOME\WDL-OL\WDL\IPLUG\BUILD-WIN\WIN32\RELEASE\LOG.OBJ
/OUT:"build-win\Win32\Release\IPlug.lib" wininet.lib /NOLOGO /LTCG "build-win\Win32\Release\Hosts.obj"
"build-win\Win32\Release\IBitmapMonoText.obj"
"build-win\Win32\Release\IControl.obj"
"build-win\Win32\Release\IGraphics.obj"
"build-win\Win32\Release\IGraphicsWin.obj"
"build-win\Win32\Release\IParam.obj"
"build-win\Win32\Release\IPlugBase.obj"
"build-win\Win32\Release\IPlugStructs.obj"
"build-win\Win32\Release\IPopupMenu.obj"
"build-win\Win32\Release\Log.obj"
