^C:\USERS\TULLY\DOCUMENTS\VISUAL STUDIO 2010\PROJECTS\CVTEST\CVTEST\OPENCV_TEST.CPP
E:\PROGRAM FILES\MICROSOFT\VISUAL STUDIO 2010\VC\BIN\1033\CLUI.DLL
C:\WINDOWS\GLOBALIZATION\SORTING\SORTDEFAULT.NLS
C:\WINDOWS\SYSTEM32\TZRES.DLL
E:\PROGRAM FILES\MICROSOFT\VISUAL STUDIO 2010\VC\INCLUDE\IOSTREAM
E:\PROGRAM FILES\MICROSOFT\VISUAL STUDIO 2010\VC\INCLUDE\ISTREAM
E:\PROGRAM FILES\MICROSOFT\VISUAL STUDIO 2010\VC\INCLUDE\OSTREAM
E:\PROGRAM FILES\MICROSOFT\VISUAL STUDIO 2010\VC\INCLUDE\IOS
E:\PROGRAM FILES\MICROSOFT\VISUAL STUDIO 2010\VC\INCLUDE\XLOCNUM
E:\PROGRAM FILES\MICROSOFT\VISUAL STUDIO 2010\VC\INCLUDE\CLIMITS
E:\PROGRAM FILES\MICROSOFT\VISUAL STUDIO 2010\VC\INCLUDE\YVALS.H
E:\PROGRAM FILES\MICROSOFT\VISUAL STUDIO 2010\VC\INCLUDE\CRTDEFS.H
E:\PROGRAM FILES\MICROSOFT\VISUAL STUDIO 2010\VC\INCLUDE\SAL.H
E:\PROGRAM FILES\MICROSOFT\VISUAL STUDIO 2010\VC\INCLUDE\CODEANALYSIS\SOURCEANNOTATIONS.H
E:\PROGRAM FILES\MICROSOFT\VISUAL STUDIO 2010\VC\INCLUDE\VADEFS.H
E:\PROGRAM FILES\MICROSOFT\VISUAL STUDIO 2010\VC\INCLUDE\USE_ANSI.H
E:\PROGRAM FILES\MICROSOFT\VISUAL STUDIO 2010\VC\INCLUDE\LIMITS.H
E:\PROGRAM FILES\MICROSOFT\VISUAL STUDIO 2010\VC\INCLUDE\CMATH
E:\PROGRAM FILES\MICROSOFT\VISUAL STUDIO 2010\VC\INCLUDE\MATH.H
E:\PROGRAM FILES\MICROSOFT\VISUAL STUDIO 2010\VC\INCLUDE\CSTDIO
E:\PROGRAM FILES\MICROSOFT\VISUAL STUDIO 2010\VC\INCLUDE\STDIO.H
E:\PROGRAM FILES\MICROSOFT\VISUAL STUDIO 2010\VC\INCLUDE\SWPRINTF.INL
E:\PROGRAM FILES\MICROSOFT\VISUAL STUDIO 2010\VC\INCLUDE\CSTDLIB
E:\PROGRAM FILES\MICROSOFT\VISUAL STUDIO 2010\VC\INCLUDE\STDLIB.H
E:\PROGRAM FILES\MICROSOFT\VISUAL STUDIO 2010\VC\INCLUDE\STREAMBUF
E:\PROGRAM FILES\MICROSOFT\VISUAL STUDIO 2010\VC\INCLUDE\XIOSBASE
E:\PROGRAM FILES\MICROSOFT\VISUAL STUDIO 2010\VC\INCLUDE\XLOCALE
E:\PROGRAM FILES\MICROSOFT\VISUAL STUDIO 2010\VC\INCLUDE\CSTRING
E:\PROGRAM FILES\MICROSOFT\VISUAL STUDIO 2010\VC\INCLUDE\STRING.H
E:\PROGRAM FILES\MICROSOFT\VISUAL STUDIO 2010\VC\INCLUDE\STDEXCEPT
E:\PROGRAM FILES\MICROSOFT\VISUAL STUDIO 2010\VC\INCLUDE\EXCEPTION
E:\PROGRAM FILES\MICROSOFT\VISUAL STUDIO 2010\VC\INCLUDE\XSTDDEF
E:\PROGRAM FILES\MICROSOFT\VISUAL STUDIO 2010\VC\INCLUDE\CSTDDEF
E:\PROGRAM FILES\MICROSOFT\VISUAL STUDIO 2010\VC\INCLUDE\STDDEF.H
E:\PROGRAM FILES\MICROSOFT\VISUAL STUDIO 2010\VC\INCLUDE\EH.H
E:\PROGRAM FILES\MICROSOFT\VISUAL STUDIO 2010\VC\INCLUDE\MALLOC.H
E:\PROGRAM FILES\MICROSOFT\VISUAL STUDIO 2010\VC\INCLUDE\XSTRING
E:\PROGRAM FILES\MICROSOFT\VISUAL STUDIO 2010\VC\INCLUDE\XMEMORY
E:\PROGRAM FILES\MICROSOFT\VISUAL STUDIO 2010\VC\INCLUDE\NEW
E:\PROGRAM FILES\MICROSOFT\VISUAL STUDIO 2010\VC\INCLUDE\XUTILITY
E:\PROGRAM FILES\MICROSOFT\VISUAL STUDIO 2010\VC\INCLUDE\UTILITY
E:\PROGRAM FILES\MICROSOFT\VISUAL STUDIO 2010\VC\INCLUDE\IOSFWD
E:\PROGRAM FILES\MICROSOFT\VISUAL STUDIO 2010\VC\INCLUDE\CWCHAR
E:\PROGRAM FILES\MICROSOFT\VISUAL STUDIO 2010\VC\INCLUDE\WCHAR.H
E:\PROGRAM FILES\MICROSOFT\VISUAL STUDIO 2010\VC\INCLUDE\WTIME.INL
E:\PROGRAM FILES\MICROSOFT\VISUAL STUDIO 2010\VC\INCLUDE\CRTDBG.H
E:\PROGRAM FILES\MICROSOFT\VISUAL STUDIO 2010\VC\INCLUDE\TYPE_TRAITS
E:\PROGRAM FILES\MICROSOFT\VISUAL STUDIO 2010\VC\INCLUDE\LIMITS
E:\PROGRAM FILES\MICROSOFT\VISUAL STUDIO 2010\VC\INCLUDE\YMATH.H
E:\PROGRAM FILES\MICROSOFT\VISUAL STUDIO 2010\VC\INCLUDE\CFLOAT
E:\PROGRAM FILES\MICROSOFT\VISUAL STUDIO 2010\VC\INCLUDE\FLOAT.H
E:\PROGRAM FILES\MICROSOFT\VISUAL STUDIO 2010\VC\INCLUDE\CRTWRN.H
E:\PROGRAM FILES\MICROSOFT\VISUAL STUDIO 2010\VC\INCLUDE\XTR1COMMON
E:\PROGRAM FILES\MICROSOFT\VISUAL STUDIO 2010\VC\INCLUDE\XFWRAP
E:\PROGRAM FILES\MICROSOFT\VISUAL STUDIO 2010\VC\INCLUDE\XFWRAP1
E:\PROGRAM FILES\MICROSOFT\VISUAL STUDIO 2010\VC\INCLUDE\XXTYPE_TRAITS
E:\PROGRAM FILES\MICROSOFT\VISUAL STUDIO 2010\VC\INCLUDE\TYPEINFO
E:\PROGRAM FILES\MICROSOFT\VISUAL STUDIO 2010\VC\INCLUDE\XLOCINFO
E:\PROGRAM FILES\MICROSOFT\VISUAL STUDIO 2010\VC\INCLUDE\XLOCINFO.H
E:\PROGRAM FILES\MICROSOFT\VISUAL STUDIO 2010\VC\INCLUDE\CTYPE.H
E:\PROGRAM FILES\MICROSOFT\VISUAL STUDIO 2010\VC\INCLUDE\LOCALE.H
E:\PROGRAM FILES\MICROSOFT\VISUAL STUDIO 2010\VC\INCLUDE\XDEBUG
E:\PROGRAM FILES\MICROSOFT\VISUAL STUDIO 2010\VC\INCLUDE\SYSTEM_ERROR
E:\PROGRAM FILES\MICROSOFT\VISUAL STUDIO 2010\VC\INCLUDE\CERRNO
E:\PROGRAM FILES\MICROSOFT\VISUAL STUDIO 2010\VC\INCLUDE\ERRNO.H
E:\PROGRAM FILES\MICROSOFT\VISUAL STUDIO 2010\VC\INCLUDE\SHARE.H
E:\PROGRAM FILES\MICROSOFT\VISUAL STUDIO 2010\VC\INCLUDE\STRING
E:\PROGRAM FILES\MICROSOFT\VISUAL STUDIO 2010\VC\INCLUDE\IOMANIP
E:\PROGRAM FILES\MICROSOFT\VISUAL STUDIO 2010\VC\INCLUDE\XLOCMON
E:\PROGRAM FILES\MICROSOFT\VISUAL STUDIO 2010\VC\INCLUDE\XLOCTIME
E:\PROGRAM FILES\MICROSOFT\VISUAL STUDIO 2010\VC\INCLUDE\CTIME
E:\PROGRAM FILES\MICROSOFT\VISUAL STUDIO 2010\VC\INCLUDE\TIME.H
E:\PROGRAM FILES\MICROSOFT\VISUAL STUDIO 2010\VC\INCLUDE\TIME.INL
E:\PROGRAM FILES\MICROSOFT\VISUAL STUDIO 2010\VC\INCLUDE\SSTREAM
C:\LIBRARIES\OPENCV\BUILD\INCLUDE\OPENCV2\IMGPROC\IMGPROC.HPP
C:\LIBRARIES\OPENCV\BUILD\INCLUDE\OPENCV2\CORE\CORE.HPP
C:\LIBRARIES\OPENCV\BUILD\INCLUDE\OPENCV2\CORE\TYPES_C.H
E:\PROGRAM FILES\MICROSOFT\VISUAL STUDIO 2010\VC\INCLUDE\ASSERT.H
C:\LIBRARIES\OPENCV\BUILD\INCLUDE\OPENCV2\CORE\VERSION.HPP
E:\PROGRAM FILES\MICROSOFT\VISUAL STUDIO 2010\VC\INCLUDE\ALGORITHM
E:\PROGRAM FILES\MICROSOFT\VISUAL STUDIO 2010\VC\INCLUDE\MEMORY
E:\PROGRAM FILES\MICROSOFT\VISUAL STUDIO 2010\VC\INCLUDE\INTRIN.H
E:\PROGRAM FILES\MICROSOFT\VISUAL STUDIO 2010\VC\INCLUDE\SETJMP.H
E:\PROGRAM FILES\MICROSOFT\VISUAL STUDIO 2010\VC\INCLUDE\IMMINTRIN.H
E:\PROGRAM FILES\MICROSOFT\VISUAL STUDIO 2010\VC\INCLUDE\WMMINTRIN.H
E:\PROGRAM FILES\MICROSOFT\VISUAL STUDIO 2010\VC\INCLUDE\NMMINTRIN.H
E:\PROGRAM FILES\MICROSOFT\VISUAL STUDIO 2010\VC\INCLUDE\SMMINTRIN.H
E:\PROGRAM FILES\MICROSOFT\VISUAL STUDIO 2010\VC\INCLUDE\TMMINTRIN.H
E:\PROGRAM FILES\MICROSOFT\VISUAL STUDIO 2010\VC\INCLUDE\PMMINTRIN.H
E:\PROGRAM FILES\MICROSOFT\VISUAL STUDIO 2010\VC\INCLUDE\EMMINTRIN.H
E:\PROGRAM FILES\MICROSOFT\VISUAL STUDIO 2010\VC\INCLUDE\XMMINTRIN.H
E:\PROGRAM FILES\MICROSOFT\VISUAL STUDIO 2010\VC\INCLUDE\MMINTRIN.H
E:\PROGRAM FILES\MICROSOFT\VISUAL STUDIO 2010\VC\INCLUDE\MM3DNOW.H
E:\PROGRAM FILES\MICROSOFT\VISUAL STUDIO 2010\VC\INCLUDE\XXSHARED
E:\PROGRAM FILES\MICROSOFT\VISUAL STUDIO 2010\VC\INCLUDE\COMPLEX
E:\PROGRAM FILES\MICROSOFT\VISUAL STUDIO 2010\VC\INCLUDE\CCOMPLEX
E:\PROGRAM FILES\MICROSOFT\VISUAL STUDIO 2010\VC\INCLUDE\XCOMPLEX
E:\PROGRAM FILES\MICROSOFT\VISUAL STUDIO 2010\VC\INCLUDE\MAP
E:\PROGRAM FILES\MICROSOFT\VISUAL STUDIO 2010\VC\INCLUDE\XTREE
E:\PROGRAM FILES\MICROSOFT\VISUAL STUDIO 2010\VC\INCLUDE\XFUNCTIONAL
E:\PROGRAM FILES\MICROSOFT\VISUAL STUDIO 2010\VC\INCLUDE\VECTOR
C:\LIBRARIES\OPENCV\BUILD\INCLUDE\OPENCV2\CORE\OPERATIONS.HPP
C:\LIBRARIES\OPENCV\BUILD\INCLUDE\OPENCV2\CORE\MAT.HPP
C:\LIBRARIES\OPENCV\BUILD\INCLUDE\OPENCV2\IMGPROC\TYPES_C.H
C:\LIBRARIES\OPENCV\BUILD\INCLUDE\OPENCV2\CORE\CORE_C.H
C:\LIBRARIES\OPENCV\BUILD\INCLUDE\OPENCV2\HIGHGUI\HIGHGUI.HPP
C:\LIBRARIES\OPENCV\BUILD\INCLUDE\OPENCV2\HIGHGUI\HIGHGUI_C.H
C:\LIBRARIES\OPENCV\BUILD\INCLUDE\OPENCV2\OPENCV.HPP
C:\LIBRARIES\OPENCV\BUILD\INCLUDE\OPENCV2\FLANN\MINIFLANN.HPP
C:\LIBRARIES\OPENCV\BUILD\INCLUDE\OPENCV2\FLANN\DEFINES.H
C:\LIBRARIES\OPENCV\BUILD\INCLUDE\OPENCV2\FLANN\CONFIG.H
C:\LIBRARIES\OPENCV\BUILD\INCLUDE\OPENCV2\IMGPROC\IMGPROC_C.H
C:\LIBRARIES\OPENCV\BUILD\INCLUDE\OPENCV2\PHOTO\PHOTO.HPP
C:\LIBRARIES\OPENCV\BUILD\INCLUDE\OPENCV2\PHOTO\PHOTO_C.H
C:\LIBRARIES\OPENCV\BUILD\INCLUDE\OPENCV2\VIDEO\VIDEO.HPP
C:\LIBRARIES\OPENCV\BUILD\INCLUDE\OPENCV2\VIDEO\TRACKING.HPP
C:\LIBRARIES\OPENCV\BUILD\INCLUDE\OPENCV2\VIDEO\BACKGROUND_SEGM.HPP
E:\PROGRAM FILES\MICROSOFT\VISUAL STUDIO 2010\VC\INCLUDE\LIST
C:\LIBRARIES\OPENCV\BUILD\INCLUDE\OPENCV2\FEATURES2D\FEATURES2D.HPP
C:\LIBRARIES\OPENCV\BUILD\INCLUDE\OPENCV2\OBJDETECT\OBJDETECT.HPP
E:\PROGRAM FILES\MICROSOFT\VISUAL STUDIO 2010\VC\INCLUDE\DEQUE
C:\LIBRARIES\OPENCV\BUILD\INCLUDE\OPENCV2\CALIB3D\CALIB3D.HPP
C:\LIBRARIES\OPENCV\BUILD\INCLUDE\OPENCV2\ML\ML.HPP
C:\LIBRARIES\OPENCV\BUILD\INCLUDE\OPENCV2\CONTRIB\CONTRIB.HPP
C:\LIBRARIES\OPENCV\BUILD\INCLUDE\OPENCV2\CONTRIB\RETINA.HPP
E:\PROGRAM FILES\MICROSOFT\VISUAL STUDIO 2010\VC\INCLUDE\VALARRAY
C:\LIBRARIES\OPENCV\BUILD\INCLUDE\OPENCV2\CONTRIB\OPENFABMAP.HPP
E:\PROGRAM FILES\MICROSOFT\VISUAL STUDIO 2010\VC\INCLUDE\SET
