^C:\USERS\TULLY\DOCUMENTS\VISUAL STUDIO 2010\PROJECTS\CVTEST\CVTEST\DEBUG\OPENCV_TEST.OBJ
C:\LIBRARIES\OPENCV\BUILD\X86\VC10\LIB\OPENCV_CORE247D.LIB
C:\LIBRARIES\OPENCV\BUILD\X86\VC10\LIB\OPENCV_IMGPROC247D.LIB
C:\LIBRARIES\OPENCV\BUILD\X86\VC10\LIB\OPENCV_HIGHGUI247D.LIB
C:\LIBRARIES\OPENCV\BUILD\X86\VC10\LIB\OPENCV_ML247D.LIB
C:\LIBRARIES\OPENCV\BUILD\X86\VC10\LIB\OPENCV_VIDEO247D.LIB
C:\LIBRARIES\OPENCV\BUILD\X86\VC10\LIB\OPENCV_FEATURES2D247D.LIB
C:\LIBRARIES\OPENCV\BUILD\X86\VC10\LIB\OPENCV_CALIB3D247D.LIB
C:\LIBRARIES\OPENCV\BUILD\X86\VC10\LIB\OPENCV_OBJDETECT247D.LIB
C:\LIBRARIES\OPENCV\BUILD\X86\VC10\LIB\OPENCV_CONTRIB247D.LIB
C:\LIBRARIES\OPENCV\BUILD\X86\VC10\LIB\OPENCV_LEGACY247D.LIB
C:\LIBRARIES\OPENCV\BUILD\X86\VC10\LIB\OPENCV_FLANN247D.LIB
C:\PROGRAM FILES (X86)\MICROSOFT SDKS\WINDOWS\V7.0A\LIB\KERNEL32.LIB
C:\PROGRAM FILES (X86)\MICROSOFT SDKS\WINDOWS\V7.0A\LIB\USER32.LIB
C:\PROGRAM FILES (X86)\MICROSOFT SDKS\WINDOWS\V7.0A\LIB\GDI32.LIB
C:\PROGRAM FILES (X86)\MICROSOFT SDKS\WINDOWS\V7.0A\LIB\WINSPOOL.LIB
C:\PROGRAM FILES (X86)\MICROSOFT SDKS\WINDOWS\V7.0A\LIB\COMDLG32.LIB
C:\PROGRAM FILES (X86)\MICROSOFT SDKS\WINDOWS\V7.0A\LIB\ADVAPI32.LIB
C:\PROGRAM FILES (X86)\MICROSOFT SDKS\WINDOWS\V7.0A\LIB\SHELL32.LIB
C:\PROGRAM FILES (X86)\MICROSOFT SDKS\WINDOWS\V7.0A\LIB\OLE32.LIB
C:\PROGRAM FILES (X86)\MICROSOFT SDKS\WINDOWS\V7.0A\LIB\OLEAUT32.LIB
C:\PROGRAM FILES (X86)\MICROSOFT SDKS\WINDOWS\V7.0A\LIB\UUID.LIB
C:\PROGRAM FILES (X86)\MICROSOFT SDKS\WINDOWS\V7.0A\LIB\ODBC32.LIB
C:\PROGRAM FILES (X86)\MICROSOFT SDKS\WINDOWS\V7.0A\LIB\ODBCCP32.LIB
C:\USERS\TULLY\DOCUMENTS\VISUAL STUDIO 2010\PROJECTS\CVTEST\CVTEST\DEBUG\OPENCV_TEST.OBJ
C:\WINDOWS\SYSTEM32\TZRES.DLL
C:\USERS\TULLY\DOCUMENTS\VISUAL STUDIO 2010\PROJECTS\CVTEST\DEBUG\CVTEST.ILK
C:\USERS\TULLY\DOCUMENTS\VISUAL STUDIO 2010\PROJECTS\CVTEST\DEBUG\CVTEST.EXE
E:\PROGRAM FILES\MICROSOFT\VISUAL STUDIO 2010\VC\BIN\1033\LINKUI.DLL
C:\WINDOWS\GLOBALIZATION\SORTING\SORTDEFAULT.NLS
E:\PROGRAM FILES\MICROSOFT\VISUAL STUDIO 2010\VC\LIB\MSVCPRTD.LIB
E:\PROGRAM FILES\MICROSOFT\VISUAL STUDIO 2010\VC\LIB\MSVCRTD.LIB
E:\PROGRAM FILES\MICROSOFT\VISUAL STUDIO 2010\VC\LIB\OLDNAMES.LIB
