^C:\USERS\TULLY\DOCUMENTS\VISUAL STUDIO 2010\PROJECTS\CVTEST\CVTEST\DEBUG\OPENCV_TEST.OBJ
C:\USERS\TULLY\DOCUMENTS\VISUAL STUDIO 2010\PROJECTS\CVTEST\DEBUG\CVTEST.ILK
C:\USERS\TULLY\DOCUMENTS\VISUAL STUDIO 2010\PROJECTS\CVTEST\DEBUG\CVTEST.EXE
C:\USERS\TULLY\DOCUMENTS\VISUAL STUDIO 2010\PROJECTS\CVTEST\CVTEST\DEBUG\CVTEST.EXE.INTERMEDIATE.MANIFEST
C:\USERS\TULLY\DOCUMENTS\VISUAL STUDIO 2010\PROJECTS\CVTEST\DEBUG\CVTEST.PDB
