^C:\USERS\TULLY\DOCUMENTS\SCHOOL\CMPUT_466\PROJECTREVERSEMETRONOME\WDL-OL\VST3_SDK\BASE\WIN\X64\DEBUG\BROWSE\BASEIIDS.SBR|C:\USERS\TULLY\DOCUMENTS\SCHOOL\CMPUT_466\PROJECTREVERSEMETRONOME\WDL-OL\VST3_SDK\BASE\WIN\X64\DEBUG\BROWSE\CLASSFACTORY.SBR|C:\USERS\TULLY\DOCUMENTS\SCHOOL\CMPUT_466\PROJECTREVERSEMETRONOME\WDL-OL\VST3_SDK\BASE\WIN\X64\DEBUG\BROWSE\CONSTSTRINGTABLE.SBR|C:\USERS\TULLY\DOCUMENTS\SCHOOL\CMPUT_466\PROJECTREVERSEMETRONOME\WDL-OL\VST3_SDK\BASE\WIN\X64\DEBUG\BROWSE\FATOMIC.SBR|C:\USERS\TULLY\DOCUMENTS\SCHOOL\CMPUT_466\PROJECTREVERSEMETRONOME\WDL-OL\VST3_SDK\BASE\WIN\X64\DEBUG\BROWSE\FBITSET.SBR|C:\USERS\TULLY\DOCUMENTS\SCHOOL\CMPUT_466\PROJECTREVERSEMETRONOME\WDL-OL\VST3_SDK\BASE\WIN\X64\DEBUG\BROWSE\FBUFFER.SBR|C:\USERS\TULLY\DOCUMENTS\SCHOOL\CMPUT_466\PROJECTREVERSEMETRONOME\WDL-OL\VST3_SDK\BASE\WIN\X64\DEBUG\BROWSE\FCPU.SBR|C:\USERS\TULLY\DOCUMENTS\SCHOOL\CMPUT_466\PROJECTREVERSEMETRONOME\WDL-OL\VST3_SDK\BASE\WIN\X64\DEBUG\BROWSE\FDEBUG.SBR|C:\USERS\TULLY\DOCUMENTS\SCHOOL\CMPUT_466\PROJECTREVERSEMETRONOME\WDL-OL\VST3_SDK\BASE\WIN\X64\DEBUG\BROWSE\FDYNLIB.SBR|C:\USERS\TULLY\DOCUMENTS\SCHOOL\CMPUT_466\PROJECTREVERSEMETRONOME\WDL-OL\VST3_SDK\BASE\WIN\X64\DEBUG\BROWSE\FINITIALIZER.SBR|C:\USERS\TULLY\DOCUMENTS\SCHOOL\CMPUT_466\PROJECTREVERSEMETRONOME\WDL-OL\VST3_SDK\BASE\WIN\X64\DEBUG\BROWSE\FMEMORY.SBR|C:\USERS\TULLY\DOCUMENTS\SCHOOL\CMPUT_466\PROJECTREVERSEMETRONOME\WDL-OL\VST3_SDK\BASE\WIN\X64\DEBUG\BROWSE\FOBJECT.SBR|C:\USERS\TULLY\DOCUMENTS\SCHOOL\CMPUT_466\PROJECTREVERSEMETRONOME\WDL-OL\VST3_SDK\BASE\WIN\X64\DEBUG\BROWSE\FPOINT.SBR|C:\USERS\TULLY\DOCUMENTS\SCHOOL\CMPUT_466\PROJECTREVERSEMETRONOME\WDL-OL\VST3_SDK\BASE\WIN\X64\DEBUG\BROWSE\FRECT.SBR|C:\USERS\TULLY\DOCUMENTS\SCHOOL\CMPUT_466\PROJECTREVERSEMETRONOME\WDL-OL\VST3_SDK\BASE\WIN\X64\DEBUG\BROWSE\FSTREAMER.SBR|C:\USERS\TULLY\DOCUMENTS\SCHOOL\CMPUT_466\PROJECTREVERSEMETRONOME\WDL-OL\VST3_SDK\BASE\WIN\X64\DEBUG\BROWSE\FSTRING.SBR|C:\USERS\TULLY\DOCUMENTS\SCHOOL\CMPUT_466\PROJECTREVERSEMETRONOME\WDL-OL\VST3_SDK\BASE\WIN\X64\DEBUG\BROWSE\FTHREAD.SBR|C:\USERS\TULLY\DOCUMENTS\SCHOOL\CMPUT_466\PROJECTREVERSEMETRONOME\WDL-OL\VST3_SDK\BASE\WIN\X64\DEBUG\BROWSE\FUNKNOWN.SBR|C:\USERS\TULLY\DOCUMENTS\SCHOOL\CMPUT_466\PROJECTREVERSEMETRONOME\WDL-OL\VST3_SDK\BASE\WIN\X64\DEBUG\BROWSE\TIMER.SBR|C:\USERS\TULLY\DOCUMENTS\SCHOOL\CMPUT_466\PROJECTREVERSEMETRONOME\WDL-OL\VST3_SDK\BASE\WIN\X64\DEBUG\BROWSE\UPDATEHANDLER.SBR
C:\USERS\TULLY\DOCUMENTS\SCHOOL\CMPUT_466\PROJECTREVERSEMETRONOME\WDL-OL\VST3_SDK\BASE\WIN\X64\DEBUG\BASE.BSC
^C:\USERS\PAUL\DOCUMENTS\VISUAL STUDIO 2010\PROJECTREVERSEMETRONOME\WDL-OL\VST3_SDK\BASE\WIN\X64\DEBUG\BROWSE\BASEIIDS.SBR|C:\USERS\PAUL\DOCUMENTS\VISUAL STUDIO 2010\PROJECTREVERSEMETRONOME\WDL-OL\VST3_SDK\BASE\WIN\X64\DEBUG\BROWSE\CLASSFACTORY.SBR|C:\USERS\PAUL\DOCUMENTS\VISUAL STUDIO 2010\PROJECTREVERSEMETRONOME\WDL-OL\VST3_SDK\BASE\WIN\X64\DEBUG\BROWSE\CONSTSTRINGTABLE.SBR|C:\USERS\PAUL\DOCUMENTS\VISUAL STUDIO 2010\PROJECTREVERSEMETRONOME\WDL-OL\VST3_SDK\BASE\WIN\X64\DEBUG\BROWSE\FATOMIC.SBR|C:\USERS\PAUL\DOCUMENTS\VISUAL STUDIO 2010\PROJECTREVERSEMETRONOME\WDL-OL\VST3_SDK\BASE\WIN\X64\DEBUG\BROWSE\FBITSET.SBR|C:\USERS\PAUL\DOCUMENTS\VISUAL STUDIO 2010\PROJECTREVERSEMETRONOME\WDL-OL\VST3_SDK\BASE\WIN\X64\DEBUG\BROWSE\FBUFFER.SBR|C:\USERS\PAUL\DOCUMENTS\VISUAL STUDIO 2010\PROJECTREVERSEMETRONOME\WDL-OL\VST3_SDK\BASE\WIN\X64\DEBUG\BROWSE\FCPU.SBR|C:\USERS\PAUL\DOCUMENTS\VISUAL STUDIO 2010\PROJECTREVERSEMETRONOME\WDL-OL\VST3_SDK\BASE\WIN\X64\DEBUG\BROWSE\FDEBUG.SBR|C:\USERS\PAUL\DOCUMENTS\VISUAL STUDIO 2010\PROJECTREVERSEMETRONOME\WDL-OL\VST3_SDK\BASE\WIN\X64\DEBUG\BROWSE\FDYNLIB.SBR|C:\USERS\PAUL\DOCUMENTS\VISUAL STUDIO 2010\PROJECTREVERSEMETRONOME\WDL-OL\VST3_SDK\BASE\WIN\X64\DEBUG\BROWSE\FINITIALIZER.SBR|C:\USERS\PAUL\DOCUMENTS\VISUAL STUDIO 2010\PROJECTREVERSEMETRONOME\WDL-OL\VST3_SDK\BASE\WIN\X64\DEBUG\BROWSE\FMEMORY.SBR|C:\USERS\PAUL\DOCUMENTS\VISUAL STUDIO 2010\PROJECTREVERSEMETRONOME\WDL-OL\VST3_SDK\BASE\WIN\X64\DEBUG\BROWSE\FOBJECT.SBR|C:\USERS\PAUL\DOCUMENTS\VISUAL STUDIO 2010\PROJECTREVERSEMETRONOME\WDL-OL\VST3_SDK\BASE\WIN\X64\DEBUG\BROWSE\FPOINT.SBR|C:\USERS\PAUL\DOCUMENTS\VISUAL STUDIO 2010\PROJECTREVERSEMETRONOME\WDL-OL\VST3_SDK\BASE\WIN\X64\DEBUG\BROWSE\FRECT.SBR|C:\USERS\PAUL\DOCUMENTS\VISUAL STUDIO 2010\PROJECTREVERSEMETRONOME\WDL-OL\VST3_SDK\BASE\WIN\X64\DEBUG\BROWSE\FSTREAMER.SBR|C:\USERS\PAUL\DOCUMENTS\VISUAL STUDIO 2010\PROJECTREVERSEMETRONOME\WDL-OL\VST3_SDK\BASE\WIN\X64\DEBUG\BROWSE\FSTRING.SBR|C:\USERS\PAUL\DOCUMENTS\VISUAL STUDIO 2010\PROJECTREVERSEMETRONOME\WDL-OL\VST3_SDK\BASE\WIN\X64\DEBUG\BROWSE\FTHREAD.SBR|C:\USERS\PAUL\DOCUMENTS\VISUAL STUDIO 2010\PROJECTREVERSEMETRONOME\WDL-OL\VST3_SDK\BASE\WIN\X64\DEBUG\BROWSE\FUNKNOWN.SBR|C:\USERS\PAUL\DOCUMENTS\VISUAL STUDIO 2010\PROJECTREVERSEMETRONOME\WDL-OL\VST3_SDK\BASE\WIN\X64\DEBUG\BROWSE\TIMER.SBR|C:\USERS\PAUL\DOCUMENTS\VISUAL STUDIO 2010\PROJECTREVERSEMETRONOME\WDL-OL\VST3_SDK\BASE\WIN\X64\DEBUG\BROWSE\UPDATEHANDLER.SBR
C:\USERS\PAUL\DOCUMENTS\VISUAL STUDIO 2010\PROJECTREVERSEMETRONOME\WDL-OL\VST3_SDK\BASE\WIN\X64\DEBUG\BASE.BSC
^D:\CMPUT\CMPUT_466\PROJECTREVERSEMETRONOME\WDL-OL\VST3_SDK\BASE\WIN\X64\DEBUG\BROWSE\BASEIIDS.SBR|D:\CMPUT\CMPUT_466\PROJECTREVERSEMETRONOME\WDL-OL\VST3_SDK\BASE\WIN\X64\DEBUG\BROWSE\CLASSFACTORY.SBR|D:\CMPUT\CMPUT_466\PROJECTREVERSEMETRONOME\WDL-OL\VST3_SDK\BASE\WIN\X64\DEBUG\BROWSE\CONSTSTRINGTABLE.SBR|D:\CMPUT\CMPUT_466\PROJECTREVERSEMETRONOME\WDL-OL\VST3_SDK\BASE\WIN\X64\DEBUG\BROWSE\FATOMIC.SBR|D:\CMPUT\CMPUT_466\PROJECTREVERSEMETRONOME\WDL-OL\VST3_SDK\BASE\WIN\X64\DEBUG\BROWSE\FBITSET.SBR|D:\CMPUT\CMPUT_466\PROJECTREVERSEMETRONOME\WDL-OL\VST3_SDK\BASE\WIN\X64\DEBUG\BROWSE\FBUFFER.SBR|D:\CMPUT\CMPUT_466\PROJECTREVERSEMETRONOME\WDL-OL\VST3_SDK\BASE\WIN\X64\DEBUG\BROWSE\FCPU.SBR|D:\CMPUT\CMPUT_466\PROJECTREVERSEMETRONOME\WDL-OL\VST3_SDK\BASE\WIN\X64\DEBUG\BROWSE\FDEBUG.SBR|D:\CMPUT\CMPUT_466\PROJECTREVERSEMETRONOME\WDL-OL\VST3_SDK\BASE\WIN\X64\DEBUG\BROWSE\FDYNLIB.SBR|D:\CMPUT\CMPUT_466\PROJECTREVERSEMETRONOME\WDL-OL\VST3_SDK\BASE\WIN\X64\DEBUG\BROWSE\FINITIALIZER.SBR|D:\CMPUT\CMPUT_466\PROJECTREVERSEMETRONOME\WDL-OL\VST3_SDK\BASE\WIN\X64\DEBUG\BROWSE\FMEMORY.SBR|D:\CMPUT\CMPUT_466\PROJECTREVERSEMETRONOME\WDL-OL\VST3_SDK\BASE\WIN\X64\DEBUG\BROWSE\FOBJECT.SBR|D:\CMPUT\CMPUT_466\PROJECTREVERSEMETRONOME\WDL-OL\VST3_SDK\BASE\WIN\X64\DEBUG\BROWSE\FPOINT.SBR|D:\CMPUT\CMPUT_466\PROJECTREVERSEMETRONOME\WDL-OL\VST3_SDK\BASE\WIN\X64\DEBUG\BROWSE\FRECT.SBR|D:\CMPUT\CMPUT_466\PROJECTREVERSEMETRONOME\WDL-OL\VST3_SDK\BASE\WIN\X64\DEBUG\BROWSE\FSTREAMER.SBR|D:\CMPUT\CMPUT_466\PROJECTREVERSEMETRONOME\WDL-OL\VST3_SDK\BASE\WIN\X64\DEBUG\BROWSE\FSTRING.SBR|D:\CMPUT\CMPUT_466\PROJECTREVERSEMETRONOME\WDL-OL\VST3_SDK\BASE\WIN\X64\DEBUG\BROWSE\FTHREAD.SBR|D:\CMPUT\CMPUT_466\PROJECTREVERSEMETRONOME\WDL-OL\VST3_SDK\BASE\WIN\X64\DEBUG\BROWSE\FUNKNOWN.SBR|D:\CMPUT\CMPUT_466\PROJECTREVERSEMETRONOME\WDL-OL\VST3_SDK\BASE\WIN\X64\DEBUG\BROWSE\TIMER.SBR|D:\CMPUT\CMPUT_466\PROJECTREVERSEMETRONOME\WDL-OL\VST3_SDK\BASE\WIN\X64\DEBUG\BROWSE\UPDATEHANDLER.SBR
D:\CMPUT\CMPUT_466\PROJECTREVERSEMETRONOME\WDL-OL\VST3_SDK\BASE\WIN\X64\DEBUG\BASE.BSC
