^C:\USERS\TULLY\DOCUMENTS\SCHOOL\CMPUT_466\PROJECTREVERSEMETRONOME\WDL-OL\WDL\LIBPNG\PNG.C
/c /I../zlib /Zi /nologo /W3 /WX- /MP /O2 /Oi /Oy- /GL /D WIN32 /D _LIB /D PNG_USE_PNGVCRD /D PNG_LIBPNG_SPECIALBUILD /D __MMX__ /D PNG_HAVE_MMX_COMBINE_ROW /D PNG_HAVE_MMX_READ_INTERLACE /D PNG_HAVE_MMX_READ_FILTER_ROW /D _CRT_SECURE_NO_WARNINGS /D _MBCS /Gm- /EHsc /MT /GS /Gy /arch:SSE2 /fp:precise /Zc:wchar_t /Zc:forScope /Fo"build-win\Win32\Release\\" /Fd"build-win\Win32\Release\vc100.pdb" /Gd /TC /wd4996 /wd4250 /wd4018 /wd4267 /analyze- /errorReport:prompt C:\USERS\TULLY\DOCUMENTS\SCHOOL\CMPUT_466\PROJECTREVERSEMETRONOME\WDL-OL\WDL\LIBPNG\PNG.C
^C:\USERS\TULLY\DOCUMENTS\SCHOOL\CMPUT_466\PROJECTREVERSEMETRONOME\WDL-OL\WDL\LIBPNG\PNGERROR.C
/c /I../zlib /Zi /nologo /W3 /WX- /MP /O2 /Oi /Oy- /GL /D WIN32 /D _LIB /D PNG_USE_PNGVCRD /D PNG_LIBPNG_SPECIALBUILD /D __MMX__ /D PNG_HAVE_MMX_COMBINE_ROW /D PNG_HAVE_MMX_READ_INTERLACE /D PNG_HAVE_MMX_READ_FILTER_ROW /D _CRT_SECURE_NO_WARNINGS /D _MBCS /Gm- /EHsc /MT /GS /Gy /arch:SSE2 /fp:precise /Zc:wchar_t /Zc:forScope /Fo"build-win\Win32\Release\\" /Fd"build-win\Win32\Release\vc100.pdb" /Gd /TC /wd4996 /wd4250 /wd4018 /wd4267 /analyze- /errorReport:prompt C:\USERS\TULLY\DOCUMENTS\SCHOOL\CMPUT_466\PROJECTREVERSEMETRONOME\WDL-OL\WDL\LIBPNG\PNGERROR.C
^C:\USERS\TULLY\DOCUMENTS\SCHOOL\CMPUT_466\PROJECTREVERSEMETRONOME\WDL-OL\WDL\LIBPNG\PNGGET.C
/c /I../zlib /Zi /nologo /W3 /WX- /MP /O2 /Oi /Oy- /GL /D WIN32 /D _LIB /D PNG_USE_PNGVCRD /D PNG_LIBPNG_SPECIALBUILD /D __MMX__ /D PNG_HAVE_MMX_COMBINE_ROW /D PNG_HAVE_MMX_READ_INTERLACE /D PNG_HAVE_MMX_READ_FILTER_ROW /D _CRT_SECURE_NO_WARNINGS /D _MBCS /Gm- /EHsc /MT /GS /Gy /arch:SSE2 /fp:precise /Zc:wchar_t /Zc:forScope /Fo"build-win\Win32\Release\\" /Fd"build-win\Win32\Release\vc100.pdb" /Gd /TC /wd4996 /wd4250 /wd4018 /wd4267 /analyze- /errorReport:prompt C:\USERS\TULLY\DOCUMENTS\SCHOOL\CMPUT_466\PROJECTREVERSEMETRONOME\WDL-OL\WDL\LIBPNG\PNGGET.C
^C:\USERS\TULLY\DOCUMENTS\SCHOOL\CMPUT_466\PROJECTREVERSEMETRONOME\WDL-OL\WDL\LIBPNG\PNGMEM.C
/c /I../zlib /Zi /nologo /W3 /WX- /MP /O2 /Oi /Oy- /GL /D WIN32 /D _LIB /D PNG_USE_PNGVCRD /D PNG_LIBPNG_SPECIALBUILD /D __MMX__ /D PNG_HAVE_MMX_COMBINE_ROW /D PNG_HAVE_MMX_READ_INTERLACE /D PNG_HAVE_MMX_READ_FILTER_ROW /D _CRT_SECURE_NO_WARNINGS /D _MBCS /Gm- /EHsc /MT /GS /Gy /arch:SSE2 /fp:precise /Zc:wchar_t /Zc:forScope /Fo"build-win\Win32\Release\\" /Fd"build-win\Win32\Release\vc100.pdb" /Gd /TC /wd4996 /wd4250 /wd4018 /wd4267 /analyze- /errorReport:prompt C:\USERS\TULLY\DOCUMENTS\SCHOOL\CMPUT_466\PROJECTREVERSEMETRONOME\WDL-OL\WDL\LIBPNG\PNGMEM.C
^C:\USERS\TULLY\DOCUMENTS\SCHOOL\CMPUT_466\PROJECTREVERSEMETRONOME\WDL-OL\WDL\LIBPNG\PNGPREAD.C
/c /I../zlib /Zi /nologo /W3 /WX- /MP /O2 /Oi /Oy- /GL /D WIN32 /D _LIB /D PNG_USE_PNGVCRD /D PNG_LIBPNG_SPECIALBUILD /D __MMX__ /D PNG_HAVE_MMX_COMBINE_ROW /D PNG_HAVE_MMX_READ_INTERLACE /D PNG_HAVE_MMX_READ_FILTER_ROW /D _CRT_SECURE_NO_WARNINGS /D _MBCS /Gm- /EHsc /MT /GS /Gy /arch:SSE2 /fp:precise /Zc:wchar_t /Zc:forScope /Fo"build-win\Win32\Release\\" /Fd"build-win\Win32\Release\vc100.pdb" /Gd /TC /wd4996 /wd4250 /wd4018 /wd4267 /analyze- /errorReport:prompt C:\USERS\TULLY\DOCUMENTS\SCHOOL\CMPUT_466\PROJECTREVERSEMETRONOME\WDL-OL\WDL\LIBPNG\PNGPREAD.C
^C:\USERS\TULLY\DOCUMENTS\SCHOOL\CMPUT_466\PROJECTREVERSEMETRONOME\WDL-OL\WDL\LIBPNG\PNGREAD.C
/c /I../zlib /Zi /nologo /W3 /WX- /MP /O2 /Oi /Oy- /GL /D WIN32 /D _LIB /D PNG_USE_PNGVCRD /D PNG_LIBPNG_SPECIALBUILD /D __MMX__ /D PNG_HAVE_MMX_COMBINE_ROW /D PNG_HAVE_MMX_READ_INTERLACE /D PNG_HAVE_MMX_READ_FILTER_ROW /D _CRT_SECURE_NO_WARNINGS /D _MBCS /Gm- /EHsc /MT /GS /Gy /arch:SSE2 /fp:precise /Zc:wchar_t /Zc:forScope /Fo"build-win\Win32\Release\\" /Fd"build-win\Win32\Release\vc100.pdb" /Gd /TC /wd4996 /wd4250 /wd4018 /wd4267 /analyze- /errorReport:prompt C:\USERS\TULLY\DOCUMENTS\SCHOOL\CMPUT_466\PROJECTREVERSEMETRONOME\WDL-OL\WDL\LIBPNG\PNGREAD.C
^C:\USERS\TULLY\DOCUMENTS\SCHOOL\CMPUT_466\PROJECTREVERSEMETRONOME\WDL-OL\WDL\LIBPNG\PNGRIO.C
/c /I../zlib /Zi /nologo /W3 /WX- /MP /O2 /Oi /Oy- /GL /D WIN32 /D _LIB /D PNG_USE_PNGVCRD /D PNG_LIBPNG_SPECIALBUILD /D __MMX__ /D PNG_HAVE_MMX_COMBINE_ROW /D PNG_HAVE_MMX_READ_INTERLACE /D PNG_HAVE_MMX_READ_FILTER_ROW /D _CRT_SECURE_NO_WARNINGS /D _MBCS /Gm- /EHsc /MT /GS /Gy /arch:SSE2 /fp:precise /Zc:wchar_t /Zc:forScope /Fo"build-win\Win32\Release\\" /Fd"build-win\Win32\Release\vc100.pdb" /Gd /TC /wd4996 /wd4250 /wd4018 /wd4267 /analyze- /errorReport:prompt C:\USERS\TULLY\DOCUMENTS\SCHOOL\CMPUT_466\PROJECTREVERSEMETRONOME\WDL-OL\WDL\LIBPNG\PNGRIO.C
^C:\USERS\TULLY\DOCUMENTS\SCHOOL\CMPUT_466\PROJECTREVERSEMETRONOME\WDL-OL\WDL\LIBPNG\PNGRTRAN.C
/c /I../zlib /Zi /nologo /W3 /WX- /MP /O2 /Oi /Oy- /GL /D WIN32 /D _LIB /D PNG_USE_PNGVCRD /D PNG_LIBPNG_SPECIALBUILD /D __MMX__ /D PNG_HAVE_MMX_COMBINE_ROW /D PNG_HAVE_MMX_READ_INTERLACE /D PNG_HAVE_MMX_READ_FILTER_ROW /D _CRT_SECURE_NO_WARNINGS /D _MBCS /Gm- /EHsc /MT /GS /Gy /arch:SSE2 /fp:precise /Zc:wchar_t /Zc:forScope /Fo"build-win\Win32\Release\\" /Fd"build-win\Win32\Release\vc100.pdb" /Gd /TC /wd4996 /wd4250 /wd4018 /wd4267 /analyze- /errorReport:prompt C:\USERS\TULLY\DOCUMENTS\SCHOOL\CMPUT_466\PROJECTREVERSEMETRONOME\WDL-OL\WDL\LIBPNG\PNGRTRAN.C
^C:\USERS\TULLY\DOCUMENTS\SCHOOL\CMPUT_466\PROJECTREVERSEMETRONOME\WDL-OL\WDL\LIBPNG\PNGRUTIL.C
/c /I../zlib /Zi /nologo /W3 /WX- /MP /O2 /Oi /Oy- /GL /D WIN32 /D _LIB /D PNG_USE_PNGVCRD /D PNG_LIBPNG_SPECIALBUILD /D __MMX__ /D PNG_HAVE_MMX_COMBINE_ROW /D PNG_HAVE_MMX_READ_INTERLACE /D PNG_HAVE_MMX_READ_FILTER_ROW /D _CRT_SECURE_NO_WARNINGS /D _MBCS /Gm- /EHsc /MT /GS /Gy /arch:SSE2 /fp:precise /Zc:wchar_t /Zc:forScope /Fo"build-win\Win32\Release\\" /Fd"build-win\Win32\Release\vc100.pdb" /Gd /TC /wd4996 /wd4250 /wd4018 /wd4267 /analyze- /errorReport:prompt C:\USERS\TULLY\DOCUMENTS\SCHOOL\CMPUT_466\PROJECTREVERSEMETRONOME\WDL-OL\WDL\LIBPNG\PNGRUTIL.C
^C:\USERS\TULLY\DOCUMENTS\SCHOOL\CMPUT_466\PROJECTREVERSEMETRONOME\WDL-OL\WDL\LIBPNG\PNGSET.C
/c /I../zlib /Zi /nologo /W3 /WX- /MP /O2 /Oi /Oy- /GL /D WIN32 /D _LIB /D PNG_USE_PNGVCRD /D PNG_LIBPNG_SPECIALBUILD /D __MMX__ /D PNG_HAVE_MMX_COMBINE_ROW /D PNG_HAVE_MMX_READ_INTERLACE /D PNG_HAVE_MMX_READ_FILTER_ROW /D _CRT_SECURE_NO_WARNINGS /D _MBCS /Gm- /EHsc /MT /GS /Gy /arch:SSE2 /fp:precise /Zc:wchar_t /Zc:forScope /Fo"build-win\Win32\Release\\" /Fd"build-win\Win32\Release\vc100.pdb" /Gd /TC /wd4996 /wd4250 /wd4018 /wd4267 /analyze- /errorReport:prompt C:\USERS\TULLY\DOCUMENTS\SCHOOL\CMPUT_466\PROJECTREVERSEMETRONOME\WDL-OL\WDL\LIBPNG\PNGSET.C
^C:\USERS\TULLY\DOCUMENTS\SCHOOL\CMPUT_466\PROJECTREVERSEMETRONOME\WDL-OL\WDL\LIBPNG\PNGTRANS.C
/c /I../zlib /Zi /nologo /W3 /WX- /MP /O2 /Oi /Oy- /GL /D WIN32 /D _LIB /D PNG_USE_PNGVCRD /D PNG_LIBPNG_SPECIALBUILD /D __MMX__ /D PNG_HAVE_MMX_COMBINE_ROW /D PNG_HAVE_MMX_READ_INTERLACE /D PNG_HAVE_MMX_READ_FILTER_ROW /D _CRT_SECURE_NO_WARNINGS /D _MBCS /Gm- /EHsc /MT /GS /Gy /arch:SSE2 /fp:precise /Zc:wchar_t /Zc:forScope /Fo"build-win\Win32\Release\\" /Fd"build-win\Win32\Release\vc100.pdb" /Gd /TC /wd4996 /wd4250 /wd4018 /wd4267 /analyze- /errorReport:prompt C:\USERS\TULLY\DOCUMENTS\SCHOOL\CMPUT_466\PROJECTREVERSEMETRONOME\WDL-OL\WDL\LIBPNG\PNGTRANS.C
^C:\USERS\TULLY\DOCUMENTS\SCHOOL\CMPUT_466\PROJECTREVERSEMETRONOME\WDL-OL\WDL\LIBPNG\PNGWIO.C
/c /I../zlib /Zi /nologo /W3 /WX- /MP /O2 /Oi /Oy- /GL /D WIN32 /D _LIB /D PNG_USE_PNGVCRD /D PNG_LIBPNG_SPECIALBUILD /D __MMX__ /D PNG_HAVE_MMX_COMBINE_ROW /D PNG_HAVE_MMX_READ_INTERLACE /D PNG_HAVE_MMX_READ_FILTER_ROW /D _CRT_SECURE_NO_WARNINGS /D _MBCS /Gm- /EHsc /MT /GS /Gy /arch:SSE2 /fp:precise /Zc:wchar_t /Zc:forScope /Fo"build-win\Win32\Release\\" /Fd"build-win\Win32\Release\vc100.pdb" /Gd /TC /wd4996 /wd4250 /wd4018 /wd4267 /analyze- /errorReport:prompt C:\USERS\TULLY\DOCUMENTS\SCHOOL\CMPUT_466\PROJECTREVERSEMETRONOME\WDL-OL\WDL\LIBPNG\PNGWIO.C
^C:\USERS\TULLY\DOCUMENTS\SCHOOL\CMPUT_466\PROJECTREVERSEMETRONOME\WDL-OL\WDL\LIBPNG\PNGWRITE.C
/c /I../zlib /Zi /nologo /W3 /WX- /MP /O2 /Oi /Oy- /GL /D WIN32 /D _LIB /D PNG_USE_PNGVCRD /D PNG_LIBPNG_SPECIALBUILD /D __MMX__ /D PNG_HAVE_MMX_COMBINE_ROW /D PNG_HAVE_MMX_READ_INTERLACE /D PNG_HAVE_MMX_READ_FILTER_ROW /D _CRT_SECURE_NO_WARNINGS /D _MBCS /Gm- /EHsc /MT /GS /Gy /arch:SSE2 /fp:precise /Zc:wchar_t /Zc:forScope /Fo"build-win\Win32\Release\\" /Fd"build-win\Win32\Release\vc100.pdb" /Gd /TC /wd4996 /wd4250 /wd4018 /wd4267 /analyze- /errorReport:prompt C:\USERS\TULLY\DOCUMENTS\SCHOOL\CMPUT_466\PROJECTREVERSEMETRONOME\WDL-OL\WDL\LIBPNG\PNGWRITE.C
^C:\USERS\TULLY\DOCUMENTS\SCHOOL\CMPUT_466\PROJECTREVERSEMETRONOME\WDL-OL\WDL\LIBPNG\PNGWTRAN.C
/c /I../zlib /Zi /nologo /W3 /WX- /MP /O2 /Oi /Oy- /GL /D WIN32 /D _LIB /D PNG_USE_PNGVCRD /D PNG_LIBPNG_SPECIALBUILD /D __MMX__ /D PNG_HAVE_MMX_COMBINE_ROW /D PNG_HAVE_MMX_READ_INTERLACE /D PNG_HAVE_MMX_READ_FILTER_ROW /D _CRT_SECURE_NO_WARNINGS /D _MBCS /Gm- /EHsc /MT /GS /Gy /arch:SSE2 /fp:precise /Zc:wchar_t /Zc:forScope /Fo"build-win\Win32\Release\\" /Fd"build-win\Win32\Release\vc100.pdb" /Gd /TC /wd4996 /wd4250 /wd4018 /wd4267 /analyze- /errorReport:prompt C:\USERS\TULLY\DOCUMENTS\SCHOOL\CMPUT_466\PROJECTREVERSEMETRONOME\WDL-OL\WDL\LIBPNG\PNGWTRAN.C
^C:\USERS\TULLY\DOCUMENTS\SCHOOL\CMPUT_466\PROJECTREVERSEMETRONOME\WDL-OL\WDL\LIBPNG\PNGWUTIL.C
/c /I../zlib /Zi /nologo /W3 /WX- /MP /O2 /Oi /Oy- /GL /D WIN32 /D _LIB /D PNG_USE_PNGVCRD /D PNG_LIBPNG_SPECIALBUILD /D __MMX__ /D PNG_HAVE_MMX_COMBINE_ROW /D PNG_HAVE_MMX_READ_INTERLACE /D PNG_HAVE_MMX_READ_FILTER_ROW /D _CRT_SECURE_NO_WARNINGS /D _MBCS /Gm- /EHsc /MT /GS /Gy /arch:SSE2 /fp:precise /Zc:wchar_t /Zc:forScope /Fo"build-win\Win32\Release\\" /Fd"build-win\Win32\Release\vc100.pdb" /Gd /TC /wd4996 /wd4250 /wd4018 /wd4267 /analyze- /errorReport:prompt C:\USERS\TULLY\DOCUMENTS\SCHOOL\CMPUT_466\PROJECTREVERSEMETRONOME\WDL-OL\WDL\LIBPNG\PNGWUTIL.C
^C:\USERS\TULLY\DOCUMENTS\SCHOOL\CMPUT_466\PROJECTREVERSEMETRONOME\WDL-OL\WDL\ZLIB\ADLER32.C
/c /I../zlib /Zi /nologo /W3 /WX- /MP /O2 /Oi /Oy- /GL /D WIN32 /D _LIB /D PNG_USE_PNGVCRD /D PNG_LIBPNG_SPECIALBUILD /D __MMX__ /D PNG_HAVE_MMX_COMBINE_ROW /D PNG_HAVE_MMX_READ_INTERLACE /D PNG_HAVE_MMX_READ_FILTER_ROW /D _CRT_SECURE_NO_WARNINGS /D _MBCS /Gm- /EHsc /MT /GS /Gy /arch:SSE2 /fp:precise /Zc:wchar_t /Zc:forScope /Fo"build-win\Win32\Release\\" /Fd"build-win\Win32\Release\vc100.pdb" /Gd /TC /wd4996 /wd4250 /wd4018 /wd4267 /analyze- /errorReport:prompt C:\USERS\TULLY\DOCUMENTS\SCHOOL\CMPUT_466\PROJECTREVERSEMETRONOME\WDL-OL\WDL\ZLIB\ADLER32.C
^C:\USERS\TULLY\DOCUMENTS\SCHOOL\CMPUT_466\PROJECTREVERSEMETRONOME\WDL-OL\WDL\ZLIB\COMPRESS.C
/c /I../zlib /Zi /nologo /W3 /WX- /MP /O2 /Oi /Oy- /GL /D WIN32 /D _LIB /D PNG_USE_PNGVCRD /D PNG_LIBPNG_SPECIALBUILD /D __MMX__ /D PNG_HAVE_MMX_COMBINE_ROW /D PNG_HAVE_MMX_READ_INTERLACE /D PNG_HAVE_MMX_READ_FILTER_ROW /D _CRT_SECURE_NO_WARNINGS /D _MBCS /Gm- /EHsc /MT /GS /Gy /arch:SSE2 /fp:precise /Zc:wchar_t /Zc:forScope /Fo"build-win\Win32\Release\\" /Fd"build-win\Win32\Release\vc100.pdb" /Gd /TC /wd4996 /wd4250 /wd4018 /wd4267 /analyze- /errorReport:prompt C:\USERS\TULLY\DOCUMENTS\SCHOOL\CMPUT_466\PROJECTREVERSEMETRONOME\WDL-OL\WDL\ZLIB\COMPRESS.C
^C:\USERS\TULLY\DOCUMENTS\SCHOOL\CMPUT_466\PROJECTREVERSEMETRONOME\WDL-OL\WDL\ZLIB\CRC32.C
/c /I../zlib /Zi /nologo /W3 /WX- /MP /O2 /Oi /Oy- /GL /D WIN32 /D _LIB /D PNG_USE_PNGVCRD /D PNG_LIBPNG_SPECIALBUILD /D __MMX__ /D PNG_HAVE_MMX_COMBINE_ROW /D PNG_HAVE_MMX_READ_INTERLACE /D PNG_HAVE_MMX_READ_FILTER_ROW /D _CRT_SECURE_NO_WARNINGS /D _MBCS /Gm- /EHsc /MT /GS /Gy /arch:SSE2 /fp:precise /Zc:wchar_t /Zc:forScope /Fo"build-win\Win32\Release\\" /Fd"build-win\Win32\Release\vc100.pdb" /Gd /TC /wd4996 /wd4250 /wd4018 /wd4267 /analyze- /errorReport:prompt C:\USERS\TULLY\DOCUMENTS\SCHOOL\CMPUT_466\PROJECTREVERSEMETRONOME\WDL-OL\WDL\ZLIB\CRC32.C
^C:\USERS\TULLY\DOCUMENTS\SCHOOL\CMPUT_466\PROJECTREVERSEMETRONOME\WDL-OL\WDL\ZLIB\DEFLATE.C
/c /I../zlib /Zi /nologo /W3 /WX- /MP /O2 /Oi /Oy- /GL /D WIN32 /D _LIB /D PNG_USE_PNGVCRD /D PNG_LIBPNG_SPECIALBUILD /D __MMX__ /D PNG_HAVE_MMX_COMBINE_ROW /D PNG_HAVE_MMX_READ_INTERLACE /D PNG_HAVE_MMX_READ_FILTER_ROW /D _CRT_SECURE_NO_WARNINGS /D _MBCS /Gm- /EHsc /MT /GS /Gy /arch:SSE2 /fp:precise /Zc:wchar_t /Zc:forScope /Fo"build-win\Win32\Release\\" /Fd"build-win\Win32\Release\vc100.pdb" /Gd /TC /wd4996 /wd4250 /wd4018 /wd4267 /analyze- /errorReport:prompt C:\USERS\TULLY\DOCUMENTS\SCHOOL\CMPUT_466\PROJECTREVERSEMETRONOME\WDL-OL\WDL\ZLIB\DEFLATE.C
^C:\USERS\TULLY\DOCUMENTS\SCHOOL\CMPUT_466\PROJECTREVERSEMETRONOME\WDL-OL\WDL\ZLIB\GZCLOSE.C
/c /I../zlib /Zi /nologo /W3 /WX- /MP /O2 /Oi /Oy- /GL /D WIN32 /D _LIB /D PNG_USE_PNGVCRD /D PNG_LIBPNG_SPECIALBUILD /D __MMX__ /D PNG_HAVE_MMX_COMBINE_ROW /D PNG_HAVE_MMX_READ_INTERLACE /D PNG_HAVE_MMX_READ_FILTER_ROW /D _CRT_SECURE_NO_WARNINGS /D _MBCS /Gm- /EHsc /MT /GS /Gy /arch:SSE2 /fp:precise /Zc:wchar_t /Zc:forScope /Fo"build-win\Win32\Release\\" /Fd"build-win\Win32\Release\vc100.pdb" /Gd /TC /wd4996 /wd4250 /wd4018 /wd4267 /analyze- /errorReport:prompt C:\USERS\TULLY\DOCUMENTS\SCHOOL\CMPUT_466\PROJECTREVERSEMETRONOME\WDL-OL\WDL\ZLIB\GZCLOSE.C
^C:\USERS\TULLY\DOCUMENTS\SCHOOL\CMPUT_466\PROJECTREVERSEMETRONOME\WDL-OL\WDL\ZLIB\GZLIB.C
/c /I../zlib /Zi /nologo /W3 /WX- /MP /O2 /Oi /Oy- /GL /D WIN32 /D _LIB /D PNG_USE_PNGVCRD /D PNG_LIBPNG_SPECIALBUILD /D __MMX__ /D PNG_HAVE_MMX_COMBINE_ROW /D PNG_HAVE_MMX_READ_INTERLACE /D PNG_HAVE_MMX_READ_FILTER_ROW /D _CRT_SECURE_NO_WARNINGS /D _MBCS /Gm- /EHsc /MT /GS /Gy /arch:SSE2 /fp:precise /Zc:wchar_t /Zc:forScope /Fo"build-win\Win32\Release\\" /Fd"build-win\Win32\Release\vc100.pdb" /Gd /TC /wd4996 /wd4250 /wd4018 /wd4267 /analyze- /errorReport:prompt C:\USERS\TULLY\DOCUMENTS\SCHOOL\CMPUT_466\PROJECTREVERSEMETRONOME\WDL-OL\WDL\ZLIB\GZLIB.C
^C:\USERS\TULLY\DOCUMENTS\SCHOOL\CMPUT_466\PROJECTREVERSEMETRONOME\WDL-OL\WDL\ZLIB\GZREAD.C
/c /I../zlib /Zi /nologo /W3 /WX- /MP /O2 /Oi /Oy- /GL /D WIN32 /D _LIB /D PNG_USE_PNGVCRD /D PNG_LIBPNG_SPECIALBUILD /D __MMX__ /D PNG_HAVE_MMX_COMBINE_ROW /D PNG_HAVE_MMX_READ_INTERLACE /D PNG_HAVE_MMX_READ_FILTER_ROW /D _CRT_SECURE_NO_WARNINGS /D _MBCS /Gm- /EHsc /MT /GS /Gy /arch:SSE2 /fp:precise /Zc:wchar_t /Zc:forScope /Fo"build-win\Win32\Release\\" /Fd"build-win\Win32\Release\vc100.pdb" /Gd /TC /wd4996 /wd4250 /wd4018 /wd4267 /analyze- /errorReport:prompt C:\USERS\TULLY\DOCUMENTS\SCHOOL\CMPUT_466\PROJECTREVERSEMETRONOME\WDL-OL\WDL\ZLIB\GZREAD.C
^C:\USERS\TULLY\DOCUMENTS\SCHOOL\CMPUT_466\PROJECTREVERSEMETRONOME\WDL-OL\WDL\ZLIB\GZWRITE.C
/c /I../zlib /Zi /nologo /W3 /WX- /MP /O2 /Oi /Oy- /GL /D WIN32 /D _LIB /D PNG_USE_PNGVCRD /D PNG_LIBPNG_SPECIALBUILD /D __MMX__ /D PNG_HAVE_MMX_COMBINE_ROW /D PNG_HAVE_MMX_READ_INTERLACE /D PNG_HAVE_MMX_READ_FILTER_ROW /D _CRT_SECURE_NO_WARNINGS /D _MBCS /Gm- /EHsc /MT /GS /Gy /arch:SSE2 /fp:precise /Zc:wchar_t /Zc:forScope /Fo"build-win\Win32\Release\\" /Fd"build-win\Win32\Release\vc100.pdb" /Gd /TC /wd4996 /wd4250 /wd4018 /wd4267 /analyze- /errorReport:prompt C:\USERS\TULLY\DOCUMENTS\SCHOOL\CMPUT_466\PROJECTREVERSEMETRONOME\WDL-OL\WDL\ZLIB\GZWRITE.C
^C:\USERS\TULLY\DOCUMENTS\SCHOOL\CMPUT_466\PROJECTREVERSEMETRONOME\WDL-OL\WDL\ZLIB\INFBACK.C
/c /I../zlib /Zi /nologo /W3 /WX- /MP /O2 /Oi /Oy- /GL /D WIN32 /D _LIB /D PNG_USE_PNGVCRD /D PNG_LIBPNG_SPECIALBUILD /D __MMX__ /D PNG_HAVE_MMX_COMBINE_ROW /D PNG_HAVE_MMX_READ_INTERLACE /D PNG_HAVE_MMX_READ_FILTER_ROW /D _CRT_SECURE_NO_WARNINGS /D _MBCS /Gm- /EHsc /MT /GS /Gy /arch:SSE2 /fp:precise /Zc:wchar_t /Zc:forScope /Fo"build-win\Win32\Release\\" /Fd"build-win\Win32\Release\vc100.pdb" /Gd /TC /wd4996 /wd4250 /wd4018 /wd4267 /analyze- /errorReport:prompt C:\USERS\TULLY\DOCUMENTS\SCHOOL\CMPUT_466\PROJECTREVERSEMETRONOME\WDL-OL\WDL\ZLIB\INFBACK.C
^C:\USERS\TULLY\DOCUMENTS\SCHOOL\CMPUT_466\PROJECTREVERSEMETRONOME\WDL-OL\WDL\ZLIB\INFFAST.C
/c /I../zlib /Zi /nologo /W3 /WX- /MP /O2 /Oi /Oy- /GL /D WIN32 /D _LIB /D PNG_USE_PNGVCRD /D PNG_LIBPNG_SPECIALBUILD /D __MMX__ /D PNG_HAVE_MMX_COMBINE_ROW /D PNG_HAVE_MMX_READ_INTERLACE /D PNG_HAVE_MMX_READ_FILTER_ROW /D _CRT_SECURE_NO_WARNINGS /D _MBCS /Gm- /EHsc /MT /GS /Gy /arch:SSE2 /fp:precise /Zc:wchar_t /Zc:forScope /Fo"build-win\Win32\Release\\" /Fd"build-win\Win32\Release\vc100.pdb" /Gd /TC /wd4996 /wd4250 /wd4018 /wd4267 /analyze- /errorReport:prompt C:\USERS\TULLY\DOCUMENTS\SCHOOL\CMPUT_466\PROJECTREVERSEMETRONOME\WDL-OL\WDL\ZLIB\INFFAST.C
^C:\USERS\TULLY\DOCUMENTS\SCHOOL\CMPUT_466\PROJECTREVERSEMETRONOME\WDL-OL\WDL\ZLIB\INFLATE.C
/c /I../zlib /Zi /nologo /W3 /WX- /MP /O2 /Oi /Oy- /GL /D WIN32 /D _LIB /D PNG_USE_PNGVCRD /D PNG_LIBPNG_SPECIALBUILD /D __MMX__ /D PNG_HAVE_MMX_COMBINE_ROW /D PNG_HAVE_MMX_READ_INTERLACE /D PNG_HAVE_MMX_READ_FILTER_ROW /D _CRT_SECURE_NO_WARNINGS /D _MBCS /Gm- /EHsc /MT /GS /Gy /arch:SSE2 /fp:precise /Zc:wchar_t /Zc:forScope /Fo"build-win\Win32\Release\\" /Fd"build-win\Win32\Release\vc100.pdb" /Gd /TC /wd4996 /wd4250 /wd4018 /wd4267 /analyze- /errorReport:prompt C:\USERS\TULLY\DOCUMENTS\SCHOOL\CMPUT_466\PROJECTREVERSEMETRONOME\WDL-OL\WDL\ZLIB\INFLATE.C
^C:\USERS\TULLY\DOCUMENTS\SCHOOL\CMPUT_466\PROJECTREVERSEMETRONOME\WDL-OL\WDL\ZLIB\INFTREES.C
/c /I../zlib /Zi /nologo /W3 /WX- /MP /O2 /Oi /Oy- /GL /D WIN32 /D _LIB /D PNG_USE_PNGVCRD /D PNG_LIBPNG_SPECIALBUILD /D __MMX__ /D PNG_HAVE_MMX_COMBINE_ROW /D PNG_HAVE_MMX_READ_INTERLACE /D PNG_HAVE_MMX_READ_FILTER_ROW /D _CRT_SECURE_NO_WARNINGS /D _MBCS /Gm- /EHsc /MT /GS /Gy /arch:SSE2 /fp:precise /Zc:wchar_t /Zc:forScope /Fo"build-win\Win32\Release\\" /Fd"build-win\Win32\Release\vc100.pdb" /Gd /TC /wd4996 /wd4250 /wd4018 /wd4267 /analyze- /errorReport:prompt C:\USERS\TULLY\DOCUMENTS\SCHOOL\CMPUT_466\PROJECTREVERSEMETRONOME\WDL-OL\WDL\ZLIB\INFTREES.C
^C:\USERS\TULLY\DOCUMENTS\SCHOOL\CMPUT_466\PROJECTREVERSEMETRONOME\WDL-OL\WDL\ZLIB\TREES.C
/c /I../zlib /Zi /nologo /W3 /WX- /MP /O2 /Oi /Oy- /GL /D WIN32 /D _LIB /D PNG_USE_PNGVCRD /D PNG_LIBPNG_SPECIALBUILD /D __MMX__ /D PNG_HAVE_MMX_COMBINE_ROW /D PNG_HAVE_MMX_READ_INTERLACE /D PNG_HAVE_MMX_READ_FILTER_ROW /D _CRT_SECURE_NO_WARNINGS /D _MBCS /Gm- /EHsc /MT /GS /Gy /arch:SSE2 /fp:precise /Zc:wchar_t /Zc:forScope /Fo"build-win\Win32\Release\\" /Fd"build-win\Win32\Release\vc100.pdb" /Gd /TC /wd4996 /wd4250 /wd4018 /wd4267 /analyze- /errorReport:prompt C:\USERS\TULLY\DOCUMENTS\SCHOOL\CMPUT_466\PROJECTREVERSEMETRONOME\WDL-OL\WDL\ZLIB\TREES.C
^C:\USERS\TULLY\DOCUMENTS\SCHOOL\CMPUT_466\PROJECTREVERSEMETRONOME\WDL-OL\WDL\ZLIB\UNCOMPR.C
/c /I../zlib /Zi /nologo /W3 /WX- /MP /O2 /Oi /Oy- /GL /D WIN32 /D _LIB /D PNG_USE_PNGVCRD /D PNG_LIBPNG_SPECIALBUILD /D __MMX__ /D PNG_HAVE_MMX_COMBINE_ROW /D PNG_HAVE_MMX_READ_INTERLACE /D PNG_HAVE_MMX_READ_FILTER_ROW /D _CRT_SECURE_NO_WARNINGS /D _MBCS /Gm- /EHsc /MT /GS /Gy /arch:SSE2 /fp:precise /Zc:wchar_t /Zc:forScope /Fo"build-win\Win32\Release\\" /Fd"build-win\Win32\Release\vc100.pdb" /Gd /TC /wd4996 /wd4250 /wd4018 /wd4267 /analyze- /errorReport:prompt C:\USERS\TULLY\DOCUMENTS\SCHOOL\CMPUT_466\PROJECTREVERSEMETRONOME\WDL-OL\WDL\ZLIB\UNCOMPR.C
^C:\USERS\TULLY\DOCUMENTS\SCHOOL\CMPUT_466\PROJECTREVERSEMETRONOME\WDL-OL\WDL\ZLIB\ZUTIL.C
/c /I../zlib /Zi /nologo /W3 /WX- /MP /O2 /Oi /Oy- /GL /D WIN32 /D _LIB /D PNG_USE_PNGVCRD /D PNG_LIBPNG_SPECIALBUILD /D __MMX__ /D PNG_HAVE_MMX_COMBINE_ROW /D PNG_HAVE_MMX_READ_INTERLACE /D PNG_HAVE_MMX_READ_FILTER_ROW /D _CRT_SECURE_NO_WARNINGS /D _MBCS /Gm- /EHsc /MT /GS /Gy /arch:SSE2 /fp:precise /Zc:wchar_t /Zc:forScope /Fo"build-win\Win32\Release\\" /Fd"build-win\Win32\Release\vc100.pdb" /Gd /TC /wd4996 /wd4250 /wd4018 /wd4267 /analyze- /errorReport:prompt C:\USERS\TULLY\DOCUMENTS\SCHOOL\CMPUT_466\PROJECTREVERSEMETRONOME\WDL-OL\WDL\ZLIB\ZUTIL.C
^C:\USERS\TULLY\DOCUMENTS\SCHOOL\CMPUT_466\PROJECTREVERSEMETRONOME\WDL-OL\WDL\LICE\LICE.CPP
/c /I../zlib /Zi /nologo /W3 /WX- /MP /O2 /Oi /Oy- /GL /D WIN32 /D _LIB /D PNG_USE_PNGVCRD /D PNG_LIBPNG_SPECIALBUILD /D __MMX__ /D PNG_HAVE_MMX_COMBINE_ROW /D PNG_HAVE_MMX_READ_INTERLACE /D PNG_HAVE_MMX_READ_FILTER_ROW /D _CRT_SECURE_NO_WARNINGS /D _MBCS /Gm- /EHsc /MT /GS /Gy /arch:SSE2 /fp:precise /Zc:wchar_t /Zc:forScope /Fo"build-win\Win32\Release\\" /Fd"build-win\Win32\Release\vc100.pdb" /Gd /TP /wd4996 /wd4250 /wd4018 /wd4267 /analyze- /errorReport:prompt C:\USERS\TULLY\DOCUMENTS\SCHOOL\CMPUT_466\PROJECTREVERSEMETRONOME\WDL-OL\WDL\LICE\LICE.CPP
^C:\USERS\TULLY\DOCUMENTS\SCHOOL\CMPUT_466\PROJECTREVERSEMETRONOME\WDL-OL\WDL\LICE\LICE_ARC.CPP
/c /I../zlib /Zi /nologo /W3 /WX- /MP /O2 /Oi /Oy- /GL /D WIN32 /D _LIB /D PNG_USE_PNGVCRD /D PNG_LIBPNG_SPECIALBUILD /D __MMX__ /D PNG_HAVE_MMX_COMBINE_ROW /D PNG_HAVE_MMX_READ_INTERLACE /D PNG_HAVE_MMX_READ_FILTER_ROW /D _CRT_SECURE_NO_WARNINGS /D _MBCS /Gm- /EHsc /MT /GS /Gy /arch:SSE2 /fp:precise /Zc:wchar_t /Zc:forScope /Fo"build-win\Win32\Release\\" /Fd"build-win\Win32\Release\vc100.pdb" /Gd /TP /wd4996 /wd4250 /wd4018 /wd4267 /analyze- /errorReport:prompt C:\USERS\TULLY\DOCUMENTS\SCHOOL\CMPUT_466\PROJECTREVERSEMETRONOME\WDL-OL\WDL\LICE\LICE_ARC.CPP
^C:\USERS\TULLY\DOCUMENTS\SCHOOL\CMPUT_466\PROJECTREVERSEMETRONOME\WDL-OL\WDL\LICE\LICE_COLORSPACE.CPP
/c /I../zlib /Zi /nologo /W3 /WX- /MP /O2 /Oi /Oy- /GL /D WIN32 /D _LIB /D PNG_USE_PNGVCRD /D PNG_LIBPNG_SPECIALBUILD /D __MMX__ /D PNG_HAVE_MMX_COMBINE_ROW /D PNG_HAVE_MMX_READ_INTERLACE /D PNG_HAVE_MMX_READ_FILTER_ROW /D _CRT_SECURE_NO_WARNINGS /D _MBCS /Gm- /EHsc /MT /GS /Gy /arch:SSE2 /fp:precise /Zc:wchar_t /Zc:forScope /Fo"build-win\Win32\Release\\" /Fd"build-win\Win32\Release\vc100.pdb" /Gd /TP /wd4996 /wd4250 /wd4018 /wd4267 /analyze- /errorReport:prompt C:\USERS\TULLY\DOCUMENTS\SCHOOL\CMPUT_466\PROJECTREVERSEMETRONOME\WDL-OL\WDL\LICE\LICE_COLORSPACE.CPP
^C:\USERS\TULLY\DOCUMENTS\SCHOOL\CMPUT_466\PROJECTREVERSEMETRONOME\WDL-OL\WDL\LICE\LICE_LINE.CPP
/c /I../zlib /Zi /nologo /W3 /WX- /MP /O2 /Oi /Oy- /GL /D WIN32 /D _LIB /D PNG_USE_PNGVCRD /D PNG_LIBPNG_SPECIALBUILD /D __MMX__ /D PNG_HAVE_MMX_COMBINE_ROW /D PNG_HAVE_MMX_READ_INTERLACE /D PNG_HAVE_MMX_READ_FILTER_ROW /D _CRT_SECURE_NO_WARNINGS /D _MBCS /Gm- /EHsc /MT /GS /Gy /arch:SSE2 /fp:precise /Zc:wchar_t /Zc:forScope /Fo"build-win\Win32\Release\\" /Fd"build-win\Win32\Release\vc100.pdb" /Gd /TP /wd4996 /wd4250 /wd4018 /wd4267 /analyze- /errorReport:prompt C:\USERS\TULLY\DOCUMENTS\SCHOOL\CMPUT_466\PROJECTREVERSEMETRONOME\WDL-OL\WDL\LICE\LICE_LINE.CPP
^C:\USERS\TULLY\DOCUMENTS\SCHOOL\CMPUT_466\PROJECTREVERSEMETRONOME\WDL-OL\WDL\LICE\LICE_PALETTE.CPP
/c /I../zlib /Zi /nologo /W3 /WX- /MP /O2 /Oi /Oy- /GL /D WIN32 /D _LIB /D PNG_USE_PNGVCRD /D PNG_LIBPNG_SPECIALBUILD /D __MMX__ /D PNG_HAVE_MMX_COMBINE_ROW /D PNG_HAVE_MMX_READ_INTERLACE /D PNG_HAVE_MMX_READ_FILTER_ROW /D _CRT_SECURE_NO_WARNINGS /D _MBCS /Gm- /EHsc /MT /GS /Gy /arch:SSE2 /fp:precise /Zc:wchar_t /Zc:forScope /Fo"build-win\Win32\Release\\" /Fd"build-win\Win32\Release\vc100.pdb" /Gd /TP /wd4996 /wd4250 /wd4018 /wd4267 /analyze- /errorReport:prompt C:\USERS\TULLY\DOCUMENTS\SCHOOL\CMPUT_466\PROJECTREVERSEMETRONOME\WDL-OL\WDL\LICE\LICE_PALETTE.CPP
^C:\USERS\TULLY\DOCUMENTS\SCHOOL\CMPUT_466\PROJECTREVERSEMETRONOME\WDL-OL\WDL\LICE\LICE_PNG.CPP
/c /I../zlib /Zi /nologo /W3 /WX- /MP /O2 /Oi /Oy- /GL /D WIN32 /D _LIB /D PNG_USE_PNGVCRD /D PNG_LIBPNG_SPECIALBUILD /D __MMX__ /D PNG_HAVE_MMX_COMBINE_ROW /D PNG_HAVE_MMX_READ_INTERLACE /D PNG_HAVE_MMX_READ_FILTER_ROW /D _CRT_SECURE_NO_WARNINGS /D _MBCS /Gm- /EHsc /MT /GS /Gy /arch:SSE2 /fp:precise /Zc:wchar_t /Zc:forScope /Fo"build-win\Win32\Release\\" /Fd"build-win\Win32\Release\vc100.pdb" /Gd /TP /wd4996 /wd4250 /wd4018 /wd4267 /analyze- /errorReport:prompt C:\USERS\TULLY\DOCUMENTS\SCHOOL\CMPUT_466\PROJECTREVERSEMETRONOME\WDL-OL\WDL\LICE\LICE_PNG.CPP
^C:\USERS\TULLY\DOCUMENTS\SCHOOL\CMPUT_466\PROJECTREVERSEMETRONOME\WDL-OL\WDL\LICE\LICE_TEXGEN.CPP
/c /I../zlib /Zi /nologo /W3 /WX- /MP /O2 /Oi /Oy- /GL /D WIN32 /D _LIB /D PNG_USE_PNGVCRD /D PNG_LIBPNG_SPECIALBUILD /D __MMX__ /D PNG_HAVE_MMX_COMBINE_ROW /D PNG_HAVE_MMX_READ_INTERLACE /D PNG_HAVE_MMX_READ_FILTER_ROW /D _CRT_SECURE_NO_WARNINGS /D _MBCS /Gm- /EHsc /MT /GS /Gy /arch:SSE2 /fp:precise /Zc:wchar_t /Zc:forScope /Fo"build-win\Win32\Release\\" /Fd"build-win\Win32\Release\vc100.pdb" /Gd /TP /wd4996 /wd4250 /wd4018 /wd4267 /analyze- /errorReport:prompt C:\USERS\TULLY\DOCUMENTS\SCHOOL\CMPUT_466\PROJECTREVERSEMETRONOME\WDL-OL\WDL\LICE\LICE_TEXGEN.CPP
^C:\USERS\TULLY\DOCUMENTS\SCHOOL\CMPUT_466\PROJECTREVERSEMETRONOME\WDL-OL\WDL\LICE\LICE_TEXTNEW.CPP
/c /I../zlib /Zi /nologo /W3 /WX- /MP /O2 /Oi /Oy- /GL /D WIN32 /D _LIB /D PNG_USE_PNGVCRD /D PNG_LIBPNG_SPECIALBUILD /D __MMX__ /D PNG_HAVE_MMX_COMBINE_ROW /D PNG_HAVE_MMX_READ_INTERLACE /D PNG_HAVE_MMX_READ_FILTER_ROW /D _CRT_SECURE_NO_WARNINGS /D _MBCS /Gm- /EHsc /MT /GS /Gy /arch:SSE2 /fp:precise /Zc:wchar_t /Zc:forScope /Fo"build-win\Win32\Release\\" /Fd"build-win\Win32\Release\vc100.pdb" /Gd /TP /wd4996 /wd4250 /wd4018 /wd4267 /analyze- /errorReport:prompt C:\USERS\TULLY\DOCUMENTS\SCHOOL\CMPUT_466\PROJECTREVERSEMETRONOME\WDL-OL\WDL\LICE\LICE_TEXTNEW.CPP
