^C:\USERS\TULLY\DOCUMENTS\SCHOOL\CMPUT_466\PROJECTREVERSEMETRONOME\WDL-OL\WDL\LIBPNG\PNG.C
C:\USERS\TULLY\DOCUMENTS\SCHOOL\CMPUT_466\PROJECTREVERSEMETRONOME\WDL-OL\WDL\LICE\BUILD-WIN\WIN32\RELEASE\VC100.PDB
^C:\USERS\TULLY\DOCUMENTS\SCHOOL\CMPUT_466\PROJECTREVERSEMETRONOME\WDL-OL\WDL\LIBPNG\PNGERROR.C
C:\USERS\TULLY\DOCUMENTS\SCHOOL\CMPUT_466\PROJECTREVERSEMETRONOME\WDL-OL\WDL\LICE\BUILD-WIN\WIN32\RELEASE\VC100.PDB
^C:\USERS\TULLY\DOCUMENTS\SCHOOL\CMPUT_466\PROJECTREVERSEMETRONOME\WDL-OL\WDL\LIBPNG\PNGGET.C
C:\USERS\TULLY\DOCUMENTS\SCHOOL\CMPUT_466\PROJECTREVERSEMETRONOME\WDL-OL\WDL\LICE\BUILD-WIN\WIN32\RELEASE\VC100.PDB
^C:\USERS\TULLY\DOCUMENTS\SCHOOL\CMPUT_466\PROJECTREVERSEMETRONOME\WDL-OL\WDL\LIBPNG\PNGMEM.C
C:\USERS\TULLY\DOCUMENTS\SCHOOL\CMPUT_466\PROJECTREVERSEMETRONOME\WDL-OL\WDL\LICE\BUILD-WIN\WIN32\RELEASE\VC100.PDB
^C:\USERS\TULLY\DOCUMENTS\SCHOOL\CMPUT_466\PROJECTREVERSEMETRONOME\WDL-OL\WDL\LIBPNG\PNGPREAD.C
C:\USERS\TULLY\DOCUMENTS\SCHOOL\CMPUT_466\PROJECTREVERSEMETRONOME\WDL-OL\WDL\LICE\BUILD-WIN\WIN32\RELEASE\VC100.PDB
^C:\USERS\TULLY\DOCUMENTS\SCHOOL\CMPUT_466\PROJECTREVERSEMETRONOME\WDL-OL\WDL\LIBPNG\PNGREAD.C
C:\USERS\TULLY\DOCUMENTS\SCHOOL\CMPUT_466\PROJECTREVERSEMETRONOME\WDL-OL\WDL\LICE\BUILD-WIN\WIN32\RELEASE\VC100.PDB
^C:\USERS\TULLY\DOCUMENTS\SCHOOL\CMPUT_466\PROJECTREVERSEMETRONOME\WDL-OL\WDL\LIBPNG\PNGRIO.C
C:\USERS\TULLY\DOCUMENTS\SCHOOL\CMPUT_466\PROJECTREVERSEMETRONOME\WDL-OL\WDL\LICE\BUILD-WIN\WIN32\RELEASE\VC100.PDB
^C:\USERS\TULLY\DOCUMENTS\SCHOOL\CMPUT_466\PROJECTREVERSEMETRONOME\WDL-OL\WDL\LIBPNG\PNGRTRAN.C
C:\USERS\TULLY\DOCUMENTS\SCHOOL\CMPUT_466\PROJECTREVERSEMETRONOME\WDL-OL\WDL\LICE\BUILD-WIN\WIN32\RELEASE\VC100.PDB
^C:\USERS\TULLY\DOCUMENTS\SCHOOL\CMPUT_466\PROJECTREVERSEMETRONOME\WDL-OL\WDL\LIBPNG\PNGRUTIL.C
C:\USERS\TULLY\DOCUMENTS\SCHOOL\CMPUT_466\PROJECTREVERSEMETRONOME\WDL-OL\WDL\LICE\BUILD-WIN\WIN32\RELEASE\VC100.PDB
^C:\USERS\TULLY\DOCUMENTS\SCHOOL\CMPUT_466\PROJECTREVERSEMETRONOME\WDL-OL\WDL\LIBPNG\PNGSET.C
C:\USERS\TULLY\DOCUMENTS\SCHOOL\CMPUT_466\PROJECTREVERSEMETRONOME\WDL-OL\WDL\LICE\BUILD-WIN\WIN32\RELEASE\VC100.PDB
^C:\USERS\TULLY\DOCUMENTS\SCHOOL\CMPUT_466\PROJECTREVERSEMETRONOME\WDL-OL\WDL\LIBPNG\PNGTRANS.C
C:\USERS\TULLY\DOCUMENTS\SCHOOL\CMPUT_466\PROJECTREVERSEMETRONOME\WDL-OL\WDL\LICE\BUILD-WIN\WIN32\RELEASE\VC100.PDB
^C:\USERS\TULLY\DOCUMENTS\SCHOOL\CMPUT_466\PROJECTREVERSEMETRONOME\WDL-OL\WDL\LIBPNG\PNGWIO.C
C:\USERS\TULLY\DOCUMENTS\SCHOOL\CMPUT_466\PROJECTREVERSEMETRONOME\WDL-OL\WDL\LICE\BUILD-WIN\WIN32\RELEASE\VC100.PDB
^C:\USERS\TULLY\DOCUMENTS\SCHOOL\CMPUT_466\PROJECTREVERSEMETRONOME\WDL-OL\WDL\LIBPNG\PNGWRITE.C
C:\USERS\TULLY\DOCUMENTS\SCHOOL\CMPUT_466\PROJECTREVERSEMETRONOME\WDL-OL\WDL\LICE\BUILD-WIN\WIN32\RELEASE\VC100.PDB
^C:\USERS\TULLY\DOCUMENTS\SCHOOL\CMPUT_466\PROJECTREVERSEMETRONOME\WDL-OL\WDL\LIBPNG\PNGWTRAN.C
C:\USERS\TULLY\DOCUMENTS\SCHOOL\CMPUT_466\PROJECTREVERSEMETRONOME\WDL-OL\WDL\LICE\BUILD-WIN\WIN32\RELEASE\VC100.PDB
^C:\USERS\TULLY\DOCUMENTS\SCHOOL\CMPUT_466\PROJECTREVERSEMETRONOME\WDL-OL\WDL\LIBPNG\PNGWUTIL.C
C:\USERS\TULLY\DOCUMENTS\SCHOOL\CMPUT_466\PROJECTREVERSEMETRONOME\WDL-OL\WDL\LICE\BUILD-WIN\WIN32\RELEASE\VC100.PDB
^C:\USERS\TULLY\DOCUMENTS\SCHOOL\CMPUT_466\PROJECTREVERSEMETRONOME\WDL-OL\WDL\ZLIB\ADLER32.C
C:\USERS\TULLY\DOCUMENTS\SCHOOL\CMPUT_466\PROJECTREVERSEMETRONOME\WDL-OL\WDL\LICE\BUILD-WIN\WIN32\RELEASE\VC100.PDB
^C:\USERS\TULLY\DOCUMENTS\SCHOOL\CMPUT_466\PROJECTREVERSEMETRONOME\WDL-OL\WDL\ZLIB\COMPRESS.C
C:\USERS\TULLY\DOCUMENTS\SCHOOL\CMPUT_466\PROJECTREVERSEMETRONOME\WDL-OL\WDL\LICE\BUILD-WIN\WIN32\RELEASE\VC100.PDB
^C:\USERS\TULLY\DOCUMENTS\SCHOOL\CMPUT_466\PROJECTREVERSEMETRONOME\WDL-OL\WDL\ZLIB\CRC32.C
C:\USERS\TULLY\DOCUMENTS\SCHOOL\CMPUT_466\PROJECTREVERSEMETRONOME\WDL-OL\WDL\LICE\BUILD-WIN\WIN32\RELEASE\VC100.PDB
^C:\USERS\TULLY\DOCUMENTS\SCHOOL\CMPUT_466\PROJECTREVERSEMETRONOME\WDL-OL\WDL\ZLIB\DEFLATE.C
C:\USERS\TULLY\DOCUMENTS\SCHOOL\CMPUT_466\PROJECTREVERSEMETRONOME\WDL-OL\WDL\LICE\BUILD-WIN\WIN32\RELEASE\VC100.PDB
^C:\USERS\TULLY\DOCUMENTS\SCHOOL\CMPUT_466\PROJECTREVERSEMETRONOME\WDL-OL\WDL\ZLIB\GZCLOSE.C
C:\USERS\TULLY\DOCUMENTS\SCHOOL\CMPUT_466\PROJECTREVERSEMETRONOME\WDL-OL\WDL\LICE\BUILD-WIN\WIN32\RELEASE\VC100.PDB
^C:\USERS\TULLY\DOCUMENTS\SCHOOL\CMPUT_466\PROJECTREVERSEMETRONOME\WDL-OL\WDL\ZLIB\GZLIB.C
C:\USERS\TULLY\DOCUMENTS\SCHOOL\CMPUT_466\PROJECTREVERSEMETRONOME\WDL-OL\WDL\LICE\BUILD-WIN\WIN32\RELEASE\VC100.PDB
^C:\USERS\TULLY\DOCUMENTS\SCHOOL\CMPUT_466\PROJECTREVERSEMETRONOME\WDL-OL\WDL\ZLIB\GZREAD.C
C:\USERS\TULLY\DOCUMENTS\SCHOOL\CMPUT_466\PROJECTREVERSEMETRONOME\WDL-OL\WDL\LICE\BUILD-WIN\WIN32\RELEASE\VC100.PDB
^C:\USERS\TULLY\DOCUMENTS\SCHOOL\CMPUT_466\PROJECTREVERSEMETRONOME\WDL-OL\WDL\ZLIB\GZWRITE.C
C:\USERS\TULLY\DOCUMENTS\SCHOOL\CMPUT_466\PROJECTREVERSEMETRONOME\WDL-OL\WDL\LICE\BUILD-WIN\WIN32\RELEASE\VC100.PDB
^C:\USERS\TULLY\DOCUMENTS\SCHOOL\CMPUT_466\PROJECTREVERSEMETRONOME\WDL-OL\WDL\ZLIB\INFBACK.C
C:\USERS\TULLY\DOCUMENTS\SCHOOL\CMPUT_466\PROJECTREVERSEMETRONOME\WDL-OL\WDL\LICE\BUILD-WIN\WIN32\RELEASE\VC100.PDB
^C:\USERS\TULLY\DOCUMENTS\SCHOOL\CMPUT_466\PROJECTREVERSEMETRONOME\WDL-OL\WDL\ZLIB\INFFAST.C
C:\USERS\TULLY\DOCUMENTS\SCHOOL\CMPUT_466\PROJECTREVERSEMETRONOME\WDL-OL\WDL\LICE\BUILD-WIN\WIN32\RELEASE\VC100.PDB
^C:\USERS\TULLY\DOCUMENTS\SCHOOL\CMPUT_466\PROJECTREVERSEMETRONOME\WDL-OL\WDL\ZLIB\INFLATE.C
C:\USERS\TULLY\DOCUMENTS\SCHOOL\CMPUT_466\PROJECTREVERSEMETRONOME\WDL-OL\WDL\LICE\BUILD-WIN\WIN32\RELEASE\VC100.PDB
^C:\USERS\TULLY\DOCUMENTS\SCHOOL\CMPUT_466\PROJECTREVERSEMETRONOME\WDL-OL\WDL\ZLIB\INFTREES.C
C:\USERS\TULLY\DOCUMENTS\SCHOOL\CMPUT_466\PROJECTREVERSEMETRONOME\WDL-OL\WDL\LICE\BUILD-WIN\WIN32\RELEASE\VC100.PDB
^C:\USERS\TULLY\DOCUMENTS\SCHOOL\CMPUT_466\PROJECTREVERSEMETRONOME\WDL-OL\WDL\ZLIB\TREES.C
C:\USERS\TULLY\DOCUMENTS\SCHOOL\CMPUT_466\PROJECTREVERSEMETRONOME\WDL-OL\WDL\LICE\BUILD-WIN\WIN32\RELEASE\VC100.PDB
^C:\USERS\TULLY\DOCUMENTS\SCHOOL\CMPUT_466\PROJECTREVERSEMETRONOME\WDL-OL\WDL\ZLIB\UNCOMPR.C
C:\USERS\TULLY\DOCUMENTS\SCHOOL\CMPUT_466\PROJECTREVERSEMETRONOME\WDL-OL\WDL\LICE\BUILD-WIN\WIN32\RELEASE\VC100.PDB
^C:\USERS\TULLY\DOCUMENTS\SCHOOL\CMPUT_466\PROJECTREVERSEMETRONOME\WDL-OL\WDL\ZLIB\ZUTIL.C
C:\USERS\TULLY\DOCUMENTS\SCHOOL\CMPUT_466\PROJECTREVERSEMETRONOME\WDL-OL\WDL\LICE\BUILD-WIN\WIN32\RELEASE\VC100.PDB
^C:\USERS\TULLY\DOCUMENTS\SCHOOL\CMPUT_466\PROJECTREVERSEMETRONOME\WDL-OL\WDL\LICE\LICE.CPP|C:\USERS\TULLY\DOCUMENTS\SCHOOL\CMPUT_466\PROJECTREVERSEMETRONOME\WDL-OL\WDL\LICE\LICE_ARC.CPP|C:\USERS\TULLY\DOCUMENTS\SCHOOL\CMPUT_466\PROJECTREVERSEMETRONOME\WDL-OL\WDL\LICE\LICE_COLORSPACE.CPP|C:\USERS\TULLY\DOCUMENTS\SCHOOL\CMPUT_466\PROJECTREVERSEMETRONOME\WDL-OL\WDL\LICE\LICE_LINE.CPP|C:\USERS\TULLY\DOCUMENTS\SCHOOL\CMPUT_466\PROJECTREVERSEMETRONOME\WDL-OL\WDL\LICE\LICE_PALETTE.CPP|C:\USERS\TULLY\DOCUMENTS\SCHOOL\CMPUT_466\PROJECTREVERSEMETRONOME\WDL-OL\WDL\LICE\LICE_PNG.CPP|C:\USERS\TULLY\DOCUMENTS\SCHOOL\CMPUT_466\PROJECTREVERSEMETRONOME\WDL-OL\WDL\LICE\LICE_TEXGEN.CPP|C:\USERS\TULLY\DOCUMENTS\SCHOOL\CMPUT_466\PROJECTREVERSEMETRONOME\WDL-OL\WDL\LICE\LICE_TEXTNEW.CPP
C:\USERS\TULLY\DOCUMENTS\SCHOOL\CMPUT_466\PROJECTREVERSEMETRONOME\WDL-OL\WDL\LICE\BUILD-WIN\WIN32\RELEASE\LICE_LINE.OBJ
C:\USERS\TULLY\DOCUMENTS\SCHOOL\CMPUT_466\PROJECTREVERSEMETRONOME\WDL-OL\WDL\LICE\BUILD-WIN\WIN32\RELEASE\LICE_TEXTNEW.OBJ
C:\USERS\TULLY\DOCUMENTS\SCHOOL\CMPUT_466\PROJECTREVERSEMETRONOME\WDL-OL\WDL\LICE\BUILD-WIN\WIN32\RELEASE\LICE.OBJ
C:\USERS\TULLY\DOCUMENTS\SCHOOL\CMPUT_466\PROJECTREVERSEMETRONOME\WDL-OL\WDL\LICE\BUILD-WIN\WIN32\RELEASE\LICE_TEXGEN.OBJ
C:\USERS\TULLY\DOCUMENTS\SCHOOL\CMPUT_466\PROJECTREVERSEMETRONOME\WDL-OL\WDL\LICE\BUILD-WIN\WIN32\RELEASE\LICE_COLORSPACE.OBJ
C:\USERS\TULLY\DOCUMENTS\SCHOOL\CMPUT_466\PROJECTREVERSEMETRONOME\WDL-OL\WDL\LICE\BUILD-WIN\WIN32\RELEASE\LICE_PALETTE.OBJ
C:\USERS\TULLY\DOCUMENTS\SCHOOL\CMPUT_466\PROJECTREVERSEMETRONOME\WDL-OL\WDL\LICE\BUILD-WIN\WIN32\RELEASE\LICE_ARC.OBJ
C:\USERS\TULLY\DOCUMENTS\SCHOOL\CMPUT_466\PROJECTREVERSEMETRONOME\WDL-OL\WDL\LICE\BUILD-WIN\WIN32\RELEASE\LICE_PNG.OBJ
^C:\USERS\TULLY\DOCUMENTS\SCHOOL\CMPUT_466\PROJECTREVERSEMETRONOME\WDL-OL\WDL\LICE\LICE.CPP
C:\USERS\TULLY\DOCUMENTS\SCHOOL\CMPUT_466\PROJECTREVERSEMETRONOME\WDL-OL\WDL\LICE\BUILD-WIN\WIN32\RELEASE\VC100.PDB
^C:\USERS\TULLY\DOCUMENTS\SCHOOL\CMPUT_466\PROJECTREVERSEMETRONOME\WDL-OL\WDL\LICE\LICE_ARC.CPP
C:\USERS\TULLY\DOCUMENTS\SCHOOL\CMPUT_466\PROJECTREVERSEMETRONOME\WDL-OL\WDL\LICE\BUILD-WIN\WIN32\RELEASE\VC100.PDB
^C:\USERS\TULLY\DOCUMENTS\SCHOOL\CMPUT_466\PROJECTREVERSEMETRONOME\WDL-OL\WDL\LICE\LICE_COLORSPACE.CPP
C:\USERS\TULLY\DOCUMENTS\SCHOOL\CMPUT_466\PROJECTREVERSEMETRONOME\WDL-OL\WDL\LICE\BUILD-WIN\WIN32\RELEASE\VC100.PDB
^C:\USERS\TULLY\DOCUMENTS\SCHOOL\CMPUT_466\PROJECTREVERSEMETRONOME\WDL-OL\WDL\LICE\LICE_LINE.CPP
C:\USERS\TULLY\DOCUMENTS\SCHOOL\CMPUT_466\PROJECTREVERSEMETRONOME\WDL-OL\WDL\LICE\BUILD-WIN\WIN32\RELEASE\VC100.PDB
^C:\USERS\TULLY\DOCUMENTS\SCHOOL\CMPUT_466\PROJECTREVERSEMETRONOME\WDL-OL\WDL\LICE\LICE_PALETTE.CPP
C:\USERS\TULLY\DOCUMENTS\SCHOOL\CMPUT_466\PROJECTREVERSEMETRONOME\WDL-OL\WDL\LICE\BUILD-WIN\WIN32\RELEASE\VC100.PDB
^C:\USERS\TULLY\DOCUMENTS\SCHOOL\CMPUT_466\PROJECTREVERSEMETRONOME\WDL-OL\WDL\LICE\LICE_PNG.CPP
C:\USERS\TULLY\DOCUMENTS\SCHOOL\CMPUT_466\PROJECTREVERSEMETRONOME\WDL-OL\WDL\LICE\BUILD-WIN\WIN32\RELEASE\VC100.PDB
^C:\USERS\TULLY\DOCUMENTS\SCHOOL\CMPUT_466\PROJECTREVERSEMETRONOME\WDL-OL\WDL\LICE\LICE_TEXGEN.CPP
C:\USERS\TULLY\DOCUMENTS\SCHOOL\CMPUT_466\PROJECTREVERSEMETRONOME\WDL-OL\WDL\LICE\BUILD-WIN\WIN32\RELEASE\VC100.PDB
^C:\USERS\TULLY\DOCUMENTS\SCHOOL\CMPUT_466\PROJECTREVERSEMETRONOME\WDL-OL\WDL\LICE\LICE_TEXTNEW.CPP
C:\USERS\TULLY\DOCUMENTS\SCHOOL\CMPUT_466\PROJECTREVERSEMETRONOME\WDL-OL\WDL\LICE\BUILD-WIN\WIN32\RELEASE\VC100.PDB
