^C:\USERS\PAUL\DOCUMENTS\VISUAL STUDIO 2010\PROJECTREVERSEMETRONOME\WDL-OL\WDL\IPLUG\HOSTS.CPP
/c /ZI /nologo /W3 /WX- /Od /Oy- /D _DEBUG /D WIN32 /D _CRT_SECURE_NO_DEPRECATE /D _CRT_NONSTDC_NO_DEPRECATE /D _MBCS /Gm /EHsc /RTC1 /MTd /GS /arch:SSE2 /fp:precise /Zc:wchar_t /Zc:forScope /Fo"build-win\Win32\Debug\\" /Fd"build-win\Win32\Debug\vc100.pdb" /Gd /TP /wd4996 /wd4250 /wd4018 /wd4267 /analyze- /errorReport:prompt C:\USERS\PAUL\DOCUMENTS\VISUAL STUDIO 2010\PROJECTREVERSEMETRONOME\WDL-OL\WDL\IPLUG\HOSTS.CPP
^C:\USERS\PAUL\DOCUMENTS\VISUAL STUDIO 2010\PROJECTREVERSEMETRONOME\WDL-OL\WDL\IPLUG\IBITMAPMONOTEXT.CPP
/c /ZI /nologo /W3 /WX- /Od /Oy- /D _DEBUG /D WIN32 /D _CRT_SECURE_NO_DEPRECATE /D _CRT_NONSTDC_NO_DEPRECATE /D _MBCS /Gm /EHsc /RTC1 /MTd /GS /arch:SSE2 /fp:precise /Zc:wchar_t /Zc:forScope /Fo"build-win\Win32\Debug\\" /Fd"build-win\Win32\Debug\vc100.pdb" /Gd /TP /wd4996 /wd4250 /wd4018 /wd4267 /analyze- /errorReport:prompt C:\USERS\PAUL\DOCUMENTS\VISUAL STUDIO 2010\PROJECTREVERSEMETRONOME\WDL-OL\WDL\IPLUG\IBITMAPMONOTEXT.CPP
^C:\USERS\PAUL\DOCUMENTS\VISUAL STUDIO 2010\PROJECTREVERSEMETRONOME\WDL-OL\WDL\IPLUG\ICONTROL.CPP
/c /ZI /nologo /W3 /WX- /Od /Oy- /D _DEBUG /D WIN32 /D _CRT_SECURE_NO_DEPRECATE /D _CRT_NONSTDC_NO_DEPRECATE /D _MBCS /Gm /EHsc /RTC1 /MTd /GS /arch:SSE2 /fp:precise /Zc:wchar_t /Zc:forScope /Fo"build-win\Win32\Debug\\" /Fd"build-win\Win32\Debug\vc100.pdb" /Gd /TP /wd4996 /wd4250 /wd4018 /wd4267 /analyze- /errorReport:prompt C:\USERS\PAUL\DOCUMENTS\VISUAL STUDIO 2010\PROJECTREVERSEMETRONOME\WDL-OL\WDL\IPLUG\ICONTROL.CPP
^C:\USERS\PAUL\DOCUMENTS\VISUAL STUDIO 2010\PROJECTREVERSEMETRONOME\WDL-OL\WDL\IPLUG\IGRAPHICS.CPP
/c /ZI /nologo /W3 /WX- /Od /Oy- /D _DEBUG /D WIN32 /D _CRT_SECURE_NO_DEPRECATE /D _CRT_NONSTDC_NO_DEPRECATE /D _MBCS /Gm /EHsc /RTC1 /MTd /GS /arch:SSE2 /fp:precise /Zc:wchar_t /Zc:forScope /Fo"build-win\Win32\Debug\\" /Fd"build-win\Win32\Debug\vc100.pdb" /Gd /TP /wd4996 /wd4250 /wd4018 /wd4267 /analyze- /errorReport:prompt C:\USERS\PAUL\DOCUMENTS\VISUAL STUDIO 2010\PROJECTREVERSEMETRONOME\WDL-OL\WDL\IPLUG\IGRAPHICS.CPP
^C:\USERS\PAUL\DOCUMENTS\VISUAL STUDIO 2010\PROJECTREVERSEMETRONOME\WDL-OL\WDL\IPLUG\IGRAPHICSWIN.CPP
/c /ZI /nologo /W3 /WX- /Od /Oy- /D _DEBUG /D WIN32 /D _CRT_SECURE_NO_DEPRECATE /D _CRT_NONSTDC_NO_DEPRECATE /D _MBCS /Gm /EHsc /RTC1 /MTd /GS /arch:SSE2 /fp:precise /Zc:wchar_t /Zc:forScope /Fo"build-win\Win32\Debug\\" /Fd"build-win\Win32\Debug\vc100.pdb" /Gd /TP /wd4996 /wd4250 /wd4018 /wd4267 /analyze- /errorReport:prompt C:\USERS\PAUL\DOCUMENTS\VISUAL STUDIO 2010\PROJECTREVERSEMETRONOME\WDL-OL\WDL\IPLUG\IGRAPHICSWIN.CPP
^C:\USERS\PAUL\DOCUMENTS\VISUAL STUDIO 2010\PROJECTREVERSEMETRONOME\WDL-OL\WDL\IPLUG\IPARAM.CPP
/c /ZI /nologo /W3 /WX- /Od /Oy- /D _DEBUG /D WIN32 /D _CRT_SECURE_NO_DEPRECATE /D _CRT_NONSTDC_NO_DEPRECATE /D _MBCS /Gm /EHsc /RTC1 /MTd /GS /arch:SSE2 /fp:precise /Zc:wchar_t /Zc:forScope /Fo"build-win\Win32\Debug\\" /Fd"build-win\Win32\Debug\vc100.pdb" /Gd /TP /wd4996 /wd4250 /wd4018 /wd4267 /analyze- /errorReport:prompt C:\USERS\PAUL\DOCUMENTS\VISUAL STUDIO 2010\PROJECTREVERSEMETRONOME\WDL-OL\WDL\IPLUG\IPARAM.CPP
^C:\USERS\PAUL\DOCUMENTS\VISUAL STUDIO 2010\PROJECTREVERSEMETRONOME\WDL-OL\WDL\IPLUG\IPLUGBASE.CPP
/c /ZI /nologo /W3 /WX- /Od /Oy- /D _DEBUG /D WIN32 /D _CRT_SECURE_NO_DEPRECATE /D _CRT_NONSTDC_NO_DEPRECATE /D _MBCS /Gm /EHsc /RTC1 /MTd /GS /arch:SSE2 /fp:precise /Zc:wchar_t /Zc:forScope /Fo"build-win\Win32\Debug\\" /Fd"build-win\Win32\Debug\vc100.pdb" /Gd /TP /wd4996 /wd4250 /wd4018 /wd4267 /analyze- /errorReport:prompt C:\USERS\PAUL\DOCUMENTS\VISUAL STUDIO 2010\PROJECTREVERSEMETRONOME\WDL-OL\WDL\IPLUG\IPLUGBASE.CPP
^C:\USERS\PAUL\DOCUMENTS\VISUAL STUDIO 2010\PROJECTREVERSEMETRONOME\WDL-OL\WDL\IPLUG\IPLUGSTRUCTS.CPP
/c /ZI /nologo /W3 /WX- /Od /Oy- /D _DEBUG /D WIN32 /D _CRT_SECURE_NO_DEPRECATE /D _CRT_NONSTDC_NO_DEPRECATE /D _MBCS /Gm /EHsc /RTC1 /MTd /GS /arch:SSE2 /fp:precise /Zc:wchar_t /Zc:forScope /Fo"build-win\Win32\Debug\\" /Fd"build-win\Win32\Debug\vc100.pdb" /Gd /TP /wd4996 /wd4250 /wd4018 /wd4267 /analyze- /errorReport:prompt C:\USERS\PAUL\DOCUMENTS\VISUAL STUDIO 2010\PROJECTREVERSEMETRONOME\WDL-OL\WDL\IPLUG\IPLUGSTRUCTS.CPP
^C:\USERS\PAUL\DOCUMENTS\VISUAL STUDIO 2010\PROJECTREVERSEMETRONOME\WDL-OL\WDL\IPLUG\IPOPUPMENU.CPP
/c /ZI /nologo /W3 /WX- /Od /Oy- /D _DEBUG /D WIN32 /D _CRT_SECURE_NO_DEPRECATE /D _CRT_NONSTDC_NO_DEPRECATE /D _MBCS /Gm /EHsc /RTC1 /MTd /GS /arch:SSE2 /fp:precise /Zc:wchar_t /Zc:forScope /Fo"build-win\Win32\Debug\\" /Fd"build-win\Win32\Debug\vc100.pdb" /Gd /TP /wd4996 /wd4250 /wd4018 /wd4267 /analyze- /errorReport:prompt C:\USERS\PAUL\DOCUMENTS\VISUAL STUDIO 2010\PROJECTREVERSEMETRONOME\WDL-OL\WDL\IPLUG\IPOPUPMENU.CPP
^C:\USERS\PAUL\DOCUMENTS\VISUAL STUDIO 2010\PROJECTREVERSEMETRONOME\WDL-OL\WDL\IPLUG\LOG.CPP
/c /ZI /nologo /W3 /WX- /Od /Oy- /D _DEBUG /D WIN32 /D _CRT_SECURE_NO_DEPRECATE /D _CRT_NONSTDC_NO_DEPRECATE /D _MBCS /Gm /EHsc /RTC1 /MTd /GS /arch:SSE2 /fp:precise /Zc:wchar_t /Zc:forScope /Fo"build-win\Win32\Debug\\" /Fd"build-win\Win32\Debug\vc100.pdb" /Gd /TP /wd4996 /wd4250 /wd4018 /wd4267 /analyze- /errorReport:prompt C:\USERS\PAUL\DOCUMENTS\VISUAL STUDIO 2010\PROJECTREVERSEMETRONOME\WDL-OL\WDL\IPLUG\LOG.CPP
^D:\CMPUT\CMPUT_466\PROJECTREVERSEMETRONOME\WDL-OL\WDL\IPLUG\HOSTS.CPP
/c /ZI /nologo /W3 /WX- /Od /Oy- /D _DEBUG /D WIN32 /D _CRT_SECURE_NO_DEPRECATE /D _CRT_NONSTDC_NO_DEPRECATE /D _MBCS /Gm /EHsc /RTC1 /MTd /GS /arch:SSE2 /fp:precise /Zc:wchar_t /Zc:forScope /Fo"build-win\Win32\Debug\\" /Fd"build-win\Win32\Debug\vc100.pdb" /Gd /TP /wd4996 /wd4250 /wd4018 /wd4267 /analyze- /errorReport:prompt D:\CMPUT\CMPUT_466\PROJECTREVERSEMETRONOME\WDL-OL\WDL\IPLUG\HOSTS.CPP
^D:\CMPUT\CMPUT_466\PROJECTREVERSEMETRONOME\WDL-OL\WDL\IPLUG\IBITMAPMONOTEXT.CPP
/c /ZI /nologo /W3 /WX- /Od /Oy- /D _DEBUG /D WIN32 /D _CRT_SECURE_NO_DEPRECATE /D _CRT_NONSTDC_NO_DEPRECATE /D _MBCS /Gm /EHsc /RTC1 /MTd /GS /arch:SSE2 /fp:precise /Zc:wchar_t /Zc:forScope /Fo"build-win\Win32\Debug\\" /Fd"build-win\Win32\Debug\vc100.pdb" /Gd /TP /wd4996 /wd4250 /wd4018 /wd4267 /analyze- /errorReport:prompt D:\CMPUT\CMPUT_466\PROJECTREVERSEMETRONOME\WDL-OL\WDL\IPLUG\IBITMAPMONOTEXT.CPP
^D:\CMPUT\CMPUT_466\PROJECTREVERSEMETRONOME\WDL-OL\WDL\IPLUG\ICONTROL.CPP
/c /ZI /nologo /W3 /WX- /Od /Oy- /D _DEBUG /D WIN32 /D _CRT_SECURE_NO_DEPRECATE /D _CRT_NONSTDC_NO_DEPRECATE /D _MBCS /Gm /EHsc /RTC1 /MTd /GS /arch:SSE2 /fp:precise /Zc:wchar_t /Zc:forScope /Fo"build-win\Win32\Debug\\" /Fd"build-win\Win32\Debug\vc100.pdb" /Gd /TP /wd4996 /wd4250 /wd4018 /wd4267 /analyze- /errorReport:prompt D:\CMPUT\CMPUT_466\PROJECTREVERSEMETRONOME\WDL-OL\WDL\IPLUG\ICONTROL.CPP
^D:\CMPUT\CMPUT_466\PROJECTREVERSEMETRONOME\WDL-OL\WDL\IPLUG\IGRAPHICS.CPP
/c /ZI /nologo /W3 /WX- /Od /Oy- /D _DEBUG /D WIN32 /D _CRT_SECURE_NO_DEPRECATE /D _CRT_NONSTDC_NO_DEPRECATE /D _MBCS /Gm /EHsc /RTC1 /MTd /GS /arch:SSE2 /fp:precise /Zc:wchar_t /Zc:forScope /Fo"build-win\Win32\Debug\\" /Fd"build-win\Win32\Debug\vc100.pdb" /Gd /TP /wd4996 /wd4250 /wd4018 /wd4267 /analyze- /errorReport:prompt D:\CMPUT\CMPUT_466\PROJECTREVERSEMETRONOME\WDL-OL\WDL\IPLUG\IGRAPHICS.CPP
^D:\CMPUT\CMPUT_466\PROJECTREVERSEMETRONOME\WDL-OL\WDL\IPLUG\IGRAPHICSWIN.CPP
/c /ZI /nologo /W3 /WX- /Od /Oy- /D _DEBUG /D WIN32 /D _CRT_SECURE_NO_DEPRECATE /D _CRT_NONSTDC_NO_DEPRECATE /D _MBCS /Gm /EHsc /RTC1 /MTd /GS /arch:SSE2 /fp:precise /Zc:wchar_t /Zc:forScope /Fo"build-win\Win32\Debug\\" /Fd"build-win\Win32\Debug\vc100.pdb" /Gd /TP /wd4996 /wd4250 /wd4018 /wd4267 /analyze- /errorReport:prompt D:\CMPUT\CMPUT_466\PROJECTREVERSEMETRONOME\WDL-OL\WDL\IPLUG\IGRAPHICSWIN.CPP
^D:\CMPUT\CMPUT_466\PROJECTREVERSEMETRONOME\WDL-OL\WDL\IPLUG\IPARAM.CPP
/c /ZI /nologo /W3 /WX- /Od /Oy- /D _DEBUG /D WIN32 /D _CRT_SECURE_NO_DEPRECATE /D _CRT_NONSTDC_NO_DEPRECATE /D _MBCS /Gm /EHsc /RTC1 /MTd /GS /arch:SSE2 /fp:precise /Zc:wchar_t /Zc:forScope /Fo"build-win\Win32\Debug\\" /Fd"build-win\Win32\Debug\vc100.pdb" /Gd /TP /wd4996 /wd4250 /wd4018 /wd4267 /analyze- /errorReport:prompt D:\CMPUT\CMPUT_466\PROJECTREVERSEMETRONOME\WDL-OL\WDL\IPLUG\IPARAM.CPP
^D:\CMPUT\CMPUT_466\PROJECTREVERSEMETRONOME\WDL-OL\WDL\IPLUG\IPLUGBASE.CPP
/c /ZI /nologo /W3 /WX- /Od /Oy- /D _DEBUG /D WIN32 /D _CRT_SECURE_NO_DEPRECATE /D _CRT_NONSTDC_NO_DEPRECATE /D _MBCS /Gm /EHsc /RTC1 /MTd /GS /arch:SSE2 /fp:precise /Zc:wchar_t /Zc:forScope /Fo"build-win\Win32\Debug\\" /Fd"build-win\Win32\Debug\vc100.pdb" /Gd /TP /wd4996 /wd4250 /wd4018 /wd4267 /analyze- /errorReport:prompt D:\CMPUT\CMPUT_466\PROJECTREVERSEMETRONOME\WDL-OL\WDL\IPLUG\IPLUGBASE.CPP
^D:\CMPUT\CMPUT_466\PROJECTREVERSEMETRONOME\WDL-OL\WDL\IPLUG\IPLUGSTRUCTS.CPP
/c /ZI /nologo /W3 /WX- /Od /Oy- /D _DEBUG /D WIN32 /D _CRT_SECURE_NO_DEPRECATE /D _CRT_NONSTDC_NO_DEPRECATE /D _MBCS /Gm /EHsc /RTC1 /MTd /GS /arch:SSE2 /fp:precise /Zc:wchar_t /Zc:forScope /Fo"build-win\Win32\Debug\\" /Fd"build-win\Win32\Debug\vc100.pdb" /Gd /TP /wd4996 /wd4250 /wd4018 /wd4267 /analyze- /errorReport:prompt D:\CMPUT\CMPUT_466\PROJECTREVERSEMETRONOME\WDL-OL\WDL\IPLUG\IPLUGSTRUCTS.CPP
^D:\CMPUT\CMPUT_466\PROJECTREVERSEMETRONOME\WDL-OL\WDL\IPLUG\IPOPUPMENU.CPP
/c /ZI /nologo /W3 /WX- /Od /Oy- /D _DEBUG /D WIN32 /D _CRT_SECURE_NO_DEPRECATE /D _CRT_NONSTDC_NO_DEPRECATE /D _MBCS /Gm /EHsc /RTC1 /MTd /GS /arch:SSE2 /fp:precise /Zc:wchar_t /Zc:forScope /Fo"build-win\Win32\Debug\\" /Fd"build-win\Win32\Debug\vc100.pdb" /Gd /TP /wd4996 /wd4250 /wd4018 /wd4267 /analyze- /errorReport:prompt D:\CMPUT\CMPUT_466\PROJECTREVERSEMETRONOME\WDL-OL\WDL\IPLUG\IPOPUPMENU.CPP
^D:\CMPUT\CMPUT_466\PROJECTREVERSEMETRONOME\WDL-OL\WDL\IPLUG\LOG.CPP
/c /ZI /nologo /W3 /WX- /Od /Oy- /D _DEBUG /D WIN32 /D _CRT_SECURE_NO_DEPRECATE /D _CRT_NONSTDC_NO_DEPRECATE /D _MBCS /Gm /EHsc /RTC1 /MTd /GS /arch:SSE2 /fp:precise /Zc:wchar_t /Zc:forScope /Fo"build-win\Win32\Debug\\" /Fd"build-win\Win32\Debug\vc100.pdb" /Gd /TP /wd4996 /wd4250 /wd4018 /wd4267 /analyze- /errorReport:prompt D:\CMPUT\CMPUT_466\PROJECTREVERSEMETRONOME\WDL-OL\WDL\IPLUG\LOG.CPP
