^C:\USERS\PAUL\DOCUMENTS\VISUAL STUDIO 2010\PROJECTREVERSEMETRONOME\WDL-OL\WDL\IPLUG\BUILD-WIN\WIN32\DEBUG\HOSTS.OBJ|C:\USERS\PAUL\DOCUMENTS\VISUAL STUDIO 2010\PROJECTREVERSEMETRONOME\WDL-OL\WDL\IPLUG\BUILD-WIN\WIN32\DEBUG\IBITMAPMONOTEXT.OBJ|C:\USERS\PAUL\DOCUMENTS\VISUAL STUDIO 2010\PROJECTREVERSEMETRONOME\WDL-OL\WDL\IPLUG\BUILD-WIN\WIN32\DEBUG\ICONTROL.OBJ|C:\USERS\PAUL\DOCUMENTS\VISUAL STUDIO 2010\PROJECTREVERSEMETRONOME\WDL-OL\WDL\IPLUG\BUILD-WIN\WIN32\DEBUG\IGRAPHICS.OBJ|C:\USERS\PAUL\DOCUMENTS\VISUAL STUDIO 2010\PROJECTREVERSEMETRONOME\WDL-OL\WDL\IPLUG\BUILD-WIN\WIN32\DEBUG\IGRAPHICSWIN.OBJ|C:\USERS\PAUL\DOCUMENTS\VISUAL STUDIO 2010\PROJECTREVERSEMETRONOME\WDL-OL\WDL\IPLUG\BUILD-WIN\WIN32\DEBUG\IPARAM.OBJ|C:\USERS\PAUL\DOCUMENTS\VISUAL STUDIO 2010\PROJECTREVERSEMETRONOME\WDL-OL\WDL\IPLUG\BUILD-WIN\WIN32\DEBUG\IPLUGBASE.OBJ|C:\USERS\PAUL\DOCUMENTS\VISUAL STUDIO 2010\PROJECTREVERSEMETRONOME\WDL-OL\WDL\IPLUG\BUILD-WIN\WIN32\DEBUG\IPLUGSTRUCTS.OBJ|C:\USERS\PAUL\DOCUMENTS\VISUAL STUDIO 2010\PROJECTREVERSEMETRONOME\WDL-OL\WDL\IPLUG\BUILD-WIN\WIN32\DEBUG\IPOPUPMENU.OBJ|C:\USERS\PAUL\DOCUMENTS\VISUAL STUDIO 2010\PROJECTREVERSEMETRONOME\WDL-OL\WDL\IPLUG\BUILD-WIN\WIN32\DEBUG\LOG.OBJ
/OUT:"build-win\Win32\Debug\IPlug.lib" wininet.lib /NOLOGO "build-win\Win32\Debug\Hosts.obj"
"build-win\Win32\Debug\IBitmapMonoText.obj"
"build-win\Win32\Debug\IControl.obj"
"build-win\Win32\Debug\IGraphics.obj"
"build-win\Win32\Debug\IGraphicsWin.obj"
"build-win\Win32\Debug\IParam.obj"
"build-win\Win32\Debug\IPlugBase.obj"
"build-win\Win32\Debug\IPlugStructs.obj"
"build-win\Win32\Debug\IPopupMenu.obj"
"build-win\Win32\Debug\Log.obj"
^D:\CMPUT\CMPUT_466\PROJECTREVERSEMETRONOME\WDL-OL\WDL\IPLUG\BUILD-WIN\WIN32\DEBUG\HOSTS.OBJ|D:\CMPUT\CMPUT_466\PROJECTREVERSEMETRONOME\WDL-OL\WDL\IPLUG\BUILD-WIN\WIN32\DEBUG\IBITMAPMONOTEXT.OBJ|D:\CMPUT\CMPUT_466\PROJECTREVERSEMETRONOME\WDL-OL\WDL\IPLUG\BUILD-WIN\WIN32\DEBUG\ICONTROL.OBJ|D:\CMPUT\CMPUT_466\PROJECTREVERSEMETRONOME\WDL-OL\WDL\IPLUG\BUILD-WIN\WIN32\DEBUG\IGRAPHICS.OBJ|D:\CMPUT\CMPUT_466\PROJECTREVERSEMETRONOME\WDL-OL\WDL\IPLUG\BUILD-WIN\WIN32\DEBUG\IGRAPHICSWIN.OBJ|D:\CMPUT\CMPUT_466\PROJECTREVERSEMETRONOME\WDL-OL\WDL\IPLUG\BUILD-WIN\WIN32\DEBUG\IPARAM.OBJ|D:\CMPUT\CMPUT_466\PROJECTREVERSEMETRONOME\WDL-OL\WDL\IPLUG\BUILD-WIN\WIN32\DEBUG\IPLUGBASE.OBJ|D:\CMPUT\CMPUT_466\PROJECTREVERSEMETRONOME\WDL-OL\WDL\IPLUG\BUILD-WIN\WIN32\DEBUG\IPLUGSTRUCTS.OBJ|D:\CMPUT\CMPUT_466\PROJECTREVERSEMETRONOME\WDL-OL\WDL\IPLUG\BUILD-WIN\WIN32\DEBUG\IPOPUPMENU.OBJ|D:\CMPUT\CMPUT_466\PROJECTREVERSEMETRONOME\WDL-OL\WDL\IPLUG\BUILD-WIN\WIN32\DEBUG\LOG.OBJ
/OUT:"build-win\Win32\Debug\IPlug.lib" wininet.lib /NOLOGO "build-win\Win32\Debug\Hosts.obj"
"build-win\Win32\Debug\IBitmapMonoText.obj"
"build-win\Win32\Debug\IControl.obj"
"build-win\Win32\Debug\IGraphics.obj"
"build-win\Win32\Debug\IGraphicsWin.obj"
"build-win\Win32\Debug\IParam.obj"
"build-win\Win32\Debug\IPlugBase.obj"
"build-win\Win32\Debug\IPlugStructs.obj"
"build-win\Win32\Debug\IPopupMenu.obj"
"build-win\Win32\Debug\Log.obj"
